{
  "pengenalan":"<p style=\"line-height: 115%;\"><strong><span style=\"font-size: 11.0pt; line-height: 115%;\">Pengenalan</span></strong></p>\n<p style=\"text-align: justify; line-height: 115%;\"><span style=\"font-size: 11.0pt; line-height: 115%;\">Selamat datang di situs </span><span style=\"font-size: 11.0pt; line-height: 115%;\">resmi </span><span style=\"font-size: 11.0pt; line-height: 115%;\">TRAC yang beralamat </span><a href=\"http://www.trac.astra.co.id\"><span style=\"font-size: 11.0pt; line-height: 115%;\">www.trac.astra.co.id</span></a><span style=\"font-size: 11.0pt; line-height: 115%;\"> (selanjutnya disebut sebagai &ldquo;Situs TRAC&rdquo;)</span><span style=\"font-size: 11.0pt; line-height: 115%;\">. Kebijakan Privasi ini </span><span style=\"font-size: 11.0pt; line-height: 115%;\">mengatur dan atau menjelaskan seluruh layanan yang sudah </span><span style=\"font-size: 11.0pt; line-height: 115%;\">k</span><span style=\"font-size: 11.0pt; line-height: 115%;\">ami sediakan untuk Anda (</span><span style=\"font-size: 11.0pt; line-height: 115%;\">atau </span><span style=\"font-size: 11.0pt; line-height: 115%;\">&ldquo;Pengguna&rdquo;) gunakan, baik layanan yang </span><span style=\"font-size: 11.0pt; line-height: 115%;\">K</span><span style=\"font-size: 11.0pt; line-height: 115%;\">ami operasikan sendiri maupun yang dioperasikan melalui afiliasi dan/atau rekanan </span><span style=\"font-size: 11.0pt; line-height: 115%;\">k</span><span style=\"font-size: 11.0pt; line-height: 115%;\">ami. </span><span style=\"font-size: 11.0pt; line-height: 115%;\">&nbsp;</span></p>\n<p style=\"text-align: justify; line-height: 115%;\"><span style=\"font-size: 11.0pt; line-height: 115%;\">Untuk menjaga kepercayaan Anda kepada </span><span style=\"font-size: 11.0pt; line-height: 115%;\">K</span><span style=\"font-size: 11.0pt; line-height: 115%;\">ami, </span><span style=\"font-size: 11.0pt; line-height: 115%;\">k</span><span style=\"font-size: 11.0pt; line-height: 115%;\">ami senantiasa akan menjaga segala kerahasiaan yang terkandung dalam data pribadi Anda, karena </span><span style=\"font-size: 11.0pt; line-height: 115%;\">k</span><span style=\"font-size: 11.0pt; line-height: 115%;\">ami menganggap privasi Anda sangat penting bagi Kami. Dalam aturan privasi ini Kami sertakan penjelasan mengenai tata cara Kami mengumpulkan, menggunakan, mengungkapkan, memproses</span><span style=\"font-size: 11.0pt; line-height: 115%;\">,</span><span style=\"font-size: 11.0pt; line-height: 115%;\"> dan melindungi informasi dan data pribadi Anda yang </span><span style=\"font-size: 11.0pt; line-height: 115%;\">k</span><span style=\"font-size: 11.0pt; line-height: 115%;\">ami identifikasi (&ldquo;Data Pribadi&rdquo;). </span></p>\n<p style=\"text-align: justify; line-height: 115%;\"><span style=\"font-size: 11.0pt; line-height: 115%;\">Pada saat Anda membuat pemesanan dan atau akun pribadi pada website TRAC dan dengan mengklik notofikasi yang muncul pada halaman website, secara otomatis Anda juga memberikan persetujuan kepada Kami untuk </span><span style=\"font-size: 11.0pt; line-height: 115%;\">mencatat dan menyimpan informasi dan Data Pribadi Anda (selanjutnya disebut sebagai &ldquo;Persetujuan User&rdquo;). Di</span> <span style=\"font-size: 11.0pt; line-height: 115%;\">mana pada prinsipnya, setiap data yang Anda berikan dari waktu ke waktu akan </span><span style=\"font-size: 11.0pt; line-height: 115%;\">K</span><span style=\"font-size: 11.0pt; line-height: 115%;\">ami simpan dan </span><span style=\"font-size: 11.0pt; line-height: 115%;\">k</span><span style=\"font-size: 11.0pt; line-height: 115%;\">Anda dan Kami dapat menggunakan data pribadi Anda dan informasi lainnya yang dikumpulkan dengan tujuan pemasaran media sosial menggunakan te</span><span style=\"font-size: 11.0pt; line-height: 115%;\">k</span><span style=\"font-size: 11.0pt; line-height: 115%;\">nik grafik langsung dan terbuka dan untuk tujuan pemasaran digital konvensional, seperti mengirimkan Anda informasi secara otomatis melalui surat elektronik untuk memberitahukan informasi produk </span><span style=\"font-size: 11.0pt; line-height: 115%;\">dan layanan ter</span><span style=\"font-size: 11.0pt; line-height: 115%;\">baru, penawaran khusus</span><span style=\"font-size: 11.0pt; line-height: 115%;\">,</span><span style=\"font-size: 11.0pt; line-height: 115%;\"> atau informasi lainnya yang menurut </span><span style=\"font-size: 11.0pt; line-height: 115%;\">k</span><span style=\"font-size: 11.0pt; line-height: 115%;\">ami akan menarik bagi Anda (selanjutnya disebut sebagai &ldquo;Tujuan Penggunaan Data Pribadi&rdquo;)</span></p>\n<p style=\"text-align: justify; line-height: 115%;\"><span style=\"font-size: 11.0pt; line-height: 115%;\">Untuk tercapainya Tujuan Penggunaan Data Pribadi, Kami dapat mengungkapkan data Anda kepada grup perusahaan di</span> <span style=\"font-size: 11.0pt; line-height: 115%;\">mana TRAC bergabung di</span> <span style=\"font-size: 11.0pt; line-height: 115%;\">dalamnya, mitra penyedia produk</span><span style=\"font-size: 11.0pt; line-height: 115%;\"> dan layanan</span><span style=\"font-size: 11.0pt; line-height: 115%;\">, perusahaan lain yang tercatat sebagai rekanan dari TRAC, perusahaan yang ditunjuk untuk melakukan proses data yang terikat kontrak dengan </span><span style=\"font-size: 11.0pt; line-height: 115%;\">k</span><span style=\"font-size: 11.0pt; line-height: 115%;\">ami, agen perjalanan, badan pemerintah dan badan peradilan yang berwenang di jurisdiksi manapun.</span></p>\n<p style=\"text-align: justify; line-height: 115%;\"><span style=\"font-size: 11.0pt; line-height: 115%;\">Kebijakan</span><span style=\"font-size: 11.0pt; line-height: 115%;\"> privasi dan ketentuan lainnya</span><span style=\"font-size: 11.0pt; line-height: 115%;\"> dalam</span><span style=\"font-size: 11.0pt; line-height: 115%;\"> penggunaan website</span> <span style=\"font-size: 11.0pt; line-height: 115%;\">ini </span><span style=\"font-size: 11.0pt; line-height: 115%;\">sangat </span><span style=\"font-size: 11.0pt; line-height: 115%;\">penting untuk menjaga keamanan data pribadi Anda</span><span style=\"font-size: 11.0pt; line-height: 115%;\">. </span><span style=\"font-size: 11.0pt; line-height: 115%;\">Oleh karena </span><span style=\"font-size: 11.0pt; line-height: 115%;\">itu, Anda di</span><span style=\"font-size: 11.0pt; line-height: 115%;\">mohon untuk </span><span style=\"font-size: 11.0pt; line-height: 115%;\">mem</span><span style=\"font-size: 11.0pt; line-height: 115%;\">baca secara seksama </span><span style=\"font-size: 11.0pt; line-height: 115%;\">dan menyeluruh mengenai </span><span style=\"font-size: 11.0pt; line-height: 115%;\">ketentuan dalam </span><span style=\"font-size: 11.0pt; line-height: 115%;\">kebijakan</span><span style=\"font-size: 11.0pt; line-height: 115%;\"> privasi ini</span><span style=\"font-size: 11.0pt; line-height: 115%;\">, juga</span><span style=\"font-size: 11.0pt; line-height: 115%;\"> ketentuan lainnya dalam website </span><span style=\"font-size: 11.0pt; line-height: 115%;\">k</span><span style=\"font-size: 11.0pt; line-height: 115%;\">ami.</span></p>\n<p style=\"text-align: justify; line-height: 115%;\">&nbsp;</p>\n<p style=\"text-align: justify; line-height: 115%;\"><strong><span style=\"font-size: 11.0pt; line-height: 115%;\">Informasi yang </span></strong><strong><span style=\"font-size: 11.0pt; line-height: 115%;\">k</span></strong><strong><span style=\"font-size: 11.0pt; line-height: 115%;\">ami kumpulkan dan gunakan</span></strong></p>\n<p style=\"text-align: justify; line-height: 115%;\"><span style=\"font-size: 11.0pt; line-height: 115%;\">Pada saat Persetujuan User telah diberikan,</span><span style=\"font-size: 11.0pt; line-height: 115%;\"> maka semua informasi dan data pribadi Anda akan </span><span style=\"font-size: 11.0pt; line-height: 115%;\">k</span><span style=\"font-size: 11.0pt; line-height: 115%;\">ami kumpulkan dengan ketentuan sebagai berikut :</span></p>\n<ol style=\"list-style-type: lower-alpha;\">\n<li><span style=\"font-size: 11.0pt; line-height: 115%;\">Kami akan mengumpulkan informasi mengenai komputer atau pun media apapun yang Anda gunakan, termasuk IP <em>address</em>, sistem operasi, <em>browser </em>yang digunakan, URL, halaman, lokasi geografis</span><span style=\"font-size: 11.0pt; line-height: 115%;\">,</span><span style=\"font-size: 11.0pt; line-height: 115%;\"> dan waktu akses serta data lainnya terkait penggunaan komputer Anda (&ldquo;Detail IP&rdquo;).</span></li>\n<li><span style=\"font-size: 11.0pt; line-height: 115%;\">Kami akan meminta Anda untuk mengisi data-data pribadi secara benar, jelas, lengkap, akurat</span><span style=\"font-size: 11.0pt; line-height: 115%;\">,</span><span style=\"font-size: 11.0pt; line-height: 115%;\"> dan tidak menyesatkan, seperti nama, alamat email, nomor telepon, alamat </span><span style=\"font-size: 11.0pt; line-height: 115%;\">tempat tinggal </span><span style=\"font-size: 11.0pt; line-height: 115%;\">lengkap, informasi yang digunakan untuk pembayaran, informasi kartu kredit (nomor kartu kredit dan masa berlaku kartu kredit) dan data-data lain yang </span><span style=\"font-size: 11.0pt; line-height: 115%;\">k</span><span style=\"font-size: 11.0pt; line-height: 115%;\">ami perlukan guna </span><span style=\"font-size: 11.0pt; line-height: 115%;\">memproses</span><span style=\"font-size: 11.0pt; line-height: 115%;\"> transaksi </span><span style=\"font-size: 11.0pt; line-height: 115%;\">Anda yang dilakukan melalui <em>channel</em></span><span style=\"font-size: 11.0pt; line-height: 115%;\"> website dan layanan online lainnya yang </span><span style=\"font-size: 11.0pt; line-height: 115%;\">k</span><span style=\"font-size: 11.0pt; line-height: 115%;\">ami sediakan</span><span style=\"font-size: 11.0pt; line-height: 115%;\">. Dengan demikian,</span><span style=\"font-size: 11.0pt; line-height: 115%;\"> Anda dapat m</span><span style=\"font-size: 11.0pt; line-height: 115%;\">enikmati</span><span style=\"font-size: 11.0pt; line-height: 115%;\"> layanan yang Anda butuhkan. </span><span style=\"font-size: 11.0pt; line-height: 115%;\">Namun, k</span><span style=\"font-size: 11.0pt; line-height: 115%;\">ami tidak bertanggung jawab atas segala kerugian yang mungkin terjadi karena informasi dan atau data yang tidak benar, jelas, lengkap, akurat dan menyesatkan yang Anda berikan;</span></li>\n<li><span style=\"font-size: 11.0pt; line-height: 115%;\">Dalam menggunakan layanan </span><span style=\"font-size: 11.0pt; line-height: 115%;\">k</span><span style=\"font-size: 11.0pt; line-height: 115%;\">ami, informasi-informasi yang Anda </span><span style=\"font-size: 11.0pt; line-height: 115%;\">informasikan</span><span style=\"font-size: 11.0pt; line-height: 115%;\"> dapat </span><span style=\"font-size: 11.0pt; line-height: 115%;\">k</span><span style=\"font-size: 11.0pt; line-height: 115%;\">ami gunakan dan berikan kepada pihak ketiga yang bekerja</span> <span style=\"font-size: 11.0pt; line-height: 115%;\">sama dengan </span><span style=\"font-size: 11.0pt; line-height: 115%;\">k</span><span style=\"font-size: 11.0pt; line-height: 115%;\">ami, sejauh untuk kepentingan transaksi dan </span><span style=\"font-size: 11.0pt; line-height: 115%;\">atau untuk memberikan dan meningkatkan pengalaman Anda ketika mengakses dan atau menggunakan</span><span style=\"font-size: 11.0pt; line-height: 115%;\"> layanan </span><span style=\"font-size: 11.0pt; line-height: 115%;\">k</span><span style=\"font-size: 11.0pt; line-height: 115%;\">ami</span></li>\n<li><span style=\"font-size: 11.0pt; line-height: 115%;\">Segala informasi yang </span><span style=\"font-size: 11.0pt; line-height: 115%;\">k</span><span style=\"font-size: 11.0pt; line-height: 115%;\">ami terima dapat </span><span style=\"font-size: 11.0pt; line-height: 115%;\">k</span><span style=\"font-size: 11.0pt; line-height: 115%;\">ami gunakan untuk melindungi diri </span><span style=\"font-size: 11.0pt; line-height: 115%;\">k</span><span style=\"font-size: 11.0pt; line-height: 115%;\">ami terhadap segala tuntutan dan hukum yang berlaku terkait dengan penggunaan layanan dan pelanggaran yang Anda lakukan pada website </span><span style=\"font-size: 11.0pt; line-height: 115%;\">k</span><span style=\"font-size: 11.0pt; line-height: 115%;\">ami atas segala ketentuan sebagaimana diatur dalam persyaratan layanan TRAC dan pedoman penggunaan produk dan layanan </span><span style=\"font-size: 11.0pt; line-height: 115%;\">k</span><span style=\"font-size: 11.0pt; line-height: 115%;\">ami, termasuk dan tidak terbatas apabila dibutuhkan atas perintah Pengadilan dalam proses hukum;</span></li>\n<li><span style=\"font-size: 11.0pt; line-height: 115%;\">Anda bertanggung jawab atas kerahasiaan informasi dan data pribadi Anda, termasuk bertanggung jawab atas semua akses dan penggunaan website yang menggunakan kata sandi dan akun serta token yang Anda miliki yang digunakan oleh siapa saja, baik atas seijin maupun tidak seijin Anda. Demi keamanan data rahasia Anda, </span><span style=\"font-size: 11.0pt; line-height: 115%;\">k</span><span style=\"font-size: 11.0pt; line-height: 115%;\">ami sangat menyarankan agar Anda menyimpan akun dan kata sandi yang Anda miliki dengan sebaik-baiknya dan atau melakukan perubahan kata sandi secara berkala. Setiap penggunaan yang tidak sah dan tanpa sepengetahuan dan izin Anda menjadi tanggung jawab Anda sendiri dan </span><span style=\"font-size: 11.0pt; line-height: 115%;\">k</span><span style=\"font-size: 11.0pt; line-height: 115%;\">ami tidak bertanggung</span> <span style=\"font-size: 11.0pt; line-height: 115%;\">jawab atas segala kerugian yang ditimbulkan sebagai akibat dari kelalaian yang Anda lakukan.</span></li>\n<li><span style=\"font-size: 11.0pt; line-height: 115%;\">Anda harus segera memberitahukan kepada </span><span style=\"font-size: 11.0pt; line-height: 115%;\">k</span><span style=\"font-size: 11.0pt; line-height: 115%;\">ami mengenai adanya penggunaan sandi atau akun tanpa izin Anda atau semua bentuk pelanggaran atau ancaman pelanggaran keamanan dalam website ini.</span><span style=\"font-size: 11.0pt; line-height: 115%;\"> Informasi Anda sangat berguna bagi kami untuk melakukan pencegahan, perbaikan, atau penghentian segala aktivitas illegal yang merugikan Anda dan atau keamanan website TRAC.</span></li>\n<li><span style=\"font-size: 11.0pt; line-height: 115%;\">Anda berhak untuk merubah dan atau menghapus data alamat yang telah Anda berikan dan telah tersimpan dalam sistem </span><span style=\"font-size: 11.0pt; line-height: 115%;\">k</span><span style=\"font-size: 11.0pt; line-height: 115%;\">ami dengan cara menghubungi Customer Service</span><span style=\"font-size: 11.0pt; line-height: 115%;\"> TRAC di nomor</span><span style=\"font-size: 11.0pt; line-height: 115%;\"> (021)</span> <span style=\"font-size: 11.0pt; line-height: 115%;\">877</span> <span style=\"font-size: 11.0pt; line-height: 115%;\">877</span> <span style=\"font-size: 11.0pt; line-height: 115%;\">87 atau dapat mengirimkan email ke rco.nasional@trac.astra.co.id</span><span style=\"font-size: 11.0pt; line-height: 115%;\">.</span></li>\n</ol>\n<p style=\"text-align: justify; line-height: 115%;\"><strong><span style=\"font-size: 11.0pt; line-height: 115%;\">Penggunaan Situs TRAC</span></strong></p>\n<p style=\"text-align: justify; line-height: 115%;\"><span style=\"font-size: 11.0pt; line-height: 115%;\">Dengan menerima </span><span style=\"font-size: 11.0pt; line-height: 115%;\">Kebijakan Privasi </span><span style=\"font-size: 11.0pt; line-height: 115%;\">atas Situs TRAC ini, maka Anda telah diberikan keleluasaan dan atau otoritas akses yang terbatas dan dapat dibatalkan, tidak dapat dipindah-tangankan dan lisensi non-eksklusif untuk mengakses dan menggunakan website </span><span style=\"font-size: 11.0pt; line-height: 115%;\">melalui </span><span style=\"font-size: 11.0pt; line-height: 115%;\">browser Anda untuk tujuan transaksi produk</span><span style=\"font-size: 11.0pt; line-height: 115%;\"> dan layanan yang kami sediakan. </span></p>\n<p style=\"text-align: justify; line-height: 115%;\"><span style=\"font-size: 11.0pt; line-height: 115%;\">Dalam penggunaan website, Anda akan </span><span style=\"font-size: 11.0pt; line-height: 115%;\">memiliki </span><span style=\"font-size: 11.0pt; line-height: 115%;\">kata sandi dan akun yang unik untuk memungkinkan Anda mengakses bagian-bagian tertentu dari website ini. Setiap kali Anda menggunakan kata sandi atau akun tersebut, Anda akan dianggap memiliki otorisasi untuk mengakses dan menggunakan website ini dengan cara yang sesuai dengan</span><span style=\"font-size: 11.0pt; line-height: 115%;\"> Kebijakan Privasi </span><span style=\"font-size: 11.0pt; line-height: 115%;\">ini dan </span><span style=\"font-size: 11.0pt; line-height: 115%;\">k</span><span style=\"font-size: 11.0pt; line-height: 115%;\">ami tidak memiliki kewajiban untuk menyelidiki otorisasi atau sumber dari akses tersebut atau penggunaan website. Dengan demikian, Anda setuju bahwa Anda senantiasa memperhatikan ketentuan larangan yang berlaku dalam penggunaan website ini, yaitu sebagai berikut :</span></p>\n<ul>\n<li><span style=\"font-size: 11.0pt; line-height: 115%;\">Anda dilarang untuk melakukan serta tidak akan membantu orang lain untuk mereproduksi, mendistribusikan, menampilkan, menjual, menyewakan, mengirimkan, membuat karya turunan dari, menerjemahkan, memodifikasi, merekayasa balik, membongkar, menguraikan atau mengeksploitasi website ini atau sebagian dari itu.</span></li>\n<li><span style=\"font-size: 11.0pt; line-height: 115%;\">Anda dilarang untuk menjual dan memindah-tangankan akun Anda, profil, atau item yang terkait dengan</span><span style=\"font-size: 11.0pt; line-height: 115%;\"> website dan</span> <span style=\"font-size: 11.0pt; line-height: 115%;\">l</span><span style=\"font-size: 11.0pt; line-height: 115%;\">ayanan</span><span style=\"font-size: 11.0pt; line-height: 115%;\"> yang kami sediakan,</span><span style=\"font-size: 11.0pt; line-height: 115%;\"> kecuali secara tegas diizinkan secara tertulis oleh </span><span style=\"font-size: 11.0pt; line-height: 115%;\">k</span></li>\n<li><span style=\"font-size: 11.0pt; line-height: 115%;\">Anda dilarang untuk menggunakan setiap informasi yang diberikan pada website atau membuat penggunaan website untuk kepentingan komersial dan atau bisnis lain, kecuali secara tegas diizinkan secara tertulis oleh </span><span style=\"font-size: 11.0pt; line-height: 115%;\">k</span></li>\n<li><span style=\"font-size: 11.0pt; line-height: 115%;\">Anda dilarang untuk meniru atau menggambarkan diri Anda dengan orang lain atau badan usaha lain pada saat Anda memberikan data dan informasi Anda kepada </span><span style=\"font-size: 11.0pt; line-height: 115%;\">k</span><span style=\"font-size: 11.0pt; line-height: 115%;\">ami dalam penggunaan website dan layanan </span><span style=\"font-size: 11.0pt; line-height: 115%;\">k</span></li>\n<li><span style=\"font-size: 11.0pt; line-height: 115%;\">Anda dilarang untuk mengirimkan iklan, materi promosi, email <em>spam</em>, serta merusak operasi layanan </span><span style=\"font-size: 11.0pt; line-height: 115%;\">kami </span><span style=\"font-size: 11.0pt; line-height: 115%;\">dengan cara meng</span><span style=\"font-size: 11.0pt; line-height: 115%;\">gunggah</span><span style=\"font-size: 11.0pt; line-height: 115%;\"> virus, <em>worm</em> atau kode berbahaya lainnya.</span></li>\n<li><span style=\"font-size: 11.0pt; line-height: 115%;\">Anda dilarang untuk melakukan serta tidak akan membantu orang lain untuk mengasosiasikan, mencitrakan, mengaitkan, menghubungkan, mengafiliasikan dengan suatu website yang berisi konten-konten sebagai berikut :</span></li>\n</ul>\n<ol>\n<li style=\"list-style-type: none;\">\n<ol style=\"list-style-type: lower-alpha;\">\n<li><span style=\"font-size: 11.0pt; line-height: 115%;\">Konten yang melanggar hak kekayaan intelektual dan hak kepemilikan lainnya.</span></li>\n<li><span style=\"font-size: 11.0pt; line-height: 115%;\">Konten yang mengandung unsur po</span><span style=\"font-size: 11.0pt; line-height: 115%;\">r</span><span style=\"font-size: 11.0pt; line-height: 115%;\">nografi atau cabul atau </span><span style=\"font-size: 11.0pt; line-height: 115%;\">a</span><span style=\"font-size: 11.0pt; line-height: 115%;\">susila, perjudian, penghinaan, fitnah dan atau pencemaran nama baik, pemerasan dan atau pengancaman, penipuan, pemalsuan.</span></li>\n<li><span style=\"font-size: 11.0pt; line-height: 115%;\">Konten yang menimbulkan dan atau mendorong timbulnya atau memfasilitasi rasa kebencian, permusuhan, pengancaman, penghasutan, pelecehan dan mengobarkan suatu ketegangan antar perorangan, pihak manapun atau kelompok tertentu, baik berdasarkan suku, agama, ras dan antar golongan (SARA) ataupun gender atau orientasi seksual, asal negara, etnis, kebangsaan, keterbatasan fisik dan keyakinan.</span></li>\n<li><span style=\"font-size: 11.0pt; line-height: 115%;\">Konten-konten terlarang lainnya berdasarkan peraturan perundang-undangan yang berlaku.</span></li>\n</ol>\n</li>\n</ol>\n<p style=\"text-align: justify; line-height: 115%;\"><span style=\"font-size: 11.0pt; line-height: 115%;\">Apabila terdapat </span><span style=\"font-size: 11.0pt; line-height: 115%;\">perilaku Anda selaku pelanggan</span><span style=\"font-size: 11.0pt; line-height: 115%;\"> yang</span><span style=\"font-size: 11.0pt; line-height: 115%;\"> termasuk dan atau dianggap melanggar hukum dan ketentuan yang berlaku serta merupakan pelanggaran </span><span style=\"font-size: 11.0pt; line-height: 115%;\">terhadap Kebijakan Privasi ini, </span><span style=\"font-size: 11.0pt; line-height: 115%;\">atau berbahaya bagi kepentingan </span><span style=\"font-size: 11.0pt; line-height: 115%;\">k</span><span style=\"font-size: 11.0pt; line-height: 115%;\">ami, </span><span style=\"font-size: 11.0pt; line-height: 115%;\">kami berhak melakukan </span><span style=\"font-size: 11.0pt; line-height: 115%;\">pencabutan </span><span style=\"font-size: 11.0pt; line-height: 115%;\">terhadap </span><span style=\"font-size: 11.0pt; line-height: 115%;\">ijin akses yang diberikan dalam </span><span style=\"font-size: 11.0pt; line-height: 115%;\">Kebijakan Privasi</span><span style=\"font-size: 11.0pt; line-height: 115%;\"> ini tanpa pemberitahuan terlebih dahulu kepada Anda</span><span style=\"font-size: 11.0pt; line-height: 115%;\">. </span><span style=\"font-size: 11.0pt; line-height: 115%;\">Kami</span><span style=\"font-size: 11.0pt; line-height: 115%;\"> juga</span><span style=\"font-size: 11.0pt; line-height: 115%;\"> berhak untuk menolak layanan, menghentikan akun, dan atau membatalkan pesanan yang Anda lakukan, termasuk dan tidak terbatas untuk mengungkapkan identitas dalam <em>database</em> Anda kepada pihak yang berwenang atas dasar suatu surat perintah yang sah. </span></p>\n<p style=\"text-align: justify; line-height: 115%;\"><span style=\"font-size: 11.0pt; line-height: 115%;\">Anda harus bertanggung</span> <span style=\"font-size: 11.0pt; line-height: 115%;\">jawab terhadap semua kerugian yang </span><span style=\"font-size: 11.0pt; line-height: 115%;\">k</span><span style=\"font-size: 11.0pt; line-height: 115%;\">ami maupun afiliasi dan mitra atau rekanan </span><span style=\"font-size: 11.0pt; line-height: 115%;\">k</span><span style=\"font-size: 11.0pt; line-height: 115%;\">ami alami, termasuk dan tidak terbatas terhadap klaim pihak ketiga, beserta biaya-biaya lainnya yang mungkin muncul sebagai akibat yang ditimbulkan dari perilaku Anda. Konten yang disediakan di website ini adalah semata-mata untuk tujuan informasi. Dengan Anda menyetujui ketentuan ini, maka sekaligus membebaskan </span><span style=\"font-size: 11.0pt; line-height: 115%;\">k</span><span style=\"font-size: 11.0pt; line-height: 115%;\">ami dari tanggung jawab atas setiap klaim, sanggahan, kerusakan, atau kerugian yang diakibatkan dari penggunaan website atau layanan yang terkandung di dalamnya.</span></p>\n<p style=\"text-align: justify;\"><span style=\"font-size: 11.0pt;\">Jika Anda masih berusia di bawah 18 tahun, silahkan menggunakan layanan da</span><span style=\"font-size: 11.0pt;\">ri</span><span style=\"font-size: 11.0pt;\"> Situs </span><span style=\"font-size: 11.0pt;\">TRAC</span><span style=\"font-size: 11.0pt;\"> dengan persetujuan dan pengawasan orang tua atau wali Anda.</span><span style=\"font-size: 11.0pt; line-height: 115%;\">&nbsp;</span></p>\n<p style=\"text-align: justify; line-height: 115%;\"><strong><span style=\"font-size: 11.0pt; line-height: 115%;\">Perubahan</span></strong></p>\n<p style=\"text-align: justify; line-height: 115%;\"><span style=\"font-size: 11.0pt; line-height: 115%;\">Kami berhak untuk melakukan perubahan, penambahan</span><span style=\"font-size: 11.0pt; line-height: 115%;\">,</span><span style=\"font-size: 11.0pt; line-height: 115%;\"> dan atau pengurangan seluruh ataupun sebagian ketentuan dari aturan privasi ini dari waktu ke waktu tanpa pemberitahuan terlebih dahulu dan segala perubahan yang Kami lakukan akan </span><span style=\"font-size: 11.0pt; line-height: 115%;\">k</span><span style=\"font-size: 11.0pt; line-height: 115%;\">ami beritahukan melalui website www.trac.astra.co.id. Kami </span><span style=\"font-size: 11.0pt; line-height: 115%;\">harap</span><span style=\"font-size: 11.0pt; line-height: 115%;\"> Anda dapat secara berkala memeriksa mengenai kebijakan ini. Dengan mengakses dan menggunakan layanan </span><span style=\"font-size: 11.0pt; line-height: 115%;\">k</span><span style=\"font-size: 11.0pt; line-height: 115%;\">ami, maka secara langsung </span><span style=\"font-size: 11.0pt; line-height: 115%;\">k</span><span style=\"font-size: 11.0pt; line-height: 115%;\">ami menganggap Anda sudah mengerti dan menyetujui segala Kebijakan Privasi yang tertera di halaman website </span><span style=\"font-size: 11.0pt; line-height: 115%;\">k</span><span style=\"font-size: 11.0pt; line-height: 115%;\">ami saat itu juga.</span></p>\n<p style=\"text-align: justify; line-height: 115%;\"><strong><span style=\"font-size: 11.0pt; line-height: 115%;\">Hukum yang berlaku</span></strong></p>\n<p style=\"text-align: justify; line-height: 115%;\"><span style=\"font-size: 11.0pt; line-height: 115%;\">Apabila Anda mengakses website ini di luar Indonesia, maka atas penggunaan website dan layanan yang </span><span style=\"font-size: 11.0pt; line-height: 115%;\">k</span><span style=\"font-size: 11.0pt; line-height: 115%;\">ami berikan akan tunduk dan diatur oleh dan atau ditafsirkan sesuai dengan hukum yang berlaku di Indonesia, tanpa mempengaruhi adanya prinsip-prinsip konflik hukum yang berlaku.</span></p>\n<p style=\"text-align: justify; line-height: 115%;\">&nbsp;</p>\n<p style=\"text-align: justify; line-height: 115%;\"><strong><span style=\"font-size: 11.0pt; line-height: 115%;\">Persetujuan</span></strong></p>\n<p style=\"text-align: justify; line-height: 115%;\"><span style=\"font-size: 11.0pt; line-height: 115%;\">Dengan membaca seluruh ketentuan ini, mengakses dan menggunakan Situs TRAC&nbsp; serta layanan </span><span style=\"font-size: 11.0pt; line-height: 115%;\">k</span><span style=\"font-size: 11.0pt; line-height: 115%;\">ami, maka Anda dianggap menyatakan telah membaca, memahami, menyetujui dan memberikan seluruh persetujuan lain yang diperlukan, dan menyatakan tunduk pada aturan privasi ini beserta perubahan-perubahan yang mungkin </span><span style=\"font-size: 11.0pt; line-height: 115%;\">k</span><span style=\"font-size: 11.0pt; line-height: 115%;\">ami lakukan dari waktu ke waktu. Apabila Anda tidak dapat menyetujui aturan privasi ini, baik secara keseluruhan ataupun sebagian, maka Anda tidak diperbolehkan untuk mengakses Situs TRAC ini ataupun menggunakan </span><span style=\"font-size: 11.0pt; line-height: 115%;\">l</span><span style=\"font-size: 11.0pt; line-height: 115%;\">ayanan yang </span><span style=\"font-size: 11.0pt; line-height: 115%;\">k</span><span style=\"font-size: 11.0pt; line-height: 115%;\">ami sediakan.</span></p>\n<p style=\"text-align: justify; line-height: 115%;\"><span style=\"font-size: 11.0pt; line-height: 115%;\">&nbsp;</span></p>\n<p style=\"text-align: justify; line-height: 115%;\"><strong><span style=\"font-size: 11.0pt; line-height: 115%;\">Pembatasan Tanggung Jawab</span></strong><span style=\"font-size: 11.0pt; line-height: 115%;\">.</span></p>\n<p style=\"text-align: justify; line-height: 115%;\"><span style=\"font-size: 11.0pt; line-height: 115%;\">Selaku pengguna Anda setuju bahwa Anda memanfaatkan Layanan TRAC atas risiko Anda sendiri, dan Layanan TRAC diberikan kepada Anda pada \"SEBAGAIMANA ADANYA\" dan \"SEBAGAIMANA TERSEDIA\", oleh karena itu Anda setuju untuk tidak menuntut TRAC bertanggung jawab, atas segala kerusakan atau kerugian (termasuk namun tidak terbatas pada hilangnya uang, reputasi, keuntungan, atau kerugian tak berwujud lainnya) yang diakibatkan secara langsung atau tidak langsung dari:</span></p>\n<ol>\n<li><span style=\"font-size: 11.0pt; line-height: 115%;\">Penggunaan atau ketidakmampuan Anda dalam menggunakan Layanan TRAC;</span></li>\n<li><span style=\"font-size: 11.0pt; line-height: 115%;\">Kelalaian Anda untuk menjaga username dan password yang diberikan TRAC dalam penggunaan Situs TRAC;</span></li>\n<li><span style=\"font-size: 11.0pt; line-height: 115%;\">Penyalahgunaan Token TRAC termasuk akibat penyalahgunaan kartu kredit Anda oleh pihak lain;</span></li>\n<li><span style=\"font-size: 11.0pt; line-height: 115%;\">ketidakakuratan dan ketidakabsahan Anda dalam melakukan pengisian data-data yang diperlukan untuk menggunakan Situs TRAC.</span></li>\n</ol>\n<p style=\"text-align: justify; line-height: 115%;\"><span style=\"font-size: 11.0pt; line-height: 115%;\">&nbsp;</span></p>\n<p style=\"text-align: justify; line-height: 115%;\"><strong><span style=\"font-size: 11.0pt; line-height: 115%;\">Penghapusan Data Pribadi</span></strong></p>\n<p style=\"text-align: justify; line-height: 115%;\"><span style=\"font-size: 11.0pt; line-height: 115%;\">Apabila menurut pendapat TRAC Anda sudah tidak aktif sebagai pengguna atau atas pertimbangan lain dari TRAC, maka TRAC dapat memblokir akses Anda terhadap Situs TRAC dan/atau menghapus Data Pribadi Anda yang disimpan oleh TRAC dengan terlebih dahulu memberikan pemberitahuan tertulis baik secara manual atau elektronik kepada Anda atas penghapusan atau pemblokiran tersebut.</span></p>\n<p style=\"text-align: justify; line-height: 115%;\"><span style=\"font-size: 11.0pt; line-height: 115%;\">&nbsp;</span><span style=\"font-size: 11.0pt; line-height: 115%;\">&nbsp;</span></p>\n<p style=\"text-align: justify; line-height: 115%;\"><strong><span style=\"font-size: 11.0pt; line-height: 115%;\">Bantuan dan pertanyaan</span></strong></p>\n<p><span style=\"font-size: 11.0pt; font-family: Calibri;\">Jika Anda memiliki pertanyaan atau membutuhkan </span><span style=\"font-size: 11.0pt; font-family: Calibri;\">bantuan dan atau </span><span style=\"font-size: 11.0pt; font-family: Calibri;\">informasi lebih lanjut mengenai </span><span style=\"font-size: 11.0pt; font-family: Calibri;\">reservasi</span><span style=\"font-size: 11.0pt; font-family: Calibri;\"> Anda</span><span style=\"font-size: 11.0pt; font-family: Calibri;\"> atau layanan kami</span><span style=\"font-size: 11.0pt; font-family: Calibri;\">, Anda dapat menghubungi Customer Service</span><span style=\"font-size: 11.0pt; font-family: Calibri;\"> TRAC di nomor</span><span style=\"font-size: 11.0pt; font-family: Calibri;\"> (021)</span> <span style=\"font-size: 11.0pt; font-family: Calibri;\">877</span> <span style=\"font-size: 11.0pt; font-family: Calibri;\">877</span> <span style=\"font-size: 11.0pt; font-family: Calibri;\">87 atau dapat mengirimkan email ke rco.nasional@trac.astra.co.id</span><span style=\"font-size: 11.0pt; font-family: Calibri;\">.</span></p>\n<p>&nbsp;</p>\n<p>&nbsp;</p>",
  "token":"<p class=\"p1\"><strong>Penggunaan Token TRAC</strong></p>\n<p class=\"p2\">Token TRAC adalah suatu fitur atau fasilitas yang kami sediakan untuk Anda agar dapat melakukan proses pembayaran dengan menggunakan kartu kredit dengan aman, mudah dan cepat. Fitur dan fasilitas ini dilengkapi dengan sistem keamanan berlapis yang terintegrasi dengan <em>payment gateway</em> agar data dan informasi yang Anda berikan terjamin kerahasiaannya. Selain untuk menjamin kerahasiaan data dan informasi, fitur ini juga berfungsi untuk mempermudah dan mempercepat transaksi yang Anda lakukan dengan menggunakan kartu kredit.</p>\n<p class=\"p2\">Pada saat Anda melakukan pembayaran dengan kartu kredit, Anda akan diminta untuk mengisi data-data kartu kredit Anda secara benar, jelas, lengkap, akurat dan tidak menyesatkan, seperti data jenis kartu (Visa/MasterCard), nama pemegang kartu, nama bank penerbit kartu kredit, nomor kartu (Hanya 4 digit terakhir yang tampil), dan tanggal habis berlaku kartu (<em>expired date</em>).</p>\n<p class=\"p2\">Setiap data yang Anda berikan tersebut akan tersimpan secara otomatis ke dalam sistem <em>database payment gateway </em>yang kami gunakan (TRAC tidak secara langsung menyimpan <em>database</em> kartu kredit Anda, tapi tersimpan ke dalam sistem <em>database payment gateway</em> yang kami gunakan) agar memudahkan dan mempercepat proses pembayaran Anda pada transaksi selanjutnya. Setelah transaksi pertama menggunakan kartu kredit, seluruh <em>database</em> Anda telah tersimpan dengan lengkap, aman, dan tidak dibutuhkan lagi mengulang proses penyimpanan untuk data kartu kredit yang sama.</p>",
  "cookie":"<p class=\"p1\"><strong>Penggunaan cookies</strong></p>\n<p class=\"p2\"><em>Cookies</em> adalah file teks yang mengandung sejumlah kecil informasi yang diunduh ke perangkat Anda saat Anda mengunjungi sebuah website. Kami menggunakan cookie untuk berbagai alasan, seperti untuk melacak data Anda jika dibutuhkan untuk digunakan, pelacakan transaksi Anda dengan mitra atau rekanan kami, mengingat preferensi Anda dan pada umumnya meningkatkan pengalaman Anda saat menggunakan sebuah website. Anda dapat mengatur <em>browser</em> Anda untuk menerima atau tidak menerima suatu <em>cookies</em>.</p>\n<p class=\"p2\">TRAC menjalin kerja sama dengan pihak ketiga untuk membantu dalam mempromosikan dan membuat iklan yang menarik untuk Anda berdasarkan penggunaan Situs TRAC yang dimana Kami simpulkan dari data-data yang Anda gunakan pada website kami. Perusahaan-perusahaan yang bekerja sama dengan kami juga mungkin menggunakan <em>cookies</em> untuk membantu melacak perilaku pelanggan. Perusahaan tersebut mungkin menggunakan informasi Anda untuk mengungkap tentang perilaku pengguna untuk menyediakan iklan yang disesuaikan di berbagai layanan dan produk. Dalam menyediakan produk dan layanan Masing-masing perusahaan menggunakan <em>cookies</em> sesuai dengan informasi privasi yang juga sejalan dengan kebijakan privasi dan keamanan masing-masing perusahaan.</p>"
}