{
  "pendahuluan":"<p style=\"text-align: center;\"><span style=\"font-size: 12pt; line-height: 20pt;\">Pendahuluan</span></p>\n<p style=\"text-align: justify;\"><span style=\"font-size: 12pt; line-height: 20pt;\">Terima kasih atas kunjungan Anda ke website Kami, www.trac.astra.co.id. Kami berharap Anda merasa nyaman dalam mengakses dan menggunakan seluruh Layanan yang tersedia di website Kami. Kami terus berupaya memperbaiki dan meningkatan mutu pelayanan Kami, dan sangat menghargai segala saran dan masukan Anda. Silakan menyampaikannya kepada Kami melalui nomor (021)87787787 atau mengirimkan email ke rco.nasional@trac.astra.co.id.</span></p>\n<p style=\"text-align: justify;\"><span style=\"font-size: 12pt; line-height: 20pt;\">Website ini dimiliki, dioperasikan, dan diselenggarakan oleh TRAC (&ldquo;Kami&rdquo;), yang telah memberikan Layanan penyewaan kendaraan dan solusi transportasi sejak 1986 (&ldquo;Layanan&rdquo;). Layanan Kami tersedia secara online melalui website www.trac.astra.co.id (&ldquo;website&rdquo; atau &ldquo;situs TRAC&rdquo;) atau melalui berbagai akses berbasis internet via media, perangkat dan platform lainnya, baik yang sudah atau akan tersedia dikemudian hari. Selain itu, Anda juga dapat mengakses Layanan TRAC secara langsung di berbagai 46 outlet dan jaringan TRAC yang tersebar di kota-kota besar Indonesia.</span></p>\n<p style=\"text-align: justify;\"><span style=\"font-size: 12pt; line-height: 20pt;\">Dengan mengakses dan menggunakan website dan Layanan Kami, Anda menyatakan telah membaca, memahami, dan menyetujui untuk tunduk pada Syarat dan Ketentuan dan segala perubahannya. Syarat dan Ketentuan ini mengatur ketentuan yang berlaku untuk setiap akses dan penggunaan Anda terhadap Layanan TRAC yang tersedia pada website.</span></p>\n<p style=\"text-align: justify;\"><span style=\"font-size: 12pt; line-height: 20pt;\">Syarat dan Ketentuan dapat Kami ubah, modifikasi, tambah, hapus, atau koreksi (\"perubahan\") sewaktu-waktu sesuai dengan kebijakan Kami. Oleh karena itu, Kami sangat menganjurkan Anda untuk mengunjungi situs TRAC secara berkala agar dapat mengetahui adanya perubahan tersebut.</span></p>\n<p style=\"text-align: justify;\"><span style=\"font-size: 12pt; line-height: 20pt;\">Syarat dan Ketentuan ini berlaku menggantikan semua versi sebelumnya, terhitung sejak versi ini diunggah ke situs TRAC.</span></p>",
  "pengguna":"<p style=\"text-align: center;\"><span style=\"font-size: 12pt; line-height: 20pt;\">Ketentuan Penggunaan</span></p>\n<ol>\n<li style=\"text-align: justify;\"><span style=\"font-size: 12pt; line-height: 20pt;\">Website ini dan Layanan yang tersedia di dalamnya dapat digunakan oleh Anda hanya untuk penggunaan pribadi dan atau secara non-komersial serta setiap saat tunduk pada Syarat dan Ketentuan juga Kebijakan Privasi Kami.</span></li>\n<li style=\"text-align: justify;\"><span style=\"font-size: 12pt; line-height: 20pt;\">Segala informasi (berbentuk teks, foto, video, audio, gambar, logo, ilustrasi lain, ikon, data, software, script, interfaced, dan lainnya) yang terdapat atau terkandung dalam situs TRAC dimiliki oleh Kami dan tidak boleh dipergunakan tanpa sepengetahuan dan persetujuan TRAC, kecuali untuk penggunaan yang secara tegas diijinkan dan diperbolehkan dalam Syarat dan Ketentuan juga Kebijakan Privasi Kami.</span></li>\n<li style=\"text-align: justify;\"><span style=\"font-size: 12pt; line-height: 20pt;\">Kami berhak menarik, mengubah Layanan, informasi atau tampilan situs TRAC demi memberi pelayanan yang lebih baik. Jika dibutuhkan sewaktu-waktu, Kami dapat membatasi akses Anda ke beberapa bagian dari website atau keseluruhan dari Layanan situs TRAC.</span></li>\n<li style=\"text-align: justify;\"><span style=\"font-size: 12pt; line-height: 20pt;\">Kami berhak mengolah informasi Anda yang tersimpan dalam database Kami sesuai dengan kebijakan yang tercantum dalam Kebijakan Privasi. Dengan menggunakan Layanan Kami, Anda setuju atas pemrosesan tersebut dan menjamin semua data yang diberikan adalah benar.</span></li>\n</ol>",
  "umum":"<p style=\"text-align: center;\"><span style=\"font-size: 12pt; line-height: 20pt;\">Ketentuan Umum Layanan TRAC</span></p>\n<ol>\n<li><span style=\"font-size: 12pt; line-height: 20pt;\">Anda bisa melakukan pemesanan/reservasi secara online melalui situs TRAC untuk Layanan rental kendaraan individu (&ldquo;Personal Rental&rdquo;). Anda dapat mencari informasi tentang penyewaan kendaraan yang Anda inginkan, melakukan transaksi pemesanan sekaligus pembayaran secara online dengan aman melalui berbagai sistem dan fasilitas pembayaran yang tersedia di website Kami.</span></li>\n<li><span style=\"font-size: 12pt; line-height: 20pt;\">Untuk menggunakan Layanan reservasi online tersebut, Anda harus terlebih dulu menjadi mendaftarkan diri menjadi member dengan mengisi data diri berupa nama dan alamat email. Lalu, Anda juga wajib melengkapi persyaratan tertentu untuk menggunakan Layanan TRAC.</span></li>\n<li><span style=\"font-size: 12pt; line-height: 20pt;\">Khusus Layanan TRAC untuk perusahaan (&ldquo;Corporate Lease&rdquo; dan &ldquo;Astra Fleet Management Solution&rdquo;) dapat diakses dengan menghubungi langsung cabang TRAC terdekat di kota Anda. Situs TRAC hanya menampilkan informasi detail terkait Layanan yang tersedia untuk kebutuhan perusahaan tersebut. Anda tidak dapat melakukan transaksi reservasi via online untuk jenis-jenis Layanan ini. Silahkan klik tautan ini untuk melihat daftar cabang TRAC.</span></li>\n<li><span style=\"font-size: 12pt; line-height: 20pt;\">Layanan Personal Rental (yang di dalamnya terdapat Daily Car Rental, Airport Transfer, dan Bus Rental) secara umum dapat diakses via online selama dua puluh empat jam sehari dan tujuh hari seminggu; kecuali dalam hal adanya perbaikan, peningkatan atau pemeliharaan pada website Kami.</span></li>\n<li><span style=\"font-size: 12pt; line-height: 20pt;\">Meski demikian, reservasi Layanan Personal Rental melalui situs web hanya bisa diakses untuk pemakaian paling cepat satu hari kerja ke depan. Jadi, Anda harus melakukan pemesanan minimal satu hari kerja sebelum hari pemakaian.</span></li>\n</ol>",
  "personal_car":"<p style=\"text-align: center;\"><span style=\"line-height: 20pt; font-size: 12pt;\">Ketentuan Layanan Personal Rental: Daily Car Rental</span></p>\n<ol>\n<li><span style=\"line-height: 20pt; font-size: 12pt;\">Daily Car Rental adalah Layanan penyewaan mobil harian yang terbagi dalam dua pilihan, yaitu sewa mobil sekaligus Layanan pengemudi (chauffeur) dan sewa mobil lepas kunci atau tanpa pengemudi (selfdrive).</span></li>\n<li><span style=\"line-height: 20pt; font-size: 12pt;\">Anda dapat melakukan pemesanan Daily Car Rental (chauffeur maupun selfdrive) ke tujuan manapun, untuk perjalanan dalam kota maupun keluar kota.</span></li>\n<li><span style=\"line-height: 20pt; font-size: 12pt;\">Syarat menggunakan Layanan Daily rental adalah dengan melengkapi dokumen sebagai berikut:</span>\n<ul>\n<li><span style=\"line-height: 20pt; font-size: 12pt;\">Layanan chauffeur: KTP atau paspor (khusus WNA) dan kartu kredit yang masih valid.</span></li>\n<li><span style=\"line-height: 20pt; font-size: 12pt;\">Layanan selfdrive: KTP atau paspor (khusus WNA), SIM A atau SIM Internasional (khusus WNA), dan kartu kredit yang masih valid.</span></li>\n</ul>\n</li>\n<li><span style=\"line-height: 20pt; font-size: 12pt;\">Anda dapat melakukan reservasi Daily Car Rental (chauffeur maupun selfdrive) melalui berbagai channel yang telah kami sediakan, yaitu pemesanan secara online di situs TRAC, melalui email ke rco.nasional@trac.astra.co.id, via telepon ke Reservation Call Center (021) 877 877 87, atau dengan datang langsung ke cabang dan outlet TRAC.</span></li>\n<li><span style=\"line-height: 20pt; font-size: 12pt;\">Untuk reservasi melalui situs TRAC, Anda dapat memilih jenis pembayaran yang tersedia, yaitu dengan kartu kredit atau Virtual Account (VA).</span></li>\n<li><span style=\"line-height: 20pt; font-size: 12pt;\">Durasi paket Layanan chauffeur yang dapat Anda pilih adalah 4 jam dan 12 jam. Harga yang tertera untuk Layanan chauffeur sudah termasuk sewa mobil dan pengemudi serta asuransi.</span></li>\n<li><span style=\"line-height: 20pt; font-size: 12pt;\">Untuk kelebihan durasi pemakaian Layanan chauffeur, Anda akan dikenai biaya tambahan yang dihitung per jam (add hour) dengan jumlah biaya bergantung pada jenis mobil yang Anda gunakan.</span></li>\n<li><span style=\"line-height: 20pt; font-size: 12pt;\">Jika Anda harus menginap atau perjalanan Anda melebihi 16 jam, Anda akan dikenakan Overnight Lodging Cost (OLC) atau biaya menginap. Dengan OLC ini, Anda tidak perlu memberikan fasilitas penginapan untuk pengemudi Kami.</span></li>\n<li><span style=\"line-height: 20pt; font-size: 12pt;\">Sementara itu, durasi paket Layanan selfdrive dihitung dengan pemakaian per hari. Harga yang tertera untuk Layanan ini termasuk untuk biaya sewa mobil dan asuransi.</span></li>\n<li><span style=\"line-height: 20pt; font-size: 12pt;\">Khusus Layanan selfdrive, Anda harus mengembalikan mobil ke cabang TRAC tempat Anda memesan mobil paling lambat dua jam setelah masa sewa berakhir. Jika waktu keterlambatan melebihi batas waktu ini, Anda akan dikenakan biaya sejumlah satu hari masa sewa mobil TRAC.</span></li>\n<li><span style=\"line-height: 20pt; font-size: 12pt;\">Jika Anda tidak bisa mengantarkan mobil tersebut ke cabang TRAC, Anda dapat mengajukan permintaan penjemputan mobil. Kami akan mengambil mobil tersebut ke tempat yang telah disepakati, dengan tambahan biaya yang jumlahnya berbeda-beda tergantung jarak dari titik penjemputan ke cabang TRAC tempat Anda menyewa mobil. Kami akan menginformasikan jumlah biaya tersebut sebelum Anda memutuskan menggunakan Layanan penjemputan mobil.</span></li>\n<li><span style=\"line-height: 20pt; font-size: 12pt;\">Metode pembayaran untuk tambahan waktu sewa maupun biaya keterlambatan dapat dilakukan langsung melalui mesin EDC yang dibawa oleh pengemudi (jika menggunakan Layanan chauffeur) atau pembayaran melalui transfer ke nomor rekening TRAC. Kami akan menghubungi Anda lebih lanjut untuk informasi jumlah pembayaran tambahan ini.</span></li>\n<li><span style=\"line-height: 20pt; font-size: 12pt;\">Anda dapat melakukan reschedule maupun perubahan jenis mobil dengan cara membatalkan reservasi yang sudah diproses dan melakukan pemesanan kembali melalui channel reservasi yang telah Kami sebutkan sebelumnya</span></li>\n</ol>",
  "personal_airport": "<p style=\"text-align: center;\"><span style=\"font-size: 12pt; line-height: 20pt;\">Ketentuan Layanan Personal Rental: Airport Transfer</span></p>\n<ol>\n<li><span style=\"font-size: 12pt; line-height: 20pt;\">Airport Transfer adalah Layanan antar dan jemput (pick and drop service) dari dan ke bandara yang mencakup jaringan Layanan TRAC di Indonesia. Layanan ini bersifat one stop, artinya Anda akan dijemput dari dan ke bandara tanpa ada perhentian selama perjalanan.</span></li>\n<li><span style=\"font-size: 12pt; line-height: 20pt;\">Syarat menggunakan Layanan ini adalah dengan melengkapi dokumen KTP atau paspor (khusus WNA).</span></li>\n<li><span style=\"font-size: 12pt; line-height: 20pt;\">Anda dapat melakukan pemesanan Layanan ini melalui berbagai channel yang telah Kami sediakan, yaitu pemesanan secara online di situs TRAC, melalui email ke rco.nasional@trac.astra.co.id, via telepon ke Reservation Call Center (021) 877 877 87, atau dengan datang langsung ke cabang atau outlet TRAC.</span></li>\n<li><span style=\"font-size: 12pt; line-height: 20pt;\">Untuk reservasi melalui situs TRAC, Anda dapat memilih jenis pembayaran yang tersedia, yaitu dengan kartu kredit atau VA.</span></li>\n<li><span style=\"font-size: 12pt; line-height: 20pt;\">Anda dapat melakukan reschedule maupun perubahan jenis mobil dengan cara membatalkan reservasi yang sudah diproses dan melakukan pemesanan kembali melalui channel reservasi yang telah Kami sebutkan sebelumnya.</span></li>\n</ol>",
  "personal_bus": "<p style=\"text-align: center;\"><span style=\"font-size: 12pt; line-height: 20pt;\">Ketentuan Layanan Personal Rental: Bus Rental</span></p>\n<ol>\n<li style=\"text-align: justify;\"><span style=\"font-size: 12pt; line-height: 20pt;\">Anda dapat menggunakan Layanan Bus Rental TRAC untuk berbagai macam kebutuhan dan aktivitas. Layanan ini sudah termasuk jasa pengemudi, bahan bakar, dan asuransi perjalanan. Pilihan bus yang dapat digunakan mulai dari small bus (13, 15, atau 16 kursi), medium bus (18, 23, 29, 31, atau 35 kursi), big bus (59, 48, 45, atau 40 kursi), dan luxury bus (11 kursi).</span></li>\n<li style=\"text-align: justify;\"><span style=\"font-size: 12pt; line-height: 20pt;\">Anda dapat melakukan reservasi Bus Rental melalui berbagai channel yang telah Kami sediakan, yaitu pemesanan secara online di situs TRAC, melalui email ke rco.nasional@trac.astra.co.id, via telepon ke Reservation Call Center (021) 877 877 87, atau dengan datang langsung ke cabang dan outlet TRAC.</span></li>\n<li style=\"text-align: justify;\"><span style=\"font-size: 12pt; line-height: 20pt;\">Minimal durasi pemakaian Bus Rental adalah 12 jam. Jika pemakaian melebihi paket yang telah dibayar, Anda akan dikenakan biaya tambahan dengan hitungan per jam. Biaya tambahan akan mulai dihitung setelah pukul 22.00.</span></li>\n<li style=\"text-align: justify;\"><span style=\"font-size: 12pt; line-height: 20pt;\">Anda dapat melakukan reschedule maupun perubahan jenis bus dengan cara membatalkan reservasi yang sudah diproses dan melakukan pemesanan kembali melalui channel reservasi yang telah Kami sebutkan sebelumnya.</span></li>\n</ol>",
  "pembayaran":"<p style=\"text-align: center;\"><span style=\"font-size: 12pt; line-height: 20pt;\">Ketentuan Pembayaran, Pembatalan, dan Refund</span></p>\n<ol>\n<li><span style=\"font-size: 12pt; line-height: 20pt;\">Anda berhak memilih metode pembayaran yang telah Kami sediakan, yaitu menggunakan kartu kredit atau melalui VA atas nama PT Serasi Autoraya.</span></li>\n<li><span style=\"font-size: 12pt; line-height: 20pt;\">Anda wajib melakukan pembayaran terlebih dulu sesuai jumlah transaksi sebelum tanggal jatuh tempo. Setelah pembayaran Anda terkonfirmasi, Kami akan segera memproses reservasi Anda.</span></li>\n<li><span style=\"font-size: 12pt; line-height: 20pt;\">Jika Anda melakukan pembatalan dalam dalam rentang waktu 24-48 jam sebelum waktu pemakaian Layanan, Anda tidak akan dikenakan biaya pembatalan. Kami akan mengembalikan uang (refund) melalui transfer bank ke rekening Anda, dalam waktu kurang lebih 14 hari kerja setelah waktu pembatalan.</span></li>\n<li><span style=\"font-size: 12pt; line-height: 20pt;\">Namun, jika pembatalan reservasi dilakukan dalam waktu kurang dari 24 jam, Anda akan dikenai biaya pembatalan sebesar 100% dari nilai transaksi.</span></li>\n<li><span style=\"font-size: 12pt; line-height: 20pt;\">Proses refund dapat dilakukan apabila Anda membatalkan reservasi dalam waktu yang sesuai dengan ketentuan Kami. Jika Anda membatalkan reservasi dalam kurun waktu lebih dari 48 jam sebelum waktu sewa dimulai, Anda akan menerima refund sebesar 100%. Jika Anda membatalkan dalam waktu 24-48 jam sebelum waktu sewa dimulai, Anda akan menerima refund sebesar 50%.</span></li>\n<li><span style=\"font-size: 12pt; line-height: 20pt;\">Proses refund dimulai dari pemberian informasi nomor rekening Anda saat melakukan pembatalan. Lalu, TRAC akan mengirimkan kembali uang ke rekening Anda dalam kurun waktu lebih kurang 14 hari kerja setelah pembatalan sewa</span></li>\n</ol>",
  "asuransi":"<h3><strong> Syarat &amp; Ketentuan Umum</strong></h3><p>Demi keamanan dan keselamatan Anda selama menggunakan layanan TRAC, kami melindungi Anda dengan proteksi asuransi. Syarat dan Ketentuan Asuransi ini bersifat mengikat dan mengatur perihal asuransi yang kami berikan untuk Anda sebagai pelanggan kami. Berikut ini ketentuan umum mengenai asuransi TRAC:</p><p>Semua kendaraan kami telah diasuransikan kepada perusahaan asuransi (selanjutnya disebut sebagai <strong>&ldquo;Pihak Asuransi&rdquo;</strong>) yang ditunjuk oleh TRAC dengan Asuransi <em>Comprehensive</em> sesuai dengan ketentuan yang tercantum dalam polis asuransi.</p><p>Asuransi ini berlaku untuk semua layanan penyewaan kendaraan TRAC, baik sewa kendaraan dengan pengemudi maupun sewa kendaraan saja, yang cakupan, nominal penggantian, dan lain sebagainya diatur dalam Syarat dan Ketentuan ini.</p><p>Asuransi ini bersifat wajib dan melekat bersama layanan kami. Dengan menggunakan layanan TRAC, Anda dianggap telah menyetujui ketentuan asuransi ini. Oleh karena itu, kami menyarankan Anda untuk membaca secara detail Syarat &amp; Ketentuan Asuransi ini sebelum melakukan pemesanan layanan.</p><p>Proteksi asuransi dimulai ketika Anda sebagai penyewa mulai menggunakan layanan serta kendaraan TRAC, dan otomatis berakhir mengikuti akhir masa sewa Anda.</p><p>&nbsp;<strong>Cakupan Asuransi</strong></p><p>Asuransi ini mencakup <em>Third Party Liabilities</em> (Pertanggungan Pihak Ketiga), <em>Passenger Legal Liability</em> (Pertanggungan Atas Harta Benda), <em>Personal Accident</em> (Kecelakaan Diri Perorangan), dan <em>Total Lost Risk</em> (Kehilangan Total), dengan detail ketentuan sebagai berikut:</p><h4>&nbsp;<strong>Third Party Liabilities</strong></h4><p><em>Third Party Liabilities</em> atau pertanggungan pihak ketiga ini memberikan perlindungan atas tuntutan kerugian yang dialami oleh pihak ketiga yang terlibat dalam suatu kecelakaan.</p>\n<p>Pertanggungan maksimal oleh Pihak Asuransi adalah sebesar Rp 50.000.000 (lima puluh juta rupiah) untuk setiap kejadian. Jumlah lebih dari ini akan ditanggung oleh Anda sebagai penyewa.</p>\n<p>Pertanggungan ini berlaku jika Anda menyewa kendaraan dengan layanan pengemudi maupun sewa kendaraan saja (tanpa pengemudi).</p>\n<p>&nbsp;Pertanggungan ini tidak berlaku jika terbukti ada unsur kesengajaan atau ditemukan tindakan-tindakan yang menggugurkan asuransi (Lihat bagian <strong>&ldquo;Hal-Hal yang Menggugurkan Asuransi&rdquo;</strong>).</p>\n<p><strong>Passenger Legal Liability</strong></p>\n<p><em>Passenger Legal Liability</em> merupakan pertanggungan asuransi atas harta benda milik Anda sebagai penumpang (kecuali uang) yang disebabkan oleh kelalaian dari pihak pengemudi TRAC.</p>\n<p>Pertanggungan ini hanya berlaku jika Anda menyewa kendaraan dengan layanan pengemudi dan tidak berlaku jika hanya sewa kendaraan.</p>\n<p>Nilai penggantian maksimum Rp 10.000.000 (sepuluh juta rupiah) per penumpang.</p>\n<p>Jaminan atas risiko tersebut hanya bagi Anda dan dikecualikan bagi:</p>\n<ul>\n<li>Suami, istri, anak, orang tua, dan saudara sekandung Anda;</li>\n<li>Orang yang Anda suruh, bekerja untuk Anda, orang yang sepengetahuan atau seizin Anda;</li>\n<li>Orang yang tinggal bersama Anda;</li>\n<li>Pengurus, Pemegang Saham, Komisaris atau Pegawai, jika Anda merupakan pelanggan korporat TRAC.</li>\n</ul>\n<p>Pertanggungan <em>Passenger Legal Liability</em> ini tidak berlaku untuk kehilangan harta benda/barang yang dikarenakan oleh pencurian/perampasan/perampokan atau tindakan yang terbukti merupakan tindakan kesengajaan dan pertanggungan ini hanya terbatas untuk kendaraan milik cabang rental TRAC. (Lihat juga bagian <strong>&ldquo;Hal-Hal yang Menggugurkan Asuransi&rdquo;</strong>).</p>\n<p>Oleh karena itu, Anda dilarang dengan sengaja meninggalkan harta benda/barang milik Anda di dalam kendaraan. Dalam hal&nbsp; terjadi kehilangan harta benda/barang milik Anda akibat kelalaian tersebut, maka TRAC ataupun Pihak Asuransi tidak bertanggung jawab atas penggantian kehilangan harta benda/barang milik Anda.</p>\n<p>Anda wajib memeriksa kembali seluruh barang/harta benda Anda sebelum Kendaraan dikembalikan kepada TRAC. Apabila terjadi pelaporan kehilangan barang/harta benda setelah Kendaraan dikembalikan, Pihak Asuransi TRAC tidak bertanggung jawab atas kehilangan barang/harta benda tersebut.</p>\n<h3><strong>Personal Accident</strong></h3>\n<p><em>Personal Accident</em> atau pertanggungan kecelakaan diri perorangan ini merupakan penggantian ganti rugi kepada Anda sebagai pihak penyewa, jika terjadi cidera badan dan kematian yang diakibatkan kecelakaan.</p>\n<p>Nilai maksimum pertanggunan dari <em>Personal Accident</em> yang ditanggung oleh Pihak Asuransi&nbsp; maksimum adalah sebesar Rp 10.000.000,- (sepuluh puluh juta rupiah) per penumpang, untuk setiap kejadian.</p>\n<p>Pertanggungan kecelakaan diri perorangan ini berlaku baik dalam hal Anda menyewa kendaraan saja maupun menyewa kendaraan dengan layanan Pengemudi.</p>\n<p>Dalam hal penyewaan kendaraan saja (tanpa pengemudi) maka ganti rugi <em>Personal Accident</em>berlaku untuk pengemudi dan penumpangnya.</p>\n<p>Pertanggungan <em>Personal Accident</em> ini tidak berlaku untuk tindakan yang terbukti merupakan tindakan kesengajaan dan pertanggungan ini hanya terbatas untuk Kendaraan milik cabang rental TRAC.</p>\n<p>Pertanggungan <em>Personal Accident</em> ini mencakup risiko Kematian, dengan detail ketentuan berikut ini:</p>\n<ul>\n<li>Meninggal dunia dalam batas waktu 12 (dua belas) bulan sejak terjadinya kecelakaan;</li>\n<li>Hilang dan tidak diketemukan dalam waktu sekurang-kurangnya 60 hari sejak terjadinya kecelakaan;</li>\n</ul>\n<p>Nilai santunan sebesar 100% Nilai Pertanggungan untuk santunan Kematian akan&nbsp;dibayarkan kepada Pemegang Polis atau Ahli Waris yang namanya tercantum dalam Ihktisar pertanggungan.</p>\n<p>Pertanggungan <em>Personal Accident</em> ini mencakup risiko Cacat Tetap, dengan detail ketentuan sebagai berikut ini:</p>\n<ul>\n<li>Risiko ini mencakup cacat tetap keseluruhan yang terjadi dalam waktu 12 bulan sejak terjadinya kecelakaan, yaitu untuk kehilangan penglihatan kedua belah mata; hilang atau tidak berfungsinya kedua lengan; hilang atau tidak berfungsi kedua tungkai kaki; hilang atau tidak berfungsinya penglihatan; satu mata dan satu lengan, penglihatan satu mata dan satu tungkai kaki; satu tungkai kaki dan satu lengan;</li>\n<li>Risiko ini juga mencakup cacat tetap sebagian, yaitu berupa hilang atau tidak berfungsinya sebagian dari anggota tubuh;</li>\n</ul>\n<p>Hak atas santunan ini (cacat tetap keseluruhan maupun sebagian) berlaku setelah dokter menetapkan keadaan cacat tetap yang diderita.</p>\n<p>Santunan akan dibayarkan kepada Tertanggung berdasarkan tabel persentase dari Nilai Pertanggungan (Lihat tabel <strong>&ldquo;Persentase penggatian santuan Personal Accident bagi Penumpang dan Pengemudi&rdquo;</strong>)</p>\n<p>Apabila tertanggung telah menerima santunan dalam hal Cacat Tetap, kemudian akibat kecelakaan yang sama itu tertanggung meninggal dunia maka hak atas santunan dalam hal kematian akan diberikan setelah dikurangi dengan jumlah santunan Cacat Tetap yang telah dibayarkan.</p>\n<p>Jika santunan Cacat Tetap yang telah dibayar lebih besar dari pada santunan Kematian, maka tertanggung tidak berhak atas santunan kematian.</p>\n<p>&nbsp;</p>\n<table>\n<tbody>\n<tr>\n<td colspan=\"2\" width=\"468\">\n<p><strong>Kecelakaan diri Penumpang</strong></p>\n</td>\n</tr>\n<tr>\n<td width=\"234\">\n<p>Meninggal dunia</p>\n</td>\n<td width=\"234\">\n<p>100%</p>\n</td>\n</tr>\n<tr>\n<td width=\"234\">\n<p>Selama-lamanya kehilangan seluruh pengelihatan pada kedua belah mata</p>\n</td>\n<td width=\"234\">\n<p>50%</p>\n</td>\n</tr>\n<tr>\n<td width=\"234\">\n<p>Kehilangan kedua belah tangan atau kedua belah kaki atau kehilangan sebelah tangan atau sebelah kaki</p>\n</td>\n<td width=\"234\">\n<p>50%</p>\n</td>\n</tr>\n<tr>\n<td width=\"234\">\n<p>Kehilangan sebelah tangan atau sebelah kaki, bersama-sama dengan kehilangan seluruh pengelihatan pada sebelah mata untuk selama-lamanya</p>\n</td>\n<td width=\"234\">\n<p>50%</p>\n</td>\n</tr>\n<tr>\n<td width=\"234\">\n<p>Kehilangan sebelah tangan atau sebelah kaki atau kehilangan seluruh pengelihatan pada sebelah mata untuk selama-lamanya</p>\n</td>\n<td width=\"234\">\n<p>25%</p>\n</td>\n</tr>\n<tr>\n<td colspan=\"2\" width=\"468\">\n<p><strong>Kecelakaan diri Pengemudi</strong></p>\n</td>\n</tr>\n<tr>\n<td width=\"234\">\n<p>Meninggal dunia</p>\n</td>\n<td width=\"234\">\n<p>100%</p>\n</td>\n</tr>\n<tr>\n<td width=\"234\">\n<p>Selama-lamanya kehilangan seluruh pengelihatan pada kedua belah mata</p>\n</td>\n<td width=\"234\">\n<p>100%</p>\n</td>\n</tr>\n<tr>\n<td width=\"234\">\n<p>Kehilangan kedua belah tangan atau kedua belah kaki atau kehilangan sebelah tangan atau sebelah kaki</p>\n</td>\n<td width=\"234\">\n<p>100%</p>\n</td>\n</tr>\n<tr>\n<td width=\"234\">\n<p>Kehilangan sebelah tangan atau sebelah kaki, bersama-sama dengan kehilangan seluruh pengelihatan pada sebelah mata untuk selama-lamanya</p>\n</td>\n<td width=\"234\">\n<p>100%</p>\n</td>\n</tr>\n<tr>\n<td width=\"234\">\n<p>Kehilangan sebelah tangan atau sebelah kaki atau kehilangan seluruh pengelihatan pada sebelah mata untuk selama-lamanya</p>\n</td>\n<td width=\"234\">\n<p>75%</p>\n</td>\n</tr>\n</tbody>\n</table>\n<p><em>Tabel: &ldquo;Persentase penggatian santuan Personal Accident bagi Penumpang dan Pengemudi&rdquo;</em><em><br /><br /></em></p>\n<p><strong>Pertanggungan <em>Personal Accident</em> ini menjamin risiko Biaya Perawatan atau Pengobatan, dengan detail ketentuan:</strong></p>\n<p>Santunan akan diberikan dalam hal pembayaran atas penggantian biaya-biaya perawatan dan atau pengobatan yang dilakukan dalam usaha untuk penyembuhan atau pemulihan sakit atau cidera yang diderita Tertanggung sebagai akibat langsung dari suatu kecelakaan yang dijamin polis.</p>\n<p>Hak atas penggantian ini diberikan sesuai dengan biaya-biaya yang dikeluarkan oleh Tertanggung namun tidak melampui Nilai Pertanggungan (sebesar 10% dari <em>Total Sum Insured</em>) sesuai yang tercantum di dalam Ikhtisar Pertanggungan.</p>\n<p>Jaminan ini tidak berlaku bagi kuitansi yang dikeluarkan oleh pengobatan alternatif dan salinan kuitansi tanpa legalisir.</p>\n<p><strong>Total Lost</strong></p>\n<p><em>Total Lost</em> merupakan asuransi untuk kehilangan unit kendaraan.</p>\n<p>Anda sebagai Penyewa juga wajib menanggung Biaya Risiko Kehilangan (<em>Total Lost Risk</em>) sebesar Rp 6.000.000 (enam juta rupiah) bila Mobil tersebut hilang.</p>\n<p>Pertanggungan ini tidak berlaku untuk kehilangan unit kendaraan yang dikarenakan oleh pencurian/perampasan/perampokan atau tindakan yang terbukti merupakan tindakan kesengajaan dan pertanggungan ini hanya terbatas untuk kendaraan milik cabang rental TRAC (Lihat bagian <strong>&ldquo;Hal-Hal yang Menggugurkan Asuransi&rdquo;</strong>).</p>\n<h3><strong>Prosedur Klaim Asuransi</strong></h3>\n<p>Dalam hal terjadi kecelakaan yang menyebabkan kerugian dan menimbulkan tuntutan dari pihak ketiga atau kehilangan Kendaraan maupun sebagian dari Kendaraan atau aksesori dari Kendaraan, Anda wajib melakukan tindakan sebagai berikut:</p>\n<p>Melaporkan ke Kepolisian setempat dan melengkapi dokumen-dokumen yang diperlukan terkait kecelakaan atau kehilangan tersebut secepatnya dan menghubungi Customer Assistance Center 1500009 dalam tempo 1x24 (satu kali dua puluh empat) jam terhitung sejak terjadinya peristiwa tersebut.</p>\n<p>Memberikan Berita Acara Kecelakaan dengan kondisi sebenarnya dan melengkapi dokumen-dokumen yang diperlukan terkait kecelakaan atau kehilangan tersebut secepatnya dalam tempo 1x24 (satu kali dua puluh empat) jam terhitung sejak terjadinya peristiwa kecelakaan/kehilangan tersebut.</p>\n<p>Anda wajib menyerahkan dokumen-dokumen tersebut dan dokumen lain yang diperlukan oleh perusahaan asuransi sehubungan dengan kerugian yang ditanggung dalam kecelakaan/kehilangan.</p>\n<p>Bertanggung jawab atas pembayaran biaya perbaikan/penggantian untuk klaim asuransi, yang merupakan beban biaya risiko sendiri (<em>Deductible/Own Risk Charge</em>) sejumlah Rp 330.000 (tiga ratus tiga puluh ribu rupiah) (termasuk PPN 10%) per kejadian.</p>\n<p>Dalam hal terjadinya kehilangan Kendaraan, selain pembayaran biaya risiko sendiri (<em>Own Risk Charge</em>) sebagaimana yang dimaksud sebelumnya, Anda juga dikenakan pembayaran biaya risiko kehilangan (<em>Total Loss Risk Charge</em>) sebesar Rp 6.000.000 (enam juta rupiah) dan melakukan pengurusan dokumen-dokumen Kepolisian sehubungan dengan proses klaim Asuransi atas Kendaraan yang hilang atau Total Lost (Lihat bagian <strong>&ldquo;Cakupan Asuransi Total Lost&rdquo;</strong>).</p>\n<p>Beban biaya risiko sendiri dan biaya risiko kehilangan sebagaimana dimaksud di atas wajib dibayar, baik oleh Anda sebagai Penyewa maupun Pengguna Kendaraan (<em>user</em>) yang bekerja untuk penyewa.</p>\n<p>Namin, biaya di atas tidak akan menjadi tanggungan Anda bila Anda menggunakan layanan penyewaan kendaraan dengan pengemudi TRAC dan kejadian kecelakaan/kehilangan tersebut terjadi ketika pengemudi mengendarai mobil.</p>\n<p>Dalam hal Kendaraan hilang, Anda wajib bersedia melakukan wawancara dengan pihak asuransi sehubungan dengan kehilangan tersebut (bila ada) dan harus didampingi oleh TRAC.</p>\n<p>Anda bersama-sama dengan TRAC akan menangani seluruh proses penyelesaian masalah yang berkaitan dengan kecelakaan atau kehilangan tersebut, dan TRAC akan mendampingi Anda untuk proses tersebut.</p>\n<p>Proses klaim asuransi akan mengikuti prosedur, arahan, dan informasi dari Pihak Asuransi. Meski demikian, Anda dapat menghubungi Customer Assistance Center 1500009 jika memiliki kendala dalam proses klaim asuransi. <br /><br /></p>\n<h3><strong>Hal-Hal yang Menggugurkan Asuransi</strong></h3>\n<p>Semua pertanggungan oleh Pihak Asuransi dan TRAC yang tercantum dalam <strong>&ldquo;Cakupan Asuransi&rdquo;</strong> dianggap gugur jika Penyewa dan/atau pengguna Kendaraan (<em>user</em>) melakukan tindakan-tindakan penggunaan Kendaraan secara tidak wajar yang menimbulkan kerugian, kerusakan, dan beban biaya yang tidak ditanggung oleh Asuransi (<em>unclaimable</em>), atau suatu keadaan kahar, atau kerugian dan kerusakan perlengkapan Kendaraan, atau kerugian dan kerusakan yang disebabkan oleh Kendaraan yang tidak ditanggung oleh Asuransi (<em>unclaimable</em>), yaitu sebagai berikut:</p>\n<p>Tindakan penggunaan kendaraan tidak wajar yang dilakukan oleh penyewa dan/atau pengguna Kendaraan (<em>user</em>) yang menimbulkan kerugian, kerusakan, biaya atas Kendaraan dan atau tanggung jawab hukum terhadap pihak ketiga namun tidak terbatas pada:</p>\n<p>Kendaraan digunakan untuk:</p>\n<p>menarik atau mendorong kendaraan atau benda lain, memberi pelajaran pengemudi;</p>\n<p>turut serta dalam perlombaan, latihan, penyaluran hobi kecakapan atau kecepatan, karnaval, pawai, kampanye, unjuk rasa;</p>\n<p>melakukan tindak kejahatan.</p>\n<p>Penggelapan, penipuan, hipnotis dan sejenisnya, baik yang dilakukan oleh penyewa dan/atau pengguna Kendaraan (<em>user</em>) maupun ketika penyewa dan/atau pengguna Kendaraan (<em>user</em>) menjadi korban atas tindakan yang dilakukan oleh pihak lain.</p>\n<p>Perbuatan jahat yang dilakukan oleh:</p>\n<p>Penyewa dan/atau pengguna Kendaraan (<em>user</em>) sendiri;</p>\n<p>Suami atau istri, anak, orang tua atau saudara sekandung pengguna Kendaraan (<em>user</em>);</p>\n<p>Orang yang disuruh penyewa dan/atau pengguna Kendaraan (<em>user</em>), bekerja pada penyewa dan/atau pengguna Kendaraan (<em>user</em>), orang yang sepengetahuan atau seizin penyewa dan/atau pengguna Kendaraan (<em>user</em>);</p>\n<p>Orang yang tinggal bersama pengguna Kendaraan (<em>user</em>);</p>\n<p>Pengurus, pemegang saham, komisaris atau pegawai dari penyewa, jika penyewa merupakan badan hukum.</p>\n<p>Kelebihan muatan dari kapasitas Kendaraan yang telah ditetapkan pabrikan.</p>\n<p>Disebabkan oleh tindakan sengaja penyewa dan atau pengguna Kendaraan (<em>user</em>), termasuk namun tidak terbatas pada:</p>\n<p>Kendaraan dilarang melewati jalanan dengan genangan air di atas 20 cm (dua puluh centimeter);</p>\n<p>Apabila Kendaraan melewati permukaan jalan rusak/berlubang, kecepatan maksimum yang diijinkan adalah tidak melebihi 10 km/jam (sepuluh kilometer per jam);</p>\n<p>Kendaraan tidak diijinkan untuk dibenturkan atau ditabrakkan dengan sengaja kepada objek padat lain;</p>\n<p>Pengguna Kendaraan (<em>user</em>) dilarang dengan sengaja merusak fungsi elektrikal maupun mekanikal Kendaraan.</p>\n<p>Pada saat terjadinya kerugian atau kerusakan, Kendaraan dikemudikan oleh seseorang yang tidak memiliki Surat Izin Mengemudi (SIM) sesuai dengan peraturan perundang-undangan yang berlaku.</p>\n<p>Dikemudikan oleh seorang yang berada di bawah pengaruh minuman keras, obat terlarang atau sesuatu bahan lain yang membahayakan.</p>\n<p>Dikemudikan secara paksa walaupun secara teknis kondisi kendaraan dalam keadaan rusak atau tidak laik jalan.</p>\n<p>Memasuki atau melewati jalan tertutup, terlarang, tidak diperuntukkan untuk Kendaraan atau melanggar rambu-rambu lalu-lintas.</p>\n<p>Tindakan penyewa dan/atau pengguna Kendaraan (<em>user</em>) membawa suatu benda atau zat atau lainnya yang menimbulkan kerugian dan atau kerusakan Kendaraan atau biaya yang langsung maupun tidak langsung disebabkan oleh, akibat dari, ditimbulkan oleh:</p>\n<p>Barang atau hewan yang sedang berada di dalam dimuat pada, ditumpuk di, dibongkar dari atau diangkut oleh Kendaraan;</p>\n<p>Zat kimia, air atau benda cair lainnya, yang berada di dalam Kendaraan.</p>\n<p>Suatu peristiwa dan/atau kejadian yang terjadi di luar kemampuan manusia dan tidak dapat dihindarkan yang menimbulkan kerugian, kerusakan dan atau biaya atas Kendaraan dan atau tanggung jawab hukum terhadap pihak ketiga, yang langsung maupun tidak langsung disebabkan oleh, akibat dari, ditimbulkan oleh:</p>\n<p>Kerusuhan, pemogokan, penghalangan bekerja, tawuran, huru-hara, pembangkit rakyat, pengambil-alihan kekuasan, revolusi, pemberontakan, kekuatan militer, invasi, perang saudara, perang dan permusuhan, makar, terorisme, sabotase, penjarahan;</p>\n<p>gempa bumi, letusan gunung berapi, angin topan, badai, tsunami, hujan es, banjir, genangan air, tanah longsor atau gejala geologi atau meteorologi lainnya;</p>\n<p>Reaksi nuklir, termasuk tetapi tidak terbatas pada radiasi nuklir, ionisasi, fusi, fisi atau pencemaran radio aktif, tanpa memandang apakah itu terjadi di dalam atau di luar Kendaraan dan atau kepentingan yang dipertanggungkan.</p>\n<p>Kerusakan, kerugian dan/atau kehilangan terhadap perlengkapan-perlengkapan atau dokumen resmi yang melekat pada Kendaraan, adalah sebagai berikut:</p>\n<p>Kerusakan dan/atau kehilangan terhadap perlengkapan tambahan di luar standar pabrikan dan/atau <em>dealer</em>;</p>\n<p>Kerusakan pada ban, <em>velg</em>,<em> dop</em> yang tidak disertai kerusakan pada bagian lain Kendaraan;</p>\n<p>Kerusakan dan/atau kehilangan terhadap kunci dan atau bagian lainnya dari Kendaraan pada saat tidak melekat atau berada di dalam Kendaraan tersebut;</p>\n<p>Kerusakan dan/atau kehilangan terhadap perlengkapan yang diakibatkan dari kesalahan dalam penggunaannya;</p>\n<p>Kerusakan dan/atau kehilangan terhadap Surat Tanda Nomor Kendaraan (STNK), Buku Keur, dan atau surat-surat lain Kendaraan.</p>\n<p>Penyewa dan/atau pengguna Kendaraan (<em>user</em>) terbukti mengalihkan atau menyewakan lebih lanjut atau memberikan hak dalam hal ini atau menjadikan Kendaraan sebagai agunan kepada pihak lain.</p>\n<p>Penyewa dan/atau pengguna Kendaraan (<em>user</em>) terbukti melakukan sesuatu perubahan apapun terhadap bentuk semula dari Kendaraan, menambah atau meniadakan perlengkapan orisinal dari Kendaraan. Apabila pada saat pengembalian Kendaraan ditemukan perubahan, penambahan atau peniadaan perlengkapan orisinal dari Kendaraan maka penyewa wajib merubah ke bentuk semula dari Kendaraan atau mengembalikan perlengkapan orisinal dari Kendaraan.</p>\n<p>Kerugian akibat kecelakaan/kehilangan Kendaraan yang tidak dapat ditanggung oleh pihak asuransi (<em>unclaimable</em>) sesuai dengan ketentuan Polis Standar Asuransi Kendaraan Bermotor Indonesia; atau biaya-biaya yang timbul terkait kewajiban penyewa untuk melakukan laporan ke Kepolisian saat melakukan klaim.</p>"
}