<?xml version="1.0" encoding="UTF-8"?>
<svg width="10px" height="10px" viewBox="0 0 10 10" version="1.1" xmlns="http://www.w3.org/2000/svg" xmlns:xlink="http://www.w3.org/1999/xlink">
    <!-- Generator: Sketch 52.5 (67469) - http://www.bohemiancoding.com/sketch -->
    <title>correct</title>
    <desc>Created with Sketch.</desc>
    <g id="07.-Dashboard" stroke="none" stroke-width="1" fill="none" fill-rule="evenodd">
        <g id="0404_Dashboard_Settings-change-page" transform="translate(-1176.000000, -714.000000)" fill="#FFFFFF" fill-rule="nonzero">
            <g id="WTG1-Copy" transform="translate(973.000000, 704.000000)">
                <g id="Group-4" transform="translate(138.000000, 4.000000)">
                    <g id="Group-2-Copy">
                        <g id="correct" transform="translate(65.000000, 6.000000)">
                            <path d="M9.18668621,6.12166342 L9.32999675,7.5 L8.06331379,8.06502279 L7.5,9.32999675 L6.12166342,9.18668621 L5,10 L3.87833658,9.18668621 L2.5,9.32999675 L1.93497721,8.06331379 L0.67000325,7.5 L0.813313792,6.12166342 L0,5 L0.813313792,3.87833658 L0.67000325,2.5 L1.93668621,1.93497721 L2.5,0.67000325 L3.87833658,0.813313792 L5,0 L6.12166342,0.813313792 L7.5,0.67000325 L8.06502279,1.93668621 L9.32999675,2.5 L9.18668621,3.87833658 L10,5 L9.18668621,6.12166342 Z M7.5,3.50023732 L6.99989644,3 L4.00056957,5.99952531 L3.00018986,5.00086306 L2.5,5.49928796 L4.00056957,7 L7.5,3.50023732 Z" id="Shape"></path>
                        </g>
                    </g>
                </g>
            </g>
        </g>
    </g>
</svg>