<?xml version="1.0" encoding="UTF-8"?>
<svg width="296px" height="196px" viewBox="0 0 296 196" version="1.1" xmlns="http://www.w3.org/2000/svg" xmlns:xlink="http://www.w3.org/1999/xlink">
    <!-- Generator: Sketch 53.1 (72631) - https://sketchapp.com -->
    <title>Group 11</title>
    <desc>Created with Sketch.</desc>
    <defs>
        <path d="M0.027877907,3.44371622 L0.550843023,42.147973 C0.570988372,43.6400676 1.94656977,44.8352027 3.62331395,44.8173649 L3.62331395,44.8173649 L30.8756977,44.5256757 C32.5524419,44.5078378 34.8237791,42.9330405 34.8034302,41.4407432 L34.8034302,41.4407432 L33.3521512,3.08695946 C33.3320058,1.59486486 31.9564244,0.39972973 30.2798837,0.41777027 L30.2798837,0.41777027 L3.70857558,0.075 C2.0318314,0.0930405405 0.00773255814,1.95162162 0.027877907,3.44371622" id="path-1"></path>
    </defs>
    <g id="03-1.-Conditional" stroke="none" stroke-width="1" fill="none" fill-rule="evenodd">
        <g id="901_Emptyaddon" transform="translate(-292.000000, -645.000000)">
            <g id="Group-11" transform="translate(292.000000, 645.000000)">
                <g id="Group-10">
                    <g id="Group-8">
                        <path d="M85.7590552,174.611557 C81.1843431,172.516759 61.2182303,181.514155 58.7228219,156.796144 C56.2274135,132.078338 39.5917643,133.753972 40.0076657,118.67183 C40.4235671,103.589689 51.6527015,90.1833864 61.6339284,84.3181547 C71.6153586,78.452923 39.7519453,46.6054293 65.0412301,31.7364536 C90.3305149,16.8674779 94.8747356,29.6453407 109.238173,23.0470318 C123.60161,16.4485181 130.671731,-1.56634157 156.457007,0.109497433 C182.242081,1.78533643 177.728961,26.484099 177.728961,26.484099 C177.728961,26.484099 193.471215,-1.56634157 225.910508,21.8947901 C258.350003,45.3559218 220.503993,81.3854364 220.503993,81.3854364 L217.176782,104.427608 C217.176782,104.427608 258.765905,88.9265072 260.845412,122.023508 C262.924715,155.120305 243.793861,178.581436 217.592683,179.838316 C191.391708,181.095195 85.7590552,174.611557 85.7590552,174.611557" id="Fill-23" fill="#E4E4E4"></path>
                        <g id="Group-37" transform="translate(194.000000, 48.000000)">
                            <path d="M20.5,41 C31.8218374,41 41,31.8218374 41,20.5 C41,9.17816263 31.8218374,2.48689958e-14 20.5,2.48689958e-14 C9.17816263,2.48689958e-14 -2.87062041e-14,9.17816263 -2.87062041e-14,20.5 C-2.87062041e-14,24.2915271 -2.86113725e-14,31.1248604 -2.84217094e-14,41 C9.91030214,41 16.7436355,41 20.5,41 Z" id="Oval" fill="#F9F9F9"></path>
                            <g id="wifi" transform="translate(5.020408, 9.204082)" stroke-linecap="round" stroke-linejoin="round">
                                <path d="M14.2189631,19.0943335 C12.5380271,19.0943335 11.1759943,20.4933344 11.1759943,22.219894 C11.1759943,23.9464536 12.5380271,25.3454545 14.2189631,25.3454545 C15.899899,25.3454545 17.2619318,23.9464536 17.2619318,22.219894 C17.2619318,20.4933344 15.899899,19.0943335 14.2189631,19.0943335 Z" id="Shape" stroke="#969696"></path>
                                <path d="M9.40375326,14.0898994 C9.07482682,14.2921162 8.75893812,14.5144275 8.45764162,14.7550425 C8.45702112,14.7556794 8.45640062,14.7563163 8.45578011,14.7563163 C8.45578011,14.7569532 8.45515961,14.7569532 8.45453911,14.7569532 C7.51075344,15.5155001 7.34445853,16.9166782 8.08223707,17.8854018 C8.82125661,18.8560361 10.1863641,19.026725 11.1307703,18.2688151 C11.1351138,18.2649937 11.1388368,18.2611723 11.1425598,18.2573509 C11.9802394,17.5956127 13.0245466,17.1962769 14.1637909,17.1962769 C15.3048966,17.1962769 16.3523063,17.5968865 17.1906064,18.2611723 L17.1850219,18.2688151 C17.1899859,18.2726364 17.1924679,18.2770947 17.197432,18.2802792 C18.1418381,19.0381892 19.5075661,18.8675002 20.2459652,17.896866 C20.9843642,16.9281424 20.8180693,15.5269642 19.8724221,14.7684174 C19.8705606,14.7671436 19.8686991,14.7658698 19.8668376,14.7652329 L19.8730426,14.7575901 C19.5354813,14.4878173 19.1796608,14.2410416 18.8077499,14.0197696 M23.67859,9.74392001 L23.6668004,9.75856869 C23.6649389,9.75793179 23.6636979,9.75665799 23.6624569,9.75538419 L23.67859,9.73436652 C21.0495171,7.63259934 17.753403,6.36899144 14.1631704,6.36899144 C10.5735582,6.36899144 7.27806467,7.63196245 4.64961228,9.73309272 L4.64899177,9.73181892 C4.64464825,9.73500342 4.63906372,9.73755102 4.6347202,9.74073551 C3.68969352,10.4999193 3.52277811,11.9004605 4.26179765,12.869821 C5.0008172,13.8404553 6.36592467,14.0111443 7.31033084,13.2532343 C7.31219235,13.2519605 7.31405386,13.2500498 7.31591537,13.2481391 C9.20783023,11.7367774 11.5793942,10.8272855 14.1631704,10.8272855 C16.7457055,10.8272855 19.1172695,11.7361405 21.0091843,13.2468653 L21.0042203,13.2532343 C21.0085638,13.2570557 21.0116664,13.261514 21.0160099,13.2646985 C21.9610365,14.0226085 23.326144,13.8519195 24.0645431,12.8812852 C24.8041831,11.9125616 24.6378882,10.5113835 23.692241,9.7528366 C23.6878975,9.7496521 23.6829335,9.7471045 23.67859,9.74392001 Z M23.0678763,6.98084258 C23.6798425,7.35696631 24.2674647,7.77058478 24.8277622,8.21854656 L24.8283827,8.21727276 C25.7734094,8.96562925 27.1298298,8.79302959 27.8663674,7.82685358 C28.6047664,6.85685619 28.4384715,5.45631497 27.4928243,4.69713119 C27.4884808,4.69394669 27.4828963,4.6913991 27.4791733,4.6882146 L27.4649017,4.70604778 L26.4522401,3.91374524 C22.9569445,1.44703486 18.7257318,0 14.1637909,0 C9.60184989,0 5.37001672,1.44639796 1.87534159,3.91374524 L0.858957025,4.6901253 L0.848408467,4.67675042 C0.844064944,4.67993491 0.838480413,4.68248251 0.834136889,4.685667 C-0.110889784,5.44485078 -0.277805198,6.845392 0.461214348,7.8147525 C1.19589037,8.7790178 2.54796727,8.95225437 3.49237344,8.20899307 L3.49919898,8.21854656 C6.4434876,5.86456732 10.1423083,4.45893091 14.1637909,4.45893091" id="Shape" stroke="#464646"></path>
                                <path d="M17.3307353,13.3102578 C16.3428449,12.9405158 15.2770094,12.7379829 14.1637909,12.7379829 C13.2898272,12.7379829 12.4449995,12.8628526 11.6442046,13.0954274" id="Path" stroke="#969696"></path>
                                <path d="M17.0700674,4.70796912 C17.9435924,4.85934591 18.794893,5.0777725 19.618862,5.35784886 C20.2108132,5.55905974 20.7886581,5.79208924 21.3505029,6.0549351" id="Path" stroke="#969696"></path>
                            </g>
                        </g>
                        <g id="Group-31" transform="translate(145.000000, 50.000000)">
                            <path d="M14,7.46069873e-14 L22,7.46069873e-14 C29.7319865,7.31866444e-14 36,6.2680135 36,14 L36,36 L30.522357,32.2132266 L14,32.2132266 C6.2680135,32.2132266 7.9333007e-15,25.9452131 3.55271368e-15,18.2132266 L0,14 C-9.46895252e-16,6.2680135 6.2680135,7.60273301e-14 14,7.46069873e-14 Z" id="Rectangle-Copy-8" fill="#F9F9F9"></path>
                            <g id="Addhour" transform="translate(7.659574, 6.750000)">
                                <path d="M18.9087041,8.78571429 C18.9087041,6.96212661 18.2160506,4.90430101 17.2209828,3.500277 M15.1268725,1.68205392 C13.6091035,0.624212582 11.7394222,0 9.7172147,0 C4.6408953,0 0.525725338,3.93349827 0.525725338,8.78571429 C0.525725338,11.0376409 1.41209727,13.0916837 2.86955357,14.646474 M5.16929118,16.853333 C6.4572124,17.5101131 8.15552733,18 9.7172147,18 C11.5159931,18 13.4148593,17.3884957 14.8319404,16.5348366" id="Shape" stroke="#464646" stroke-linecap="round"></path>
                                <ellipse id="Oval" fill="#969696" cx="3.97253385" cy="16.125" rx="1" ry="1"></ellipse>
                                <ellipse id="Oval-Copy" fill="#969696" cx="16.227853" cy="2.625" rx="1" ry="1"></ellipse>
                                <path d="M17.7597679,10.5 L17.7597679,15" id="Path-4" stroke="#969696" stroke-linecap="round"></path>
                                <path d="M20.440619,12.75 L15.8448743,12.75 L20.440619,12.75 Z" id="Path-4" stroke="#969696" stroke-linecap="round" stroke-linejoin="round"></path>
                                <path d="M10.4831721,9.77097921 L10.4831721,5.16517569 C10.4831721,4.7978093 10.1853628,4.5 9.81799645,4.5 L9.81799645,4.5 C9.45063006,4.5 9.15282076,4.7978093 9.15282076,5.16517569 L9.15282076,9.22345173 L6.35276275,12.0693031 C6.0936074,12.3326968 6.09090245,12.7544281 6.34665784,13.0211243 L6.34665784,13.0211243 C6.59329865,13.2783161 7.00173567,13.2868694 7.25892746,13.0402286 C7.26326211,13.0360717 7.26753851,13.0318546 7.27175541,13.0275784 L10.4831721,9.77097921 Z" id="Path-7" stroke="#969696"></path>
                                <g id="Group" transform="translate(9.887975, 8.572752) rotate(90.000000) translate(-9.887975, -8.572752) translate(9.387975, 1.072752)" stroke="#969696" stroke-linecap="round">
                                    <path d="M0.307735134,0.397852207 L0.307735134,1.33875554" id="Path-8"></path>
                                    <path d="M0.307735134,13.2707514 L0.307735134,14.2116547" id="Path-8"></path>
                                </g>
                                <g id="Group" transform="translate(10.323820, 9.000000) rotate(180.000000) translate(-10.323820, -9.000000) translate(9.823820, 1.500000)" stroke="#969696" stroke-linecap="round">
                                    <path d="M0.307735134,0.395525586 L0.307735134,1.33092656" id="Path-8"></path>
                                    <path d="M0.307735134,14.0463192 L0.307735134,14.9817202" id="Path-8"></path>
                                </g>
                            </g>
                        </g>
                        <g id="Group-30" transform="translate(75.500000, 58.500000) scale(-1, 1) translate(-75.500000, -58.500000) translate(46.000000, 28.000000)">
                            <g id="Group-36">
                                <path d="M14,1.20792265e-13 L45,1.20792265e-13 C52.7319865,1.19371922e-13 59,6.2680135 59,14 L59,61 L50.0227518,54.5835228 L14,54.5835228 C6.2680135,54.5835228 2.72325209e-15,48.3155093 1.77635684e-15,40.5835228 L-7.10542736e-15,14 C-8.05232261e-15,6.2680135 6.2680135,1.20436251e-13 14,1.19015908e-13 Z" id="Rectangle-Copy-12" fill="#F9F9F9" transform="translate(29.500000, 30.500000) scale(-1, 1) translate(-29.500000, -30.500000) "></path>
                                <g id="Group-9" transform="translate(28.746154, 27.675000) scale(-1, 1) translate(-28.746154, -27.675000) translate(10.746154, 10.675000)" stroke-linecap="round" stroke-linejoin="round">
                                    <path d="M0.500689063,8.06626322 C-1.54714604,2.14599589 3.86945825,-0.742450518 7.10189024,1.10049404 C10.3343222,2.9434386 12.8743901,5.42907136 11.2235488,11.8777968 C9.57270756,18.3265222 12.6717106,21.4534886 14.8218397,22.4644897 C16.9719687,23.4754908 21.7198319,24.7615233 25.8024362,20.490136 C29.8850405,16.2187488 36.4779684,20.490136 35.2521181,28.4001227 C34.5511378,32.9233059 32.2604398,33.437281 29.76989,33.437281 C27.2793402,33.437281 19.4570629,33.437281 17.1490178,33.437281 C14.8409726,33.437281 10.3716955,32.8843564 8.62215656,28.8163937 C7.49068266,26.1855328 3.95580042,17.1640483 2.25979341,12.9246764" id="Shape" stroke="#464646"></path>
                                    <path d="" id="Path-6" stroke="#F27C21" stroke-width="1.9404"></path>
                                    <path d="" id="Path-6" stroke="#F27C21" stroke-width="1.9404"></path>
                                    <path d="M15.6780245,11.5435074 C18.565147,11.5441841 20.9050738,9.20291962 20.9043972,6.31414688 C20.904071,4.9210021 20.3594351,3.65493969 19.4717373,2.71732249 C18.5187383,1.71073183 17.1703481,1.08268622 15.6755745,1.08233587 C14.1055382,1.08196789 12.6973216,1.77417199 11.7393363,2.87037185" id="Path" stroke="#969696" transform="translate(16.321867, 6.312922) rotate(15.000000) translate(-16.321867, -6.312922) "></path>
                                    <path d="M14.5967981,11.3459265 C18.1699942,12.8860773 22.1587105,11.0674867 24.2232814,9.54586303 C25.3191375,8.73819851 26.7602082,7.26055738 28.1457776,8.61796733 C29.531347,9.97537728 27.0734757,12.1433692 25.9880297,12.9933369 C24.9025837,13.8433047 21.4470914,15.5123656 19.4570629,16.0974908 M23.787629,17.6840749 C24.3328974,17.5552017 24.8642267,17.3097631 25.3375365,16.9175557 C26.8153733,15.6929488 28.8051906,14.9502907 31.2440527,15.379031 C32.2797825,15.5611074 33.396498,15.9544466 34.5893789,16.6118542" id="Shape" stroke="#969696"></path>
                                    <path d="M16.2391745,20.4529316 C18.2953508,20.1667219 20.0199845,19.2813047 21.4130755,17.7966801" id="Path-28" stroke="#464646"></path>
                                </g>
                            </g>
                        </g>
                        <g id="Group-33" transform="translate(109.000000, 3.000000)">
                            <path d="M43.386484,4.73132075 C46.0222703,4.73132075 48.1589973,6.91320595 48.1589973,9.60469773 L48.1589973,37.7782898 C48.1589973,40.4697816 46.0222703,42.6516668 43.386484,42.6516668 L7.83211381,42.6516668 L0,48.1486792 L0,9.60469773 C0,6.91320595 2.13672696,4.73132075 4.77251324,4.73132075 L43.386484,4.73132075 Z" id="Rectangle-Copy-2" fill="#F9F9F9"></path>
                            <g id="Overnight" transform="translate(9.782296, 0.338740)">
                                <path d="M17.1112693,11.247953 C16.0915164,12.7573905 15.490875,14.6096712 15.490875,16.6114049 C15.490875,17.8144976 15.7078456,18.9636032 16.1023749,20.0167349 C16.4657019,20.986577 16.9796129,21.8750255 17.613327,22.6492884 C19.1950028,24.5817579 21.5229834,25.8029164 24.1186891,25.8029164 C26.4406876,25.8029164 28.5484454,24.8257128 30.0993733,23.236278 C29.3767278,25.5040588 27.9020807,27.4018537 25.9918433,28.5925785 C24.6186856,29.4485207 23.0204441,29.9390966 21.3146495,29.9390966 C16.1922636,29.9390966 12.0397493,25.5152782 12.0397493,20.0582217 C12.0397493,18.9960311 12.1970748,17.9729865 12.4882555,17.0140918 C12.8324851,15.8805003 13.3637858,14.8365623 14.0433801,13.9235887 C14.8699111,12.8132189 15.9157941,11.8965678 17.1112693,11.247953 Z" id="Combined-Shape" stroke="#969696" fill="#F0F0F3" stroke-linecap="round" stroke-linejoin="round"></path>
                                <polyline id="Path-21" stroke="#464646" stroke-linecap="round" stroke-linejoin="round" points="20.3823216 17.6364073 23.1620194 17.6364073 20.3823216 20.5133072 23.1620194 20.5133072"></polyline>
                                <polyline id="Path-21" stroke="#464646" stroke-linecap="round" stroke-linejoin="round" points="25.3076736 14.8044158 29.1818941 14.8044158 25.3076736 18.8141123 29.1818941 18.8141123"></polyline>
                                <path d="M16.6402834,33.2542534 C16.1354474,33.3351176 15.5417957,33.3374863 14.9413762,33.3374863 C14.4535937,33.3374863 7.56780525,33.3374863 5.54118304,33.3374863 C1.69686244,33.3374863 -0.327334198,30.7852961 0.0432882197,27.7760865 C0.413910637,24.7668768 2.9696642,23.1096811 5.94283624,23.7773637 C7.43058251,19.6399344 14.2459254,19.6399344 14.625256,25.6600563 C17.2418988,25.0456885 18.9521628,27.1138682 19.1374066,29.257929 C19.1820648,29.7748154 19.1380909,30.2961119 18.9968168,30.7852961" id="Path" stroke="#464646" fill="#F0F0F3" stroke-linecap="round" stroke-linejoin="round"></path>
                                <ellipse id="Oval-Copy" fill="#969696" cx="18.059624" cy="32.2046897" rx="1" ry="1"></ellipse>
                                <path d="M21.0695613,12.3807496 L21.0695613,14.0799445" id="Path-20" stroke="#969696" stroke-linecap="round"></path>
                                <path d="M55,0 L55,0" id="Path-20" stroke="#F27C21" stroke-width="2" stroke-linecap="round" transform="translate(55.500000, 0.500000) rotate(90.000000) translate(-55.500000, -0.500000) "></path>
                                <path d="M3.55719866,13.5135462 L3.55719866,15.2127411" id="Path-20" stroke="#969696" stroke-linecap="round"></path>
                                <path d="M23,2 L23,2" id="Path-20" stroke="#F27C21" stroke-width="2" stroke-linecap="round" transform="translate(23.500000, 2.500000) rotate(90.000000) translate(-23.500000, -2.500000) "></path>
                                <path d="M8.48255065,16.3455376 L8.48255065,18.0447325" id="Path-20" stroke="#969696" stroke-linecap="round"></path>
                                <path d="M32,7 L32,7" id="Path-20" stroke="#F27C21" stroke-width="2" stroke-linecap="round" transform="translate(32.500000, 7.500000) rotate(90.000000) translate(-32.500000, -7.500000) "></path>
                            </g>
                        </g>
                        <path d="M127.159245,177.636962 C127,178.12801 127,181.893189 127,181.893189 C127,181.893189 138.616249,182.220416 139.411872,181.729369 C140.207494,181.238321 140.684827,178.946491 137.502338,178.455444 C134.319848,177.964396 130.341735,176 130.341735,176 L127.159245,177.636962 Z" id="Fill-1" fill="#063B5D"></path>
                        <path d="M107.986846,176.701476 C107.986846,176.701476 109.445849,181.435887 108.862174,181.961883 C108.278684,182.487879 102.150834,183.539872 102.004822,182.66336 C101.858996,181.786403 105.06884,176 105.06884,176 L107.986846,176.701476 Z" id="Fill-3" fill="#063B5D"></path>
                        <path d="M123.736616,110.61794 C123.736616,110.61794 133.463745,177.025007 132.982731,177.1817 C132.501717,177.338195 127.210155,180 127.210155,180 L112.137433,124.519026 C112.137433,124.519026 109.731753,177.964572 109.090266,177.964572 C108.448981,177.964572 104.119448,178.121067 104.119448,178.121067 C104.119448,178.121067 99.4608431,132.896967 101.529732,117.409707 C102.225862,112.197568 102.45804,102 102.45804,102 L123.577362,102 L123.736616,110.61794 Z" id="Fill-5" fill="#222B53"></path>
                        <path d="M105.855679,109.316115 L117,109.63223 L108.432588,177.843333 L103.607096,178 C103.607096,178 101.460658,147.723667 100.518868,141.243314 C99.5770778,134.76296 100.205135,109 100.205135,109 L105.855679,109.316115 Z" id="Fill-7" fill="#063B5D"></path>
                        <path d="M107,55.6634481 C107,55.6634481 108.713087,58.8941865 108.612388,60.6106414 C108.511688,62.3268961 107.100699,68.8892585 107.100699,68.8892585 L113.44955,70 L116.271329,69.0912297 L115.868132,65.8604913 C115.868132,65.8604913 117.800799,64.6116327 118.186014,63.9422653 C119.318082,61.9755984 120,54.956649 120,54.956649 L113.147253,49 L109.821578,50.3125125 L107,55.6634481 Z" id="Fill-9" fill="#FFC6CA"></path>
                        <path d="M106.682602,59.4352898 C106.682602,59.4352898 104.194187,56.0974069 104.09058,54.7413661 C103.986767,53.3853253 103.572134,48.1698315 106.06055,47.0224601 C108.548965,45.8750887 113.940636,42.3285364 116.740078,44.9363867 C119.53952,47.5440302 123.064827,50.4645743 123.894299,52.4464165 C124.723771,54.4284654 120.472599,57.3490096 118.08779,56.7232082 C115.703186,56.0974069 112.177879,51.8206151 111.348407,52.6550859 C110.518936,53.4895566 109.689464,59.1223891 109.689464,59.1223891 C109.689464,59.1223891 108.756385,55.5758368 108.341546,55.1584981 C107.926913,54.7413661 107.097235,56.9318776 107.615887,57.557679 C108.134127,58.1834803 107.719494,61 107.719494,61 L106.682602,59.4352898 Z" id="Fill-11" fill="#222B53"></path>
                        <path d="M107.367076,65.3048856 C107.466125,65.2045863 110.137127,69.0187449 111.818811,69.1192432 C113.500495,69.2195424 116.171694,67.8141585 116.171694,67.8141585 L116.171694,65.9070793 C116.171694,65.9070793 118.348037,64.4015951 118.44689,64 C118.44689,64 126.657996,66.2083751 126.756849,69.0187449 C126.855702,71.8293137 132,86.78505 132,86.78505 L125.470775,92.5062878 L124.480868,100.951328 L124.324742,114.415908 L100.749981,116 L100.281604,92.5556415 L100.83785,86.1826573 L101.233656,82.5692964 L94.0118687,86.1826573 C94.0118687,86.1826573 93.7151125,74.840481 96.0893584,71.6285161 C98.4636044,68.4165512 107.367076,65.3048856 107.367076,65.3048856" id="Fill-13" fill="#2146A8"></path>
                        <path d="M118.277115,69.7248856 C118.75475,69.5166807 122.84846,68.4404721 122.985063,69.3778774 C123.121475,70.3150894 122.27868,71.9258259 122.27868,71.9258259 L118.822956,79.8611967 C118.822956,79.8611967 115.445507,80 115.240888,80 C115.036079,80 113.739779,79.6527985 114.046802,78.5767833 C114.353826,77.5005747 117.013873,70.7034679 117.356045,70.3844911 C117.765473,70.0026854 118.277115,69.7248856 118.277115,69.7248856" id="Fill-15" fill="#004E4A"></path>
                        <path d="M119.277114,70.7249489 C119.754748,70.5167452 123.848457,69.4405433 123.98506,70.3777495 C124.121472,71.3151491 123.278868,72.9256823 123.278868,72.9256823 L119.822954,80.8610043 C119.822954,80.8610043 116.445507,81 116.240888,81 C116.036079,81 114.739779,80.6528007 115.046802,79.576792 C115.353825,78.5005901 118.013872,71.7035252 118.356043,71.3845503 C118.765471,71.0025537 119.277114,70.7249489 119.277114,70.7249489" id="Fill-17" fill="#03726A"></path>
                        <path d="M94,86.2906484 C94,86.2906484 100.341169,83.1619053 101.233019,82.7707155 C102.124672,82.3797195 100.73759,86.9751336 101.926461,85.1174666 C103.115529,83.2597996 108.763059,75.9266384 108.763059,75.9266384 C108.763059,75.9266384 109.060276,73.0911907 110.744772,72.2113044 C112.429071,71.3312243 117.284152,70.451338 116.986934,71.4291186 C116.689716,72.4067055 113.816349,72.7001948 114.014364,73.8733765 C114.212574,75.0467521 114.708003,76.9044191 113.12271,77.4910099 L111.537418,78.0776008 C111.537418,78.0776008 106.85894,96.8475393 99.7467335,95.9701731 C95.7835029,95.4814766 94,86.2906484 94,86.2906484" id="Fill-19" fill="#FFC6CA"></path>
                        <path d="M129.176298,87.8813277 L131.676864,87.5809018 C131.676864,87.5809018 133.377424,96.8948977 128.976197,96.9949735 C124.574971,97.0952478 123.574864,95.6929957 122.474408,92.9889644 C121.374151,90.2849331 119.473689,80.4701612 118.773634,79.8693095 C118.773634,79.8693095 115.472665,75.0620986 116.072967,73.1590706 C116.673071,71.2562411 117.173224,69.4534874 117.973429,70.1546134 C118.773634,70.8557395 121.2742,74.5613227 122.074405,74.3609726 C122.87461,74.1606225 123.574864,72.8586447 123.574864,72.8586447 C123.574864,72.8586447 124.47502,74.0605467 123.874916,75.4626003 C123.274812,76.8648524 122.174555,78.7676818 122.174555,78.7676818 L129.176298,87.8813277 Z" id="Fill-21" fill="#D8D8D8"></path>
                        <path d="M296,171.5 C296,185.030945 229.738118,196 148,196 C66.2618824,196 0,185.030945 0,171.5 C0,157.969055 66.2618824,147 148,147 C229.738118,147 296,157.969055 296,171.5" id="Fill-25" fill="#BCBFC2"></path>
                        <path d="M243.421462,70.8185514 C249.230911,63.3305393 259.015215,61.2858032 262.949449,64.4063844 C266.883682,67.5269656 269.373245,77.9387306 263.563795,85.4267427 C257.754346,92.9147548 245.84587,94.6435084 241.911637,91.5229273 C237.977403,88.4023461 237.612013,78.3065635 243.421462,70.8185514" id="Fill-29" fill="#E4E4E4"></path>
                        <path d="M127.159245,177.636962 C127,178.12801 127,181.893189 127,181.893189 C127,181.893189 138.616249,182.220416 139.411872,181.729369 C140.207494,181.238321 140.684827,178.946491 137.502338,178.455444 C134.319848,177.964396 130.341735,176 130.341735,176 L127.159245,177.636962 Z" id="Fill-31" fill="#063B5D"></path>
                        <path d="M107.986846,176.701476 C107.986846,176.701476 109.445849,181.435887 108.862174,181.961883 C108.278684,182.487879 102.150834,183.539872 102.004822,182.66336 C101.858996,181.786403 105.06884,176 105.06884,176 L107.986846,176.701476 Z" id="Fill-33" fill="#063B5D"></path>
                        <path d="M123.736616,110.61794 C123.736616,110.61794 133.463745,177.025007 132.982731,177.1817 C132.501717,177.338195 127.210155,180 127.210155,180 L112.137433,124.519026 C112.137433,124.519026 109.731753,177.964572 109.090266,177.964572 C108.448981,177.964572 104.119448,178.121067 104.119448,178.121067 C104.119448,178.121067 99.4608431,132.896967 101.529732,117.409707 C102.225862,112.197568 102.45804,102 102.45804,102 L123.577362,102 L123.736616,110.61794 Z" id="Fill-35" fill="#5C5C5C"></path>
                        <path d="M105.855679,109.316115 L117,109.63223 L108.432588,177.843333 L103.607096,178 C103.607096,178 101.460658,147.723667 100.518868,141.243314 C99.5770778,134.76296 100.205135,109 100.205135,109 L105.855679,109.316115 Z" id="Fill-37" fill="#5C5C5C"></path>
                        <path d="M107,55.6634481 C107,55.6634481 108.713087,58.8941865 108.612388,60.6106414 C108.511688,62.3268961 107.100699,68.8892585 107.100699,68.8892585 L113.44955,70 L116.271329,69.0912297 L115.868132,65.8604913 C115.868132,65.8604913 117.800799,64.6116327 118.186014,63.9422653 C119.318082,61.9755984 120,54.956649 120,54.956649 L113.147253,49 L109.821578,50.3125125 L107,55.6634481 Z" id="Fill-39" fill="#D8D8D8"></path>
                        <path d="M106.682602,59.4352898 C106.682602,59.4352898 104.194187,56.0974069 104.09058,54.7413661 C103.986767,53.3853253 103.572134,48.1698315 106.06055,47.0224601 C108.548965,45.8750887 113.940636,42.3285364 116.740078,44.9363867 C119.53952,47.5440302 123.064827,50.4645743 123.894299,52.4464165 C124.723771,54.4284654 120.472599,57.3490096 118.08779,56.7232082 C115.703186,56.0974069 112.177879,51.8206151 111.348407,52.6550859 C110.518936,53.4895566 109.689464,59.1223891 109.689464,59.1223891 C109.689464,59.1223891 108.756385,55.5758368 108.341546,55.1584981 C107.926913,54.7413661 107.097235,56.9318776 107.615887,57.557679 C108.134127,58.1834803 107.719494,61 107.719494,61 L106.682602,59.4352898 Z" id="Fill-41" fill="#2E2E2E"></path>
                        <path d="M107.367076,65.3048856 C107.466125,65.2045863 110.137127,69.0187449 111.818811,69.1192432 C113.500495,69.2195424 116.171694,67.8141585 116.171694,67.8141585 L116.171694,65.9070793 C116.171694,65.9070793 118.348037,64.4015951 118.44689,64 C118.44689,64 126.657996,66.2083751 126.756849,69.0187449 C126.855702,71.8293137 132,86.78505 132,86.78505 L125.470775,92.5062878 L124.480868,100.951328 L124.324742,114.415908 L100.749981,116 L100.281604,92.5556415 L100.83785,86.1826573 L101.233656,82.5692964 L94.0118687,86.1826573 C94.0118687,86.1826573 93.7151125,74.840481 96.0893584,71.6285161 C98.4636044,68.4165512 107.367076,65.3048856 107.367076,65.3048856" id="Fill-43" fill="#C1C1C1"></path>
                        <path d="M118.277115,69.7248856 C118.75475,69.5166807 122.84846,68.4404721 122.985063,69.3778774 C123.121475,70.3150894 122.27868,71.9258259 122.27868,71.9258259 L118.822956,79.8611967 C118.822956,79.8611967 115.445507,80 115.240888,80 C115.036079,80 113.739779,79.6527985 114.046802,78.5767833 C114.353826,77.5005747 117.013873,70.7034679 117.356045,70.3844911 C117.765473,70.0026854 118.277115,69.7248856 118.277115,69.7248856" id="Fill-45" fill="#004E4A"></path>
                        <path d="M119.277114,69.7249489 C119.754748,69.5167452 123.848457,68.4405433 123.98506,69.3777495 C124.121472,70.3151491 123.278868,71.9256823 123.278868,71.9256823 L119.822954,79.8610043 C119.822954,79.8610043 116.445507,80 116.240888,80 C116.036079,80 114.739779,79.6528007 115.046802,78.576792 C115.353825,77.5005901 118.013872,70.7035252 118.356043,70.3845503 C118.765471,70.0025537 119.277114,69.7249489 119.277114,69.7249489" id="Fill-47" fill="#505050"></path>
                        <path d="M94,86.2906484 C94,86.2906484 100.341169,83.1619053 101.233019,82.7707155 C102.124672,82.3797195 100.73759,86.9751336 101.926461,85.1174666 C103.115529,83.2597996 108.763059,75.9266384 108.763059,75.9266384 C108.763059,75.9266384 109.060276,73.0911907 110.744772,72.2113044 C112.429071,71.3312243 117.284152,70.451338 116.986934,71.4291186 C116.689716,72.4067055 113.816349,72.7001948 114.014364,73.8733765 C114.212574,75.0467521 114.708003,76.9044191 113.12271,77.4910099 L111.537418,78.0776008 C111.537418,78.0776008 106.85894,96.8475393 99.7467335,95.9701731 C95.7835029,95.4814766 94,86.2906484 94,86.2906484" id="Fill-49" fill="#D8D8D8"></path>
                        <path d="M129.176298,86.8813277 L131.676864,86.5809018 C131.676864,86.5809018 133.377424,95.8948977 128.976197,95.9949735 C124.574971,96.0952478 123.574864,94.6929957 122.474408,91.9889644 C121.374151,89.2849331 119.473689,79.4701612 118.773634,78.8693095 C118.773634,78.8693095 115.472665,74.0620986 116.072967,72.1590706 C116.673071,70.2562411 117.173224,68.4534874 117.973429,69.1546134 C118.773634,69.8557395 121.2742,73.5613227 122.074405,73.3609726 C122.87461,73.1606225 123.574864,71.8586447 123.574864,71.8586447 C123.574864,71.8586447 124.47502,73.0605467 123.874916,74.4626003 C123.274812,75.8648524 122.174555,77.7676818 122.174555,77.7676818 L129.176298,86.8813277 Z" id="Fill-51" fill="#D8D8D8"></path>
                        <g id="Group-56" transform="translate(172.000000, 134.000000)">
                            <mask id="mask-2" fill="white">
                                <use xlink:href="#path-1"></use>
                            </mask>
                            <g id="Clip-55"></g>
                            <path d="M0.027877907,3.44371622 L0.550843023,42.147973 C0.570988372,43.6400676 1.94656977,44.8352027 3.62331395,44.8173649 L3.62331395,44.8173649 L30.8756977,44.5256757 C32.5524419,44.5078378 34.8237791,42.9330405 34.8034302,41.4407432 L34.8034302,41.4407432 L33.3521512,3.08695946 C33.3320058,1.59486486 31.9564244,0.39972973 30.2798837,0.41777027 L30.2798837,0.41777027 L3.70857558,0.075 C2.0318314,0.0930405405 0.00773255814,1.95162162 0.027877907,3.44371622" id="Fill-54" mask="url(#mask-2)"></path>
                        </g>
                        <g id="Group-97" transform="translate(135.000000, 65.000000)">
                            <path d="M42.4475407,114.097221 L68.9383978,113.809916 C70.5682879,113.792346 71.8735846,112.586425 71.8540022,111.116759 L71.3456505,72.9942878 C71.3260681,71.524422 69.9889253,70.3472516 68.359233,70.365021 L41.868178,70.6523256 C40.2382879,70.6698954 38.9329912,71.8758162 38.9525736,73.3454823 L39.4609253,111.467954 C39.4805077,112.93782 40.8176505,114.11499 42.4475407,114.097221" id="Fill-57" fill="#969696"></path>
                            <path d="M39.4609253,111.468014 L38.9525736,73.3455422 C38.9329912,71.8756764 40.2382879,70.6699552 41.868178,70.6521859 L44.4267495,70.6244337 L68.2389692,113.817563 L42.4475407,114.097281 C40.8176505,114.11485 39.4805077,112.93768 39.4609253,111.468014" id="Fill-59" fill="#636363"></path>
                            <path d="M54.8935121,73.3788847 C54.8952923,73.5076627 55.0123912,73.610685 55.1550066,73.6090878 C55.2978198,73.6074905 55.4119516,73.5020723 55.4103692,73.3732943 C55.408589,73.2445164 55.2914901,73.141494 55.1488747,73.1430912 C55.0060615,73.1446885 54.8917319,73.2501067 54.8935121,73.3788847" id="Fill-61" fill="#FFFFFF"></path>
                            <path d="M39.7332,26.1791036 C38.6122549,26.3677783 33.6608703,28.1592895 33.1936615,32.0256234 C32.7266505,35.8917577 31.325222,48.0559849 31.325222,48.0559849 L26.3738374,34.1000468 L22.7305187,33.8171346 C22.7305187,33.8171346 24.6923209,50.0361707 29.1764967,54.1854169 C33.6608703,58.3344633 35.6226725,51.2620571 35.6226725,51.2620571 L37.9581231,43.3411139 L39.7332,26.1791036 Z" id="Fill-63" fill="#D8D8D8"></path>
                            <path d="M23.4778747,34.3829391 C23.4778747,34.3829391 23.4778747,32.4969907 22.9173033,32.2140785 C22.3567319,31.9311663 19.9279187,30.0452179 19.5540725,29.4795931 C19.1804242,28.9137687 17.7791934,25.1418719 18.7134132,25.330347 C19.647633,25.5190217 22.730578,28.4421818 22.730578,28.4421818 C22.730578,28.4421818 22.076644,26.3677583 22.3567319,25.990409 C22.6370176,25.6132592 24.2251714,28.2537067 24.4120945,28.725094 C24.5990176,29.1966809 25.0660286,34.5716138 25.0660286,34.5716138 L23.4778747,34.3829391 Z" id="Fill-65" fill="#D8D8D8"></path>
                            <path d="M39.8520198,7.03546988 C39.5121956,8.05451291 38.4076681,15.4369845 39.2315143,17.2438692 C40.0553604,19.0509535 40.6721077,20.831284 43.7493165,21.1437453 L39.9962176,29.7666781 L42.2228769,38.1649983 L50.6314484,35.2973425 C50.6314484,35.2973425 55.9101956,30.5375491 55.5711626,29.5584372 C55.2319319,28.5791256 49.7545912,19.6237659 49.7545912,19.6237659 L47.2676242,7.01570396 L41.0736462,5.70536317 L40.0996681,6.76573494 L39.8520198,7.03546988 Z" id="Fill-67" fill="#D8D8D8"></path>
                            <path d="M46.3451143,10.637779 C46.3451143,10.637779 46.9727407,19.3068324 48.7575099,22.1732902 C50.5420813,25.039748 48.3011802,30.6939993 50.5782791,32.4070458 C52.0744549,33.5325053 56.3228505,39.5790802 57.8310923,40.6879683 C60.4466308,42.6106534 63.9338835,41.657896 66.8674879,36.1274313 C69.8010923,30.596767 71.8612022,24.1259236 60.5659055,15.2450355 C60.5659055,15.2450355 62.5249385,8.52242616 58.9012022,7.20409914 C55.2776637,5.88557246 54.3311802,5.12208881 54.3311802,5.12208881 C54.3311802,5.12208881 52.7550923,-1.7137253 44.4260374,0.526412392 C36.0971802,2.76655009 37.9385209,7.51097005 37.9385209,7.51097005 C37.9385209,7.51097005 33.1651582,21.8831904 42.3742352,25.3260544 L43.749356,21.1436654 C43.749356,21.1436654 39.627356,20.101063 39.2315538,17.243989 C38.8357516,14.3867153 39.8520593,7.03539002 39.8520593,7.03539002 C39.8520593,7.03539002 41.5879714,10.6184124 46.3451143,10.637779" id="Fill-69" fill="#2E2E2E"></path>
                            <path d="M43.189833,29.3851959 C45.0440308,30.0590341 47.3339868,25.9519153 49.3893495,23.405905 C49.3893495,23.405905 55.809811,27.0062974 54.9774593,26.6463181 C54.9774593,26.6463181 55.326778,34.2909377 55.5214154,42.4923972 C55.9116791,58.931454 58.0224264,59.4232062 58.0224264,59.4232062 C58.0224264,59.4232062 49.5177231,60.8100151 49.3308,60.5271029 C49.1440747,60.2441907 42.4923824,60.0828688 42.3054593,59.3285694 C42.1187341,58.5742699 38.7056571,47.1130306 37.5845143,45.3213198 C36.4635692,43.5298086 34.8752176,35.8917776 36.0897231,33.6284799 C37.3042286,31.3653818 39.7332396,26.1791236 39.7332396,26.1791236 L43.0029099,24.010263 C43.0029099,24.010263 40.8541846,28.5364592 43.189833,29.3851959" id="Fill-71" fill="#C1C1C1"></path>
                            <polygon id="Fill-73" fill="#FAC5CA" points="20.7691121 105.903248 20.3584747 111.42952 17.6210901 111.153197 17.3473319 105.488763"></polygon>
                            <polygon id="Fill-75" fill="#FAC5CA" points="46.1459868 102.536453 48.1604044 107.691765 45.5769099 108.646119 42.8868 103.667303"></polygon>
                            <path d="M21.590367,109.90974 L17.0735538,110.600549 C17.0735538,110.600549 12.5567407,113.639909 10.7773121,113.778071 C8.99808132,113.916233 7.21865275,115.574174 8.99808132,115.850498 C10.7773121,116.126821 22.1378835,115.297851 22.1378835,115.297851 L21.590367,109.90974 Z" id="Fill-77" fill="#063B5D"></path>
                            <path d="M52.6225055,65.8997797 C52.6225055,65.8997797 28.5752967,69.0796971 29.2596923,75.9873873 C29.9440879,82.8952771 22.1378242,106.317694 22.1378242,106.317694 L15.7049011,106.179532 C15.7049011,106.179532 20.2399121,76.5574045 20.2399121,72.4125508 C20.2399121,68.2680964 42.7676044,59.1302513 42.7676044,59.1302513 L52.6225055,65.8997797 Z" id="Fill-79" fill="#2E2E2E"></path>
                            <path d="M48.5542879,106.870321 L43.9005956,108.666424 C43.9005956,108.666424 43.6268374,111.982107 41.8476066,112.396593 C40.068178,112.811078 37.3307934,114.192496 37.6045516,115.297791 C37.8781121,116.403085 45.8169033,114.745144 45.8169033,114.745144 L51.0181121,110.60049 L48.5542879,106.870321 Z" id="Fill-81" fill="#063B5D"></path>
                            <path d="M57.7519319,59.2593088 C57.7519319,59.2593088 63.1792286,66.3796324 57.2532725,70.5009267 C52.2433385,73.9849198 36.974789,74.4630954 37.4764154,75.6023312 C38.5714484,78.0890437 48.8280857,103.969023 48.8280857,103.969023 L42.6687231,105.488803 C42.6687231,105.488803 27.2308549,83.0900213 26.2727011,76.1821315 C25.3147451,69.2744413 43.1782615,60.3735876 43.1782615,60.3735876 L57.7519319,59.2593088 Z" id="Fill-83" fill="#5C5C5C"></path>
                            <path d="M30.6319451,54.981664 L5.34214286,54.981664 C4.72420879,54.981664 4.21882418,54.4715435 4.21882418,53.8478189 L1.81671429,35.689726 C1.81671429,35.0660014 2.3220989,34.5558809 2.94003297,34.5558809 L28.2298352,34.5558809 C28.8475714,34.5558809 29.3531538,35.0660014 29.3531538,35.689726 L31.7552637,53.8478189 C31.7552637,54.4715435 31.2496813,54.981664 30.6319451,54.981664" id="Fill-85" fill="#505050"></path>
                            <path d="M28.8459099,54.981664 L3.55610769,54.981664 C2.93817363,54.981664 2.43278901,54.4715435 2.43278901,53.8478189 L0.0306791209,35.689726 C0.0306791209,35.0660014 0.536063736,34.5558809 1.1539978,34.5558809 L26.4438,34.5558809 C27.0615363,34.5558809 27.5671187,35.0660014 27.5671187,35.689726 L29.9692286,53.8478189 C29.9692286,54.4715435 29.4636462,54.981664 28.8459099,54.981664" id="Fill-87" fill="#969696"></path>
                            <path d="M2.83446593,56.4027738 L47.7646418,56.4027738 C48.2470813,56.4027738 48.6416967,56.0044606 48.6416967,55.5175002 C48.6416967,55.0305398 48.2470813,54.6322265 47.7646418,54.6322265 L2.83446593,54.6322265 C2.35202637,54.6322265 1.95741099,55.0305398 1.95741099,55.5175002 C1.95741099,56.0044606 2.35202637,56.4027738 2.83446593,56.4027738" id="Fill-89" fill="#505050"></path>
                            <path d="M12.5317385,45.1892874 C12.5317385,46.3283236 13.2780462,47.2515318 14.1984198,47.2515318 C15.1189912,47.2515318 15.8652989,46.3283236 15.8652989,45.1892874 C15.8652989,44.0504509 15.1189912,43.127043 14.1984198,43.127043 C13.2780462,43.127043 12.5317385,44.0504509 12.5317385,45.1892874" id="Fill-91" fill="#505050"></path>
                            <path d="M40.0536396,57.1714485 C39.9656176,57.200199 39.7858154,57.2387325 39.6414198,57.2688806 C39.4857495,57.2974313 39.3302769,57.3285776 39.1706505,57.3499408 C38.8535736,57.3994554 38.5307604,57.4337962 38.2097275,57.4531628 C37.5662769,57.4942919 36.9250022,57.4779201 36.3011341,57.400254 C35.6814198,57.3120062 35.0895956,57.1498857 34.5347604,56.9162885 C33.9840791,56.6749046 33.506189,56.3271043 33.0650901,55.9186086 L32.9889363,55.8483298 C32.5678154,55.4584021 31.9130901,55.4869528 31.5267824,55.91202 C31.1782549,56.295958 31.1675736,56.8717652 31.4785187,57.2670836 C32.0155516,57.9505053 32.6615736,58.5648461 33.3995736,59.0240544 C34.1369802,59.4738788 34.928189,59.8102988 35.7328484,60.0432971 C36.5379033,60.2645157 37.353244,60.3996826 38.168189,60.4629735 C38.5762549,60.495717 38.9835297,60.5098926 39.3937714,60.5049012 C39.5982989,60.5056998 39.8053978,60.4953177 40.0124967,60.4865329 C40.2300791,60.471958 40.4120571,60.4625742 40.6828484,60.4258375 L40.7837275,60.4120613 C41.6884747,60.289273 42.323222,59.4493212 42.2015736,58.5362954 C42.0799253,57.6228702 41.2479692,56.9821749 40.343222,57.1049632 C40.2462989,57.1181404 40.1438374,57.1426981 40.0536396,57.1714485" id="Fill-93" fill="#D8D8D8"></path>
                            <path d="M51.8273209,25.894654 C51.8273209,25.894654 48.1248593,27.507673 50.9993209,37.1783993 C53.8735846,46.8493253 57.3200901,50.7595835 50.7500901,52.9701721 C44.1802879,55.1805611 37.9507055,57.3118864 37.9507055,57.3118864 L38.370244,60.7006437 C38.370244,60.7006437 59.9597604,59.412864 60.5072769,52.2288503 C61.0547934,45.0446368 57.4801121,30.1307504 56.7957165,28.6111704 C56.1115187,27.0913907 55.5537165,25.894654 51.8273209,25.894654" id="Fill-95" fill="#D8D8D8"></path>
                        </g>
                    </g>
                </g>
            </g>
        </g>
    </g>
</svg>