<?xml version="1.0" encoding="UTF-8"?>
<svg width="24px" height="25px" viewBox="0 0 24 25" version="1.1" xmlns="http://www.w3.org/2000/svg" xmlns:xlink="http://www.w3.org/1999/xlink">
    <!-- Generator: Sketch 52.5 (67469) - http://www.bohemiancoding.com/sketch -->
    <title>share</title>
    <desc>Created with Sketch.</desc>
    <g id="Page-1" stroke="none" stroke-width="1" fill="none" fill-rule="evenodd">
        <g id="share" fill="#0038A9">
            <path d="M19.5836426,15.3811404 C18.1825532,15.3811404 16.9467064,16.0486468 16.1392851,17.0708426 L8.65026383,13.2409532 C8.74830638,12.8752851 8.81877447,12.4974638 8.81877447,12.0998298 C8.81877447,11.6669617 8.73508085,11.2594213 8.61829787,10.8628596 L16.0742809,7.0506383 C16.8772596,8.11909787 18.1450723,8.81744681 19.5847149,8.81744681 C22.0234213,8.81744681 23.9961702,6.84469787 23.9961702,4.40818723 C23.9962213,1.97387234 22.0234213,0 19.584766,0 C17.1515745,0 15.1766298,1.97387234 15.1766298,4.40813617 C15.1766298,4.80689362 15.2471489,5.18578723 15.3462638,5.55257872 L7.85831489,9.38246809 C7.04982128,8.3592 5.81172766,7.68949787 4.40844255,7.68949787 C1.97193191,7.68949787 0.000306382979,9.66444255 0.000306382979,12.0998298 C0.000306382979,14.535217 1.97198298,16.5090894 4.40844255,16.5090894 C5.85028085,16.5090894 7.11702128,15.8085447 7.92326809,14.7390128 L15.3759319,18.551234 C15.2591489,18.9466723 15.174383,19.3575319 15.174383,19.7915234 C15.174383,22.2269106 17.1493277,24.200783 19.5825191,24.200783 C22.0212255,24.200783 23.9939745,22.2269106 23.9939745,19.7915234 C23.9950979,17.3539404 22.0223489,15.3811404 19.5836426,15.3811404 Z" id="Path"></path>
        </g>
    </g>
</svg>