<?xml version="1.0" encoding="UTF-8"?>
<svg width="59px" height="82px" viewBox="0 0 59 82" version="1.1" xmlns="http://www.w3.org/2000/svg" xmlns:xlink="http://www.w3.org/1999/xlink">
    <!-- Generator: Sketch 52.5 (67469) - http://www.bohemiancoding.com/sketch -->
    <title>Group 6</title>
    <desc>Created with Sketch.</desc>
    <g id="09.-Product-and-Services" stroke="none" stroke-width="1" fill="none" fill-rule="evenodd">
        <g id="1102_Product-and-Services" transform="translate(-710.000000, -926.000000)" stroke="#FFFFFF">
            <g id="Group-6" transform="translate(711.000000, 927.000000)">
                <path d="M53.6876192,-7.10542736e-15 L50.3243243,-7.10542736e-15 C48.5467055,-7.10542736e-15 47.0958111,1.40921875 47.0192839,3.16921875 C43.1324801,4.37296875 40.7121885,8.36671875 39.7159285,10.36375 C38.4030956,10.1389062 37.106349,9.81953125 35.8414628,9.406875 C34.322631,6.94234375 31.600291,5.295625 28.5,5.295625 C25.4000214,5.295625 22.6779937,6.94203125 21.1590057,9.4059375 C19.8938071,9.81828125 18.5962797,10.1375 17.2832906,10.3625 C16.2867183,8.365 13.8665828,4.37265625 9.98055994,3.16921875 C9.90418886,1.40921875 8.45313836,-7.10542736e-15 6.67567568,-7.10542736e-15 L3.31238081,-7.10542736e-15 C1.48587821,-7.10542736e-15 3.55271368e-15,1.4865625 3.55271368e-15,3.31390625 L3.55271368e-15,5.575625 C3.55271368e-15,7.40296875 1.48603439,8.88953125 3.31238081,8.88953125 L6.67567568,8.88953125 C8.18935359,8.88953125 9.46626554,7.86734375 9.86014664,6.4775 C11.6964885,7.385625 13.0805386,9.27484375 13.9282732,10.7271875 C13.4728579,10.7479687 13.0172864,10.7582812 12.5623397,10.755625 L8.44251825,10.7442187 C8.43970704,10.7442187 8.43705202,10.7442187 8.43424081,10.7442187 C7.67818274,10.7442187 6.96726014,11.0382812 6.43172552,11.5725 C5.89431676,12.10875 5.59820313,12.8223437 5.59820313,13.5817187 L5.59820313,16.38375 C5.59820313,17.9484375 6.87042974,19.2214062 8.43439699,19.2214062 L21.7098458,19.2214062 C22.0150178,19.6117187 22.3512692,19.9764062 22.7178191,20.30875 C23.3186362,21.2239062 23.9103949,22.4734375 24.3701831,24.1732812 C21.0056389,24.7126562 17.7666617,25.905 14.8387913,27.7054687 L13.7936477,28.3482812 C11.6335487,29.6765625 10.3200911,32.0773437 10.3658513,34.6135937 L10.9240317,65.6071875 C10.9782255,68.613125 13.4669231,71.05875 16.4719455,71.05875 L21.9584813,71.05875 L21.9584813,73.4559375 C21.9586375,77.0642187 24.8930673,80 28.5,80 C32.1069327,80 35.0413625,77.0642187 35.0413625,73.455625 L35.0413625,71.0584375 L40.5278983,71.0584375 C43.5329207,71.0584375 46.0217745,68.6129687 46.0758121,65.606875 L46.6339926,34.6134375 C46.6797527,32.0771875 45.3662951,29.6764062 43.2063523,28.348125 L42.1608963,27.7051562 C39.2331821,25.9048437 35.994205,24.7125 32.6296607,24.173125 C33.0894489,22.4732812 33.6813638,21.2235937 34.2821809,20.3084375 C34.6487308,19.9760937 34.9849822,19.6114062 35.289998,19.22125 L48.5654468,19.22125 C50.1294141,19.22125 51.4016407,17.9482812 51.4016407,16.3835937 L51.4016407,13.5815625 C51.4016407,12.8221875 51.1055271,12.1085937 50.5681183,11.5723437 C50.0324275,11.0379687 49.3216611,10.7440625 48.5657592,10.7440625 C48.562948,10.7440625 48.560293,10.7440625 48.5574818,10.7440625 L44.4332873,10.7554687 C43.9794338,10.7582812 43.525268,10.748125 43.0712583,10.7276562 C43.9191491,9.27515625 45.3033554,7.385625 47.1398534,6.47734375 C47.5337345,7.8671875 48.8106464,8.88953125 50.3243243,8.88953125 L53.6876192,8.88953125 C55.5139656,8.88953125 57,7.40296875 57,5.575625 L57,3.31390625 C57,1.4865625 55.5141218,-7.10542736e-15 53.6876192,-7.10542736e-15 Z M6.86449497,5.575625 C6.86449497,5.67984375 6.77984645,5.76453125 6.67567568,5.76453125 L3.31238081,5.76453125 C3.20821003,5.76453125 3.12356152,5.67984375 3.12356152,5.575625 L3.12356152,3.31390625 C3.12356152,3.2096875 3.20821003,3.125 3.31238081,3.125 L6.67567568,3.125 C6.77984645,3.125 6.86449497,3.2096875 6.86449497,3.31390625 L6.86449497,5.575625 Z M8.72176465,16.09625 L8.72176465,13.8698437 L12.5495331,13.8804687 C12.6035707,13.8807812 12.6574522,13.8807812 12.711646,13.8807812 C15.1338117,13.8807812 17.56691,13.5826562 19.9295719,13.0039062 C19.8977116,13.3046875 19.880532,13.6098437 19.880532,13.9189062 C19.880532,14.6707812 19.9778309,15.4003125 20.159466,16.09625 L8.72176465,16.09625 Z M31.917801,67.9334375 L31.917801,71.0584375 L31.917801,73.455625 C31.917801,75.3410937 30.3846008,76.875 28.5,76.875 C26.6153992,76.875 25.082199,75.3410937 25.082199,73.455625 L25.082199,71.0584375 L25.082199,62.6348437 L31.917801,62.6348437 L31.917801,67.9334375 Z M34.8184964,59.51 L31.4683205,59.51 L25.5316795,59.51 L22.1815036,59.51 L22.0197031,59.51 L22.0197031,59.5098437 C21.9035066,59.5098437 21.8268232,59.4542187 21.782781,59.4075 C21.7387387,59.3607812 21.6879809,59.280625 21.6948527,59.1645312 L21.7437364,58.3639062 C21.930994,55.2928125 24.486692,52.8870312 27.5623068,52.8870312 L29.4494065,52.8870312 C32.5718748,52.8870312 35.1297593,55.3317187 35.2725061,58.4525 L35.3053035,59.1696875 C35.3104574,59.2845312 35.2593871,59.3634375 35.2155011,59.4092187 C35.1717712,59.4551562 35.095244,59.51 34.9802969,59.51 L34.8184964,59.51 Z M40.5250871,30.3675 L41.5705432,31.0104688 C42.7932613,31.7625 43.5368251,33.1214063 43.5110558,34.5571875 L42.9528753,65.5507813 C42.9291363,66.8646875 41.841356,67.9335938 40.5278983,67.9335938 L35.0413625,67.9335938 L35.0413625,62.6334375 C35.9570346,62.616875 36.8408463,62.23125 37.4743046,61.5678125 C38.1218189,60.8896875 38.4685342,59.9634375 38.4255853,59.0267188 L38.3927879,58.3096875 C38.17367,53.5167188 34.2451667,49.7620313 29.4494065,49.7620313 L27.5623068,49.7620313 C22.8390133,49.7620313 18.9136335,53.4567188 18.6259535,58.1735938 L18.5770698,58.9742188 C18.5194401,59.9203125 18.8586588,60.85875 19.5077349,61.5489063 C20.1429112,62.224375 21.0331262,62.6167188 21.9584813,62.6332813 L21.9584813,67.9334375 L16.4719455,67.9334375 C15.1584879,67.9334375 14.0707076,66.8645313 14.0469685,65.550625 L13.4887881,34.5570313 C13.4630187,33.1214063 14.2065825,31.7623438 15.4294568,31.0103125 L16.4746005,30.3675 C19.129784,28.7346875 22.0148616,27.6898438 24.9653778,27.2260938 C25.9964654,27.0639063 27.035362,26.9732813 28.075508,26.95375 C28.2170053,26.9510938 28.3583465,26.9464063 28.4998438,26.9464063 C28.6413412,26.9464063 28.7826823,26.9510938 28.9241797,26.95375 C29.9643256,26.973125 31.003066,27.0639063 32.0343099,27.2260938 C34.9849822,27.6901563 37.8708407,28.7351563 40.5250871,30.3675 Z M27.0997074,22.4267187 C27.5557474,22.5015625 28.0231883,22.5423437 28.5,22.5423437 C28.9768117,22.5423437 29.4442526,22.5017187 29.9002926,22.4267187 C29.7555156,22.8767187 29.6194844,23.354375 29.4940735,23.8609375 C29.1632883,23.8482812 28.8318784,23.840625 28.5,23.840625 C28.1681216,23.840625 27.8367117,23.8482812 27.5059265,23.8609375 C27.3805156,23.354375 27.2444844,22.8767187 27.0997074,22.4267187 Z M33.852535,15.1607812 C33.7775695,15.484375 33.6748044,15.7971875 33.5453327,16.0960937 C32.8886039,17.6134375 31.5676498,18.7776562 29.9512067,19.2210937 C29.488451,19.348125 29.0021125,19.4171875 28.4996876,19.4171875 C27.9972628,19.4171875 27.5109242,19.348125 27.0481686,19.2210937 C25.4317255,18.7776562 24.1107714,17.6134375 23.4540425,16.0960937 C23.3247271,15.7970312 23.2218057,15.4842187 23.1468403,15.1607812 C23.0542267,14.7614062 23.003625,14.3460937 23.003625,13.9189062 C23.0042497,13.2207812 23.1362202,12.5532812 23.3745479,11.9382812 C24.0564214,10.1784375 25.618046,8.855 27.5171714,8.51046875 C27.8362432,8.4525 28.1643733,8.420625 28.5,8.420625 C30.8325196,8.420625 32.8291001,9.88265625 33.6254521,11.9384375 C33.8636237,12.5534375 33.9957503,13.2207812 33.9957503,13.9189062 C33.9957503,14.3460937 33.9451486,14.7614062 33.852535,15.1607812 Z M44.2842934,13.8807812 C44.3381749,13.8807812 44.3923686,13.880625 44.4460939,13.8803125 L48.2780792,13.8696875 L48.2780792,16.0960938 L36.8403778,16.0960938 C37.0220129,15.4003125 37.1193118,14.6707813 37.1193118,13.91875 C37.1193118,13.6096875 37.1021322,13.3046875 37.0704281,13.0039062 C39.4324653,13.5828125 41.8644703,13.8809375 44.2842934,13.8807812 Z M53.8764385,5.575625 C53.8764385,5.67984375 53.79179,5.76453125 53.6876192,5.76453125 L50.3243243,5.76453125 C50.2201535,5.76453125 50.135505,5.67984375 50.135505,5.575625 L50.135505,3.31390625 C50.135505,3.2096875 50.2201535,3.125 50.3243243,3.125 L53.6876192,3.125 C53.79179,3.125 53.8764385,3.2096875 53.8764385,3.31390625 L53.8764385,5.575625 Z" id="Shape" fill="#2246A8" fill-rule="nonzero"></path>
                <path d="M41.2771022,34.1472168 C38.2294433,31.2239355 34.2191026,30.3112793 31.2837357,30.0733105 C29.0961494,29.896123 27.5054757,30.0933105 27.3564818,30.1128418 C26.5025001,30.225498 25.9023077,31.0083105 26.0131942,31.862998 C26.0138189,31.8675293 26.0150683,31.8719043 26.015693,31.8764355 C26.1332951,32.7237793 26.9121552,33.3206543 27.7617639,33.2112793 C27.8328249,33.2022168 34.8917616,32.351748 39.1152853,36.402998 C39.4179584,36.6933105 39.8073104,36.8376855 40.1960376,36.8376855 C40.6067859,36.8376855 41.0169096,36.6765918 41.3236433,36.3564355 C41.9205559,35.733623 41.899628,34.7445605 41.2771022,34.1472168 Z" id="Path" fill="#F27C21"></path>
                <path d="M24.0940439,32.2570313 C24.0734284,32.1570313 24.0439107,32.0585938 24.0048662,31.9648438 C23.9658217,31.8695313 23.9172503,31.7789063 23.8611824,31.6945313 C23.8033965,31.6085938 23.7393635,31.5289063 23.6659598,31.4570313 C23.5941178,31.3851563 23.514467,31.3195313 23.4284129,31.2632813 C23.3440767,31.2070313 23.2534935,31.1585938 23.1597866,31.1195313 C23.064518,31.0804688 22.9661258,31.0507813 22.8677336,31.0304688 C22.6662639,30.9898438 22.4585471,30.9898438 22.2570773,31.0304688 C22.1571234,31.0507813 22.0587312,31.0804688 21.9650243,31.1195313 C21.8713175,31.1585938 21.7807342,31.2070313 21.6949924,31.2632813 C21.6106563,31.3195313 21.5292875,31.3851563 21.4574456,31.4570313 C21.3856037,31.5289063 21.3200089,31.6085938 21.2639409,31.6945313 C21.2077168,31.7789063 21.1593016,31.8695313 21.1202571,31.9648438 C21.0812126,32.0585938 21.0515388,32.1570313 21.0312356,32.2570313 C21.0109325,32.3570313 21,32.4601563 21,32.5617188 C21,32.9742188 21.1671105,33.3757813 21.4576018,33.6664063 C21.5294437,33.7382813 21.6106563,33.8039063 21.6951486,33.8617188 C21.7810466,33.9179688 21.8716298,33.9664063 21.9651805,34.0054688 C22.0590435,34.0445313 22.1572795,34.0742188 22.2572335,34.0945313 C22.3573437,34.1148438 22.4604212,34.1242188 22.5617808,34.1242188 C22.6648583,34.1242188 22.7665302,34.1148438 22.8678898,34.0945313 C22.966282,34.0742188 23.0646742,34.0445313 23.1599428,34.0054688 C23.2536496,33.9664063 23.3442329,33.9179688 23.4285691,33.8617188 C23.5146232,33.8039063 23.594274,33.7382813 23.6661159,33.6664063 C23.7395196,33.5945313 23.8035526,33.5148438 23.8613385,33.4289063 C23.9174065,33.3445313 23.9659778,33.2539063 24.0050224,33.1601563 C24.0440669,33.0648438 24.0735845,32.9664063 24.0940439,32.8679688 C24.114347,32.7664063 24.1235615,32.6632813 24.1235615,32.5617188 C24.1235615,32.4601563 24.1141908,32.3570313 24.0940439,32.2570313 Z" id="Path" fill="#F27C21"></path>
                <path d="M32.7480309,43.6950812 C32.2688765,42.9772687 31.2988545,42.7841437 30.5818409,43.2630499 L28.997102,44.3214874 L27.4354774,43.2674249 C26.7206504,42.7849249 25.7498475,42.9733624 25.2674134,43.6886749 C24.7848231,44.4039874 24.9733301,45.3750812 25.6884695,45.8578937 L28.1189127,47.4985187 C28.3826975,47.6766437 28.6875571,47.7657062 28.9924167,47.7657062 C29.2947774,47.7657062 29.596982,47.6780499 29.8595173,47.5027374 L32.3160423,45.8621124 C33.0335244,45.3830499 33.2268728,44.4127374 32.7480309,43.6950812 Z" id="Path" fill="#F27C21"></path>
            </g>
        </g>
    </g>
</svg>