<?xml version="1.0" encoding="UTF-8"?>
<svg width="36px" height="40px" viewBox="0 0 36 40" version="1.1" xmlns="http://www.w3.org/2000/svg" xmlns:xlink="http://www.w3.org/1999/xlink">
    <!-- Generator: Sketch 52.5 (67469) - http://www.bohemiancoding.com/sketch -->
    <title>placeholder</title>
    <desc>Created with Sketch.</desc>
    <g id="5.-Contact-Us" stroke="none" stroke-width="1" fill="none" fill-rule="evenodd">
        <g id="504_contactus" transform="translate(-774.000000, -866.000000)" fill-rule="nonzero">
            <g id="placeholder" transform="translate(775.000000, 867.000000)">
                <path d="M21.4945205,28.3604082 C24.7004566,23.0481633 28.7525114,15.58 28.7525114,11.7412245 C28.7525114,5.26571429 23.4817352,-2.84217094e-14 17,-2.84217094e-14 C10.5182648,-2.84217094e-14 5.24748858,5.26571429 5.24748858,11.7412245 C5.24748858,15.58 9.29954338,23.0481633 12.5054795,28.3604082 C8.70182648,28.6473469 0.0465753425,29.6787755 0.0465753425,33.0987755 C0.0465753425,36.4644898 8.83378995,38 17.0077626,38 C25.1739726,38 33.9689498,36.4644898 33.9689498,33.0987755 C33.9611872,29.6787755 25.2981735,28.6473469 21.4945205,28.3604082 Z M6.86986301,11.7412245 C6.86986301,6.15755102 11.4187215,1.61306122 17,1.61306122 C22.5890411,1.61306122 27.1378995,6.15755102 27.1378995,11.7412245 C27.1378995,16.6191837 19.3598174,28.8567347 17,32.455102 C14.6401826,28.8567347 6.86986301,16.6191837 6.86986301,11.7412245 Z M17,36.3791837 C7.0716895,36.3791837 1.66118721,34.2077551 1.66118721,33.0910204 C1.66118721,32.2302041 5.23196347,30.3767347 13.460274,29.9036735 C15.0050228,32.3930612 16.1771689,34.1534694 16.3324201,34.3628571 C16.5420091,34.6420408 17.1552511,34.9755102 17.6753425,34.3628571 C17.8383562,34.1689796 19.0027397,32.3930612 20.5474886,29.9036735 C28.7757991,30.3767347 32.3465753,32.222449 32.3465753,33.0910204 C32.3388128,34.2155102 26.9283105,36.3791837 17,36.3791837 Z" id="Shape" stroke="#2246A8" stroke-width="0.5" fill="#2246A8"></path>
                <path d="M22.1155251,11.7412245 C22.1155251,8.91836735 19.8255708,6.63061224 17,6.63061224 C14.1744292,6.63061224 11.8844749,8.91836735 11.8844749,11.7412245 C11.8844749,14.5640816 14.1744292,16.8518367 17,16.8518367 C19.8255708,16.8518367 22.1155251,14.5640816 22.1155251,11.7412245 Z M13.4990868,11.7412245 C13.4990868,9.81020408 15.0671233,8.24367347 17,8.24367347 C18.9328767,8.24367347 20.5009132,9.81020408 20.5009132,11.7412245 C20.5009132,13.6722449 18.9328767,15.2387755 17,15.2387755 C15.0671233,15.2387755 13.4990868,13.6722449 13.4990868,11.7412245 Z" id="Shape" fill="#F27C21"></path>
            </g>
        </g>
    </g>
</svg>