<?xml version="1.0" encoding="UTF-8"?>
<svg width="12px" height="6px" viewBox="0 0 12 6" version="1.1" xmlns="http://www.w3.org/2000/svg" xmlns:xlink="http://www.w3.org/1999/xlink">
    <!-- Generator: Sketch 52.6 (67491) - http://www.bohemiancoding.com/sketch -->
    <title>Path 3</title>
    <desc>Created with Sketch.</desc>
    <g id="07.-Dashboard" stroke="none" stroke-width="1" fill="none" fill-rule="evenodd">
        <g id="2201_mybooking" transform="translate(-334.000000, -119.000000)" fill="#FFFFFF" fill-rule="nonzero">
            <polygon id="Path-3" points="334 119 346 119 340 125"></polygon>
        </g>
    </g>
</svg>