<?xml version="1.0" encoding="UTF-8"?>
<svg width="15px" height="9px" viewBox="0 0 15 9" version="1.1" xmlns="http://www.w3.org/2000/svg" xmlns:xlink="http://www.w3.org/1999/xlink">
    <!-- Generator: Sketch 52.3 (67297) - http://www.bohemiancoding.com/sketch -->
    <title>Group</title>
    <desc>Created with Sketch.</desc>
    <g id="Symbols" stroke="none" stroke-width="1" fill="none" fill-rule="evenodd">
        <g id="Component/Add-On/Add-Active" transform="translate(-93.000000, -167.000000)" fill="#FFFFFF">
            <g id="Group" transform="translate(93.000000, 167.000000)">
                <path d="M-0.757359313,4.24264069 L-0.757359313,4.24264069 C-0.757359313,3.69035594 -0.309644063,3.24264069 0.242640687,3.24264069 L8.24264069,3.24264069 C8.79492544,3.24264069 9.24264069,3.69035594 9.24264069,4.24264069 L9.24264069,4.24264069 C9.24264069,4.79492544 8.79492544,5.24264069 8.24264069,5.24264069 L0.242640687,5.24264069 C-0.309644063,5.24264069 -0.757359313,4.79492544 -0.757359313,4.24264069 Z" id="--copy" transform="translate(4.242641, 4.242641) rotate(45.000000) translate(-4.242641, -4.242641) "></path>
                <path d="M5.24264069,4.24264069 L5.24264069,4.24264069 C5.24264069,3.69035594 5.69035594,3.24264069 6.24264069,3.24264069 L14.2426407,3.24264069 C14.7949254,3.24264069 15.2426407,3.69035594 15.2426407,4.24264069 L15.2426407,4.24264069 C15.2426407,4.79492544 14.7949254,5.24264069 14.2426407,5.24264069 L6.24264069,5.24264069 C5.69035594,5.24264069 5.24264069,4.79492544 5.24264069,4.24264069 Z" id="--copy-2" transform="translate(10.242641, 4.242641) scale(-1, 1) rotate(45.000000) translate(-10.242641, -4.242641) "></path>
            </g>
        </g>
    </g>
</svg>