<?xml version="1.0" encoding="UTF-8"?>
<svg width="10px" height="10px" viewBox="0 0 10 10" version="1.1" xmlns="http://www.w3.org/2000/svg" xmlns:xlink="http://www.w3.org/1999/xlink">
    <!-- Generator: Sketch 52.2 (67145) - http://www.bohemiancoding.com/sketch -->
    <title>arrow_right [#363] copy 2</title>
    <desc>Created with Sketch.</desc>
    <g id="Page-1" stroke="none" stroke-width="1" fill="none" fill-rule="evenodd">
        <g id="100_Desktop_Landing-Copy-9" transform="translate(-976.000000, -195.000000)" fill="#F47D00">
            <g id="Button/TextButton" transform="translate(882.000000, 193.000000)">
                <path d="M99.5638403,2.14637159 C99.3685039,1.95120947 99.0522687,1.95120947 98.8574319,2.14637159 C98.6620955,2.34153372 98.6620955,2.65748672 98.8574319,2.85214971 L102.074737,6.07107692 C102.232106,6.22830472 102.120699,6.50083291 101.898385,6.50083291 L94.5080745,6.50083291 C94.2323054,6.50083291 94,6.72045269 94,6.99597569 L94,6.99797223 C94,7.27349523 94.2323054,7.49910464 94.5080745,7.49910464 L101.898385,7.49910464 C102.120699,7.49910464 102.232106,7.76414579 102.074737,7.92137359 L98.8419449,11.1497844 C98.6466085,11.3444474 98.6466085,11.6594021 98.8419449,11.8545642 L98.8419449,11.8540651 C99.0367817,12.0487281 99.3530168,12.0487281 99.5483533,11.853566 L103.70737,7.69825985 L103.70737,7.69825985 C104.097543,7.30843474 104.097543,6.6760296 103.70737,6.28620448 C103.616946,6.19636003 99.473416,2.056028 99.5638403,2.14637159" id="arrow_right-[#363]-copy-2"></path>
            </g>
        </g>
    </g>
</svg>