<svg width="67px" height="82px" viewBox="0 0 67 82" version="1.1" xmlns="http://www.w3.org/2000/svg" xmlns:xlink="http://www.w3.org/1999/xlink">
    <g id="01.-Landing-Page" stroke="none" stroke-width="1" fill="none" fill-rule="evenodd">
        <g id="0101_Desktop-Landing" transform="translate(-151.000000, -1307.000000)">
            <g id="Group-8" transform="translate(52.000000, 1183.000000)">
                <g id="Group-5" transform="translate(101.000000, 126.000000)">
                    <path d="M62.64,52.5963303 L62.64,73.3486239 C62.64,75.917508 60.5446926,78 57.96,78 L18.72,78 C16.1353074,78 14.04,75.917508 14.04,73.3486239 L14.04,4.65137615 C14.04,2.08249204 16.1353074,-2.26901779e-13 18.72,-2.27373675e-13 L57.96,-2.27373675e-13 C60.5446926,-2.27845572e-13 62.64,2.08249204 62.64,4.65137615 L62.64,19.6970864" id="Path" stroke="#2246A8" stroke-width="3.1752" stroke-linecap="round" stroke-linejoin="round" transform="translate(38.340000, 39.000000) scale(-1, 1) translate(-38.340000, -39.000000) "></path>
                    <path d="M14.4,39.1788991 L25.92,39.1788991" id="Path-18" stroke="#F27C21" stroke-width="3.1752" stroke-linecap="round" stroke-linejoin="round"></path>
                    <path d="M5.04,39.1788991 L9.72,39.1788991" id="Path-18" stroke="#2246A8" stroke-width="3.1752" stroke-linecap="round" stroke-linejoin="round"></path>
                    <path d="M13.7472801,46.2371872 L13.763799,46.2252765" id="Path-6" stroke="#F27C21" stroke-width="3.17520007" stroke-linecap="round" stroke-linejoin="round"></path>
                    <path d="M38.2272801,71.6408569 L38.243799,71.6289462" id="Path-6-Copy" stroke="#F27C21" stroke-width="3.17520007" stroke-linecap="round" stroke-linejoin="round"></path>
                    <path d="M14.04,66.0137615 L62.7072801,66.0137615" id="Path-19" stroke="#2246A8" stroke-width="3.1752"></path>
                    <path d="M14.04,11.6284404 L62.7072801,11.6284404" id="Path-19-Copy" stroke="#2246A8" stroke-width="3.1752"></path>
                    <path d="M34.56,5.90366972 L42.4693431,5.90366972" id="Path-14" stroke="#F27C21" stroke-width="3.1752" stroke-linecap="round" stroke-linejoin="round"></path>
                    <path d="M18.8585291,46.4075678 L28.3596973,46.4075678 C30.6530606,49.5095773 34.3499609,51.5229358 38.52,51.5229358 C45.4787878,51.5229358 51.12,45.9162265 51.12,39 C51.12,32.0837735 45.4787878,26.4770642 38.52,26.4770642 L11.3214587,26.4770642" id="Path" stroke="#F27C21" stroke-width="3.1752" stroke-linecap="round" stroke-linejoin="round"></path>
                    <path d="M0.16685682,32.7385321 L20.88,32.7385321" id="Path-18" stroke="#2246A8" stroke-width="3.1752" stroke-linecap="round" stroke-linejoin="round"></path>
                    <polyline id="Path-20" stroke="#2246A8" stroke-width="3.1752" stroke-linecap="round" stroke-linejoin="round" points="38.243799 32.7385321 38.243799 39.1788991 42.4693431 43.3785988"></polyline>
                </g>
            </g>
        </g>
    </g>
</svg>