<?xml version="1.0" encoding="UTF-8"?>
<svg width="10px" height="2px" viewBox="0 0 10 2" version="1.1" xmlns="http://www.w3.org/2000/svg" xmlns:xlink="http://www.w3.org/1999/xlink">
    <!-- Generator: Sketch 52.3 (67297) - http://www.bohemiancoding.com/sketch -->
    <title>-</title>
    <desc>Created with Sketch.</desc>
    <g id="Page-1" stroke="none" stroke-width="1" fill="none" fill-rule="evenodd">
        <g id="100_Desktop_Landing-Copy-13" transform="translate(-1098.000000, -366.000000)" fill="#2A2E36">
            <g id="Component/Mobile/Car-List" transform="translate(849.000000, 117.000000)">
                <g id="Group-2">
                    <g transform="translate(230.000000, 228.000000)">
                        <path d="M19,22 L19,22 C19,21.4477153 19.4477153,21 20,21 L28,21 C28.5522847,21 29,21.4477153 29,22 L29,22 C29,22.5522847 28.5522847,23 28,23 L20,23 C19.4477153,23 19,22.5522847 19,22 Z" id="-"></path>
                    </g>
                </g>
            </g>
        </g>
    </g>
</svg>