<?xml version="1.0" encoding="UTF-8"?>
<svg width="13px" height="10px" viewBox="0 0 13 10" version="1.1" xmlns="http://www.w3.org/2000/svg" xmlns:xlink="http://www.w3.org/1999/xlink">
    <!-- Generator: Sketch 52.4 (67378) - http://www.bohemiancoding.com/sketch -->
    <title>Group 16</title>
    <desc>Created with Sketch.</desc>
    <g id="03.-Car-Rental-" stroke="none" stroke-width="1" fill="none" fill-rule="evenodd" stroke-linecap="round" stroke-linejoin="round">
        <g id="0110_Car-Rental_Chauffeur" transform="translate(-965.000000, -330.000000)" stroke="#2A2E36">
            <g id="Component/Rent-Detail" transform="translate(850.000000, 206.000000)">
                <g id="Rent-Detail">
                    <g id="Dates" transform="translate(19.000000, 95.000000)">
                        <g id="Group-16" transform="translate(97.000000, 30.000000)">
                            <polyline id="Stroke-43" transform="translate(8.256196, 3.983539) rotate(-270.000000) translate(-8.256196, -3.983539) " points="12.2397351 6.32511317 8.25619599 1.64196502 4.27265689 6.32511317"></polyline>
                            <path d="M5.26854167,-1.28904835 L5.26854167,9.24803498" id="Stroke-44" transform="translate(5.268542, 3.979493) rotate(-270.000000) translate(-5.268542, -3.979493) "></path>
                        </g>
                    </g>
                </g>
            </g>
        </g>
    </g>
</svg>