<?xml version="1.0" encoding="UTF-8"?>
<svg width="49px" height="44px" viewBox="0 0 49 44" version="1.1" xmlns="http://www.w3.org/2000/svg" xmlns:xlink="http://www.w3.org/1999/xlink">
    <!-- Generator: Sketch 52.4 (67378) - http://www.bohemiancoding.com/sketch -->
    <title>Car Rental - Self Drive</title>
    <desc>Created with Sketch.</desc>
    <g id="03.-Car-Rental" stroke="none" stroke-width="1" fill="none" fill-rule="evenodd">
        <g id="0615_Car-Rental_Chauffeur" transform="translate(-158.000000, -407.000000)">
            <g id="Car-Rental---Self-Drive" transform="translate(159.000000, 408.000000)">
                <path d="M7.48163265,14.9311927 L14.3877551,14.9311927" id="Path-18-Copy-3" stroke="#F27C21" stroke-width="1.69344" stroke-linecap="round" stroke-linejoin="round"></path>
                <path d="M17.8408163,14.9311927 L20.9102041,14.9311927" id="Path-18-Copy-4" stroke="#F27C21" stroke-width="1.69344" stroke-linecap="round" stroke-linejoin="round"></path>
                <path d="M20.9102041,10.7019824 L20.9102041,2.496 C20.9102041,1.11749726 22.0277013,-4.68883469e-13 23.4062041,-4.86277685e-13 L44.3121633,-4.5519144e-13 C45.690666,-4.55444667e-13 46.8081633,1.11749726 46.8081633,2.496 L46.8081633,39.504 C46.8081633,40.8825027 45.690666,42 44.3121633,42 L23.4062041,42 C22.0277013,42 20.9102041,40.8825027 20.9102041,39.504 L20.9102041,16.2659651" id="Rectangle" stroke="#2246A8" stroke-width="1.69344" stroke-linecap="round" stroke-linejoin="round" transform="translate(33.859184, 21.000000) scale(-1, 1) translate(-33.859184, -21.000000) "></path>
                <path d="M17.2653061,24.9495413 L20.1428571,24.9495413" id="Path-18" stroke="#2246A8" stroke-width="1.69344" stroke-linecap="round" stroke-linejoin="round"></path>
                <path d="M5.37142857,24.9495413 L11.5102041,24.9495413" id="Path-18" stroke="#F27C21" stroke-width="1.69344" stroke-linecap="round" stroke-linejoin="round"></path>
                <path d="M4.4122449,29.766055 L17.0734694,29.766055" id="Path-18-Copy-2" stroke="#2246A8" stroke-width="1.69344" stroke-linecap="round" stroke-linejoin="round"></path>
                <path d="M14.4322881,24.9076859 L14.4432221,24.8996977" id="Path-6" stroke="#F27C21" stroke-width="1.69344004" stroke-linecap="round" stroke-linejoin="round"></path>
                <path d="M0.134904959,19.7477064 L16.8816327,19.7477064" id="Path-18" stroke="#2246A8" stroke-width="1.69344" stroke-linecap="round" stroke-linejoin="round"></path>
                <path d="M3.97163965,10.1146789 L20.7183673,10.1146789" id="Path-18" stroke="#2246A8" stroke-width="1.69344" stroke-linecap="round" stroke-linejoin="round"></path>
                <path d="M46.8526963,13.3480529 L46.8636303,13.3400646" id="Path-6" stroke="#F27C21" stroke-width="1.69344004" stroke-linecap="round" stroke-linejoin="round"></path>
                <path d="M33.8077983,38.586585 L33.8187323,38.5785967" id="Path-6-Copy" stroke="#F27C21" stroke-width="1.69344004" stroke-linecap="round" stroke-linejoin="round"></path>
                <path d="M20.9102041,35.5458716 L46.8440155,35.5458716" id="Path-19" stroke="#2246A8" stroke-width="1.69344"></path>
                <path d="M20.9102041,6.26146789 L46.8440155,6.26146789" id="Path-19-Copy" stroke="#2246A8" stroke-width="1.69344"></path>
                <path d="M31.844898,3.17889908 L36.0596273,3.17889908" id="Path-14" stroke="#F27C21" stroke-width="1.69344" stroke-linecap="round" stroke-linejoin="round"></path>
                <g id="Group-4" transform="translate(25.514286, 13.678899)" stroke="#F27C21" stroke-linecap="round" stroke-linejoin="round" stroke-width="1.69344">
                    <path d="M11.9289968,7.36038079 L11.9399308,7.35239257" id="Path-6"></path>
                    <path d="M10.1269122,9.35308577 C8.48787322,11.0649584 7.37999441,12.4828813 6.25646233,12.4828813 C5.13293025,12.4828813 4.52721022,11.6066553 3.63324808,10.6308863 C2.73928595,9.65511723 1.4683815,8.46399882 0.882103062,7.86586573 C0.295824626,7.26773264 -0.320133228,6.19654236 0.655414826,5.2594629 C1.63096288,4.32238344 2.67395388,4.74252666 3.63324808,5.83173974 C4.27277755,6.55788179 5.09416023,7.41216239 6.09739613,8.39458156 C7.33557414,7.29872478 8.24371443,6.44444418 8.82181698,5.83173974 C9.6889708,4.91268307 12.0727402,2.56633389 12.9029999,1.68161953 C13.7332595,0.79690517 15.0818739,-0.682655169 16.32187,0.577404275 C17.561866,1.83746372 15.6263562,3.50271527 15.0275648,4.20777966 C14.6283705,4.67782258 14.2178829,5.13640002 13.796102,5.58351198" id="Path-2"></path>
                </g>
            </g>
        </g>
    </g>
</svg>