<?xml version="1.0" encoding="UTF-8"?>
<svg width="33px" height="24px" viewBox="0 0 33 24" version="1.1" xmlns="http://www.w3.org/2000/svg" xmlns:xlink="http://www.w3.org/1999/xlink">
    <!-- Generator: Sketch 52.3 (67297) - http://www.bohemiancoding.com/sketch -->
    <title>Group 606</title>
    <desc>Created with Sketch.</desc>
    <g id="03.-Car-Rental" stroke="none" stroke-width="1" fill="none" fill-rule="evenodd" stroke-linecap="round" stroke-linejoin="round">
        <g id="0816_Car-Rental_Self-Drive" transform="translate(-79.000000, -383.000000)" stroke-width="1.5">
            <g id="Group-3" transform="translate(80.000000, 383.000000)">
                <g id="Group-606">
                    <path d="M13.967825,17.5270125 L11.6531583,16.9483458 L11.3896583,15.8930542 C12.0342,15.3143875 12.4656167,14.4450958 12.534075,13.5783875 L12.5612,13.5783875 C12.844075,13.5783875 13.0830333,13.3678458 13.1179083,13.0862625 L13.2587,11.9638042 C13.3000333,11.6305542 13.0429917,11.3373458 12.70845,11.3334708 L12.7756167,9.9281375 L13.0572,9.64784583 C13.4201583,9.2616375 13.4201583,8.79922083 13.0572,8.24380417 C12.6916583,7.68580417 12.0561583,7.4016375 11.1649083,7.4016375 C10.69345,7.4016375 9.875825,7.42617917 9.12536667,7.96222083 C6.86365833,7.98547083 6.59886667,8.9283875 6.59886667,9.9281375 C6.59886667,10.2807625 6.73190833,11.3321792 6.73190833,11.3321792 L6.67378333,11.3321792 C6.33536667,11.3321792 6.07445,11.6279708 6.11578333,11.9638042 L6.256575,13.0862625 C6.29145,13.3678458 6.53040833,13.5783875 6.81328333,13.5783875 L6.90499167,13.5783875 C6.97215833,14.4218458 7.38161667,15.2691792 7.99774167,15.8465542 L7.721325,16.9483458 L5.40665833,17.5270125 C4.12661667,17.8473458 3.22890833,18.9969292 3.22890833,20.3170125 L3.22890833,20.3183042 L16.145575,20.3183042 L16.145575,20.3170125 C16.145575,18.9969292 15.2478667,17.8473458 13.967825,17.5270125 L13.967825,17.5270125 Z" id="Stroke-290" stroke="#F27C21"></path>
                    <path d="M27.7708333,22.90125 L3.22916667,22.90125 C1.801875,22.90125 0.645833333,21.7452083 0.645833333,20.3179167 L0.645833333,3.52625 C0.645833333,2.09895833 1.801875,0.942916667 3.22916667,0.942916667 L27.7708333,0.942916667 C29.198125,0.942916667 30.3541667,2.09895833 30.3541667,3.52625 L30.3541667,20.3179167 C30.3541667,21.7452083 29.198125,22.90125 27.7708333,22.90125 L27.7708333,22.90125 Z" id="Stroke-291" stroke="#2246A8"></path>
                    <path d="M18.7291667,9.98458333 L22.6041667,9.98458333" id="Stroke-292" stroke="#2246A8"></path>
                    <path d="M25.1875,9.98458333 L27.7708333,9.98458333" id="Stroke-293" stroke="#2246A8"></path>
                    <path d="M18.7291667,13.8595833 L27.7708333,13.8595833" id="Stroke-294" stroke="#2246A8"></path>
                    <path d="M18.7291667,17.7345833 L20.0208333,17.7345833" id="Stroke-295" stroke="#2246A8"></path>
                    <path d="M22.6041667,17.7345833 L27.7708333,17.7345833" id="Stroke-296" stroke="#2246A8"></path>
                    <path d="M0.645833333,4.81791667 L30.3541667,4.81791667" id="Stroke-297" stroke="#2246A8"></path>
                </g>
            </g>
        </g>
    </g>
</svg>