<svg width="20px" height="16px" viewBox="0 0 20 16" version="1.1" xmlns="http://www.w3.org/2000/svg" xmlns:xlink="http://www.w3.org/1999/xlink">
    <g id="02.-Login/Sign-Up" stroke="none" stroke-width="1" fill="none" fill-rule="evenodd">
        <g id="0203_Login_Email" transform="translate(-1200.000000, -324.000000)" fill="#8A959E" stroke="#8A959E" stroke-width="0.25">
            <g id="hide" transform="translate(1201.000000, 324.000000)">
                <path d="M3.57358333,11.5235 C3.30156667,11.3065833 3.03778333,11.0713 2.79046667,10.8236667 L2.66453526e-14,8.0332 L2.86393333,5.16926667 C5.35736667,2.67615 8.98446667,1.82495 12.3291,2.94753333 C12.4950333,3.00326667 12.5840167,3.18313333 12.5286,3.34875 C12.47255,3.51436667 12.293,3.60303333 12.1273833,3.54825 C9.01265,2.50261667 5.63413333,3.29523333 3.3117,5.61735 L0.89585,8.0332 L3.23855,10.3759 C3.46908333,10.60675 3.71481667,10.8262 3.96846667,11.0282333 C4.10526667,11.1371667 4.12775,11.33635 4.01881667,11.47315 C3.95611667,11.5516833 3.86396667,11.5925333 3.77086667,11.5925333 C3.70151667,11.5925333 3.63185,11.5697333 3.57358333,11.5235 Z M15.9083833,5.16958333 L18.6985333,7.96005 L15.8349167,10.8236667 C14.0802667,12.5783167 11.7043167,13.5210333 9.291,13.5210333 C8.25043333,13.5210333 7.2029,13.3459167 6.19526667,12.9849167 C6.0306,12.9257 5.9451,12.7445667 6.004,12.5799 C6.0629,12.4152333 6.24435,12.3294167 6.40901667,12.3886333 C9.5247,13.5052 13.0485667,12.7144833 15.38715,10.3759 L17.803,7.96005 L15.4603,5.61735 C15.0625667,5.21961667 14.6262,4.86051667 14.1638667,4.5505 C14.0188333,4.45296667 13.9798833,4.256 14.0774167,4.11096667 C14.1746333,3.96593333 14.3719167,3.9273 14.51695,4.02451667 C15.0134833,4.35765 15.4815167,4.74271667 15.9083833,5.16958333 Z M9.67068333,11.6451 C11.6786667,11.6451 13.31235,10.0117333 13.31235,8.00343333 C13.31235,7.2789 13.1001833,6.57938333 12.6989667,5.97993333 C12.60175,5.8349 12.6407,5.63825 12.78605,5.54071667 C12.9307667,5.4435 13.1277333,5.48245 13.2252667,5.6278 C13.6964667,6.33175 13.9456833,7.15318333 13.9456833,8.00343333 C13.9456833,10.3607 12.02795,12.2784333 9.67068333,12.2784333 C8.87078333,12.2784333 8.0902,12.0561333 7.41411667,11.6349667 C7.2656,11.5425 7.22,11.3474333 7.31246667,11.1989167 C7.40525,11.0504 7.60063333,11.0054333 7.74851667,11.0972667 C8.32453333,11.4557333 8.9889,11.6451 9.67068333,11.6451 Z M9.67068333,4.36176667 C7.6627,4.36176667 6.02901667,5.99545 6.0287,8.00375 C6.0287,8.56615 6.15346667,9.10511667 6.3992,9.60608333 C6.47615,9.76283333 6.41123333,9.95251667 6.25416667,10.0297833 C6.20951667,10.0516333 6.1617,10.0620833 6.11515,10.0620833 C5.99798333,10.0620833 5.88556667,9.99685 5.83046667,9.88475 C5.54166667,9.29638333 5.39536667,8.66336667 5.39536667,8.00343333 C5.39536667,5.64616667 7.3131,3.72843333 9.67036667,3.72843333 C10.4379667,3.72843333 11.1906833,3.93426667 11.84745,4.32345 C11.9981833,4.41275 12.0475833,4.60686667 11.9586,4.75728333 C11.8693,4.90801667 11.6748667,4.95741667 11.5247667,4.86843333 C10.9655333,4.53688333 10.3246,4.36176667 9.67068333,4.36176667 Z M17.29665,0.17955 C17.4204667,0.303366667 17.4204667,0.503816667 17.29665,0.627316667 L2.57165,15.3523167 C2.5099,15.4140667 2.42883333,15.4451 2.34776667,15.4451 C2.2667,15.4451 2.18563333,15.4140667 2.12388333,15.3523167 C2.00006667,15.2285 2.00006667,15.0283667 2.12388333,14.90455 L16.8488833,0.17955 C16.9727,0.0557333333 17.1728333,0.0557333333 17.29665,0.17955 Z" id="Combined-Shape"></path>
            </g>
        </g>
    </g>
</svg>