<svg width="25" height="25" viewBox="0 0 25 25" fill="none" xmlns="http://www.w3.org/2000/svg">
<path d="M23.6608 17.437C20.9556 14.731 20.5485 13.3732 20.5485 9.05C20.5485 4.60408 16.9452 1 12.5001 1C8.05492 1 4.45161 4.60413 4.45161 9.05C4.45161 11.381 4.38953 12.2512 4.06865 13.3196C3.66961 14.6505 2.85042 15.9247 1.33893 17.437C0.614839 18.1615 1.12776 19.4 2.15202 19.4H8.53334L8.47544 19.975C8.47544 22.198 10.2771 24 12.4997 24C14.7222 24 16.5239 22.198 16.5239 19.975L16.466 19.4H22.8477C23.8724 19.4 24.3853 18.1615 23.6608 17.437Z" stroke="#2246A8" stroke-width="1.6"/>
<path d="M8 19.5H17.0233" stroke="#2246A8" stroke-width="1.6"/>
<path d="M19 10C21.2091 10 23 8.20914 23 6C23 3.79086 21.2091 2 19 2C16.7909 2 15 3.79086 15 6C15 8.20914 16.7909 10 19 10Z" fill="#DB0538" stroke="white" stroke-width="1.2"/>
</svg>
