<?xml version="1.0" encoding="UTF-8"?>
<svg width="38px" height="36px" viewBox="0 0 38 36" version="1.1" xmlns="http://www.w3.org/2000/svg" xmlns:xlink="http://www.w3.org/1999/xlink">
    <!-- Generator: Sketch 52.6 (67491) - http://www.bohemiancoding.com/sketch -->
    <title>Group 9</title>
    <desc>Created with Sketch.</desc>
    <defs>
        <filter x="-8.6%" y="-19.2%" width="117.3%" height="138.3%" filterUnits="objectBoundingBox" id="filter-1">
            <feOffset dx="0" dy="2" in="SourceAlpha" result="shadowOffsetOuter1"></feOffset>
            <feGaussianBlur stdDeviation="5" in="shadowOffsetOuter1" result="shadowBlurOuter1"></feGaussianBlur>
            <feColorMatrix values="0 0 0 0 0   0 0 0 0 0   0 0 0 0 0  0 0 0 0.2 0" type="matrix" in="shadowBlurOuter1" result="shadowMatrixOuter1"></feColorMatrix>
            <feMerge>
                <feMergeNode in="shadowMatrixOuter1"></feMergeNode>
                <feMergeNode in="SourceGraphic"></feMergeNode>
            </feMerge>
        </filter>
    </defs>
    <g id="REVISION-sprint-3" stroke="none" stroke-width="1" fill="none" fill-rule="evenodd">
        <g id="0101_Dashboard_My-Booking-Copy-3" transform="translate(-950.000000, -83.000000)" stroke="#21419A">
            <g id="Group-18-Copy" filter="url(#filter-1)" transform="translate(932.000000, 68.000000)">
                <g id="Group">
                    <g id="Rectangle">
                        <g id="Group-9" transform="translate(28.000000, 23.000000)">
                            <path d="M0,17 L0,16.1818182 C0,11.6631248 3.83755929,8 8.57142857,8 L9.42857143,8 C14.1624407,8 18,11.6631248 18,16.1818182 L18,17" id="Shape" stroke-linecap="round"></path>
                            <path d="M9,0 L9,0 C11.209139,-4.05812251e-16 13,1.790861 13,4 L13,4 C13,6.209139 11.209139,8 9,8 L9,8 C6.790861,8 5,6.209139 5,4 L5,4 C5,1.790861 6.790861,4.05812251e-16 9,0 Z" id="Rectangle-Copy-15"></path>
                        </g>
                    </g>
                </g>
            </g>
        </g>
    </g>
</svg>