<?xml version="1.0" encoding="UTF-8"?>
<svg width="17px" height="16px" viewBox="0 0 17 16" version="1.1" xmlns="http://www.w3.org/2000/svg" xmlns:xlink="http://www.w3.org/1999/xlink">
    <!-- Generator: Sketch 52.3 (67297) - http://www.bohemiancoding.com/sketch -->
    <title>Group 29</title>
    <desc>Created with Sketch.</desc>
    <g id="03.-Car-rent" stroke="none" stroke-width="1" fill="none" fill-rule="evenodd">
        <g id="iPhone-8-Copy-15" transform="translate(-333.000000, -62.000000)" fill="#1E3F96" fill-rule="nonzero">
            <g id="Group-29" transform="translate(333.000000, 61.000000)">
                <g id="Group">
                    <g id="Group-5">
                        <path d="M-1,8 L18,8 C18.5522847,8 19,8.44771525 19,9 L19,9 C19,9.55228475 18.5522847,10 18,10 L-1,10 C-1.55228475,10 -2,9.55228475 -2,9 L-2,9 C-2,8.44771525 -1.55228475,8 -1,8 Z" id="Rectangle-9" transform="translate(8.500000, 9.000000) rotate(-45.000000) translate(-8.500000, -9.000000) "></path>
                        <path d="M-1,8 L18,8 C18.5522847,8 19,8.44771525 19,9 L19,9 C19,9.55228475 18.5522847,10 18,10 L-1,10 C-1.55228475,10 -2,9.55228475 -2,9 L-2,9 C-2,8.44771525 -1.55228475,8 -1,8 Z" id="Rectangle-9" transform="translate(8.500000, 9.000000) scale(-1, 1) rotate(-45.000000) translate(-8.500000, -9.000000) "></path>
                    </g>
                </g>
            </g>
        </g>
    </g>
</svg>