<?xml version="1.0" encoding="UTF-8"?>
<svg width="26px" height="26px" viewBox="0 0 26 26" version="1.1" xmlns="http://www.w3.org/2000/svg" xmlns:xlink="http://www.w3.org/1999/xlink">
    <!-- Generator: Sketch 52.6 (67491) - http://www.bohemiancoding.com/sketch -->
    <title>Group 17 Copy</title>
    <desc>Created with Sketch.</desc>
    <g id="07.-Dashboard" stroke="none" stroke-width="1" fill="none" fill-rule="evenodd">
        <g id="0102_Dashboard_My-Booking" transform="translate(-930.000000, -229.000000)">
            <g id="Group-21" transform="translate(930.000000, 229.000000)">
                <g id="Group-17-Copy">
                    <circle id="Oval" fill="#0038A9" fill-rule="nonzero" cx="13" cy="13" r="13"></circle>
                    <g id="Group-18" transform="translate(9.000000, 9.000000)" stroke="#FFFFFF" stroke-linecap="round">
                        <path d="M0,4.00025 L8,4.00025" id="Stroke-1065"></path>
                        <path d="M4,8 L4,0" id="Stroke-1066"></path>
                    </g>
                </g>
            </g>
        </g>
    </g>
</svg>