<?xml version="1.0" encoding="UTF-8"?>
<svg width="13px" height="16px" viewBox="0 0 13 16" version="1.1" xmlns="http://www.w3.org/2000/svg" xmlns:xlink="http://www.w3.org/1999/xlink">
    <!-- Generator: Sketch 52.2 (67145) - http://www.bohemiancoding.com/sketch -->
    <title>Lock Open</title>
    <desc>Created with Sketch.</desc>
    <g id="Page-1" stroke="none" stroke-width="1" fill="none" fill-rule="evenodd" stroke-linecap="round">
        <g id="100_Desktop_Landing-Copy-10" transform="translate(-1062.000000, -398.000000)" stroke="#2246A8">
            <g id="Group-23" transform="translate(0.000000, 372.000000)">
                <g id="Group-2" transform="translate(50.000000, 12.000000)">
                    <g id="Group-29" transform="translate(1013.000000, 10.000000)">
                        <g id="Group-12">
                            <g id="Lock-Open" transform="translate(0.000000, 5.000000)">
                                <path d="M8.17465,14.0353921 L2.79593947,14.0353921 C1.31065,14.0353921 0.106728947,12.8314711 0.106728947,11.3461816 L0.106728947,6.41557632 C0.106728947,6.16807632 0.307334211,5.96747105 0.554834211,5.96747105 L10.4157553,5.96747105 C10.6632553,5.96747105 10.8638605,6.16807632 10.8638605,6.41557632 L10.8638605,11.3461816 C10.8638605,12.8314711 9.65993947,14.0353921 8.17465,14.0353921 Z" id="Stroke-1273"></path>
                                <path d="M1.89961316,3.72642368 C1.89961316,1.74613421 3.50503421,0.140713158 5.48532368,0.140713158 C7.46561316,0.140713158 9.07103421,1.74613421 9.07103421,3.72642368 L9.07103421,4.17452895 L9.07103421,5.96752895" id="Stroke-1275"></path>
                            </g>
                        </g>
                    </g>
                </g>
            </g>
        </g>
    </g>
</svg>