<?xml version="1.0" encoding="UTF-8"?>
<svg width="16px" height="29px" viewBox="0 0 16 29" version="1.1" xmlns="http://www.w3.org/2000/svg" xmlns:xlink="http://www.w3.org/1999/xlink">
    <!-- Generator: Sketch 52.3 (67297) - http://www.bohemiancoding.com/sketch -->
    <title>Car Rental - Self Drive</title>
    <desc>Created with Sketch.</desc>
    <g id="03.-Car-Rental" stroke="none" stroke-width="1" fill="none" fill-rule="evenodd" stroke-linecap="round" stroke-linejoin="round">
        <g id="0809_Car-Rental_Self-Drive" transform="translate(-791.000000, -329.000000)" stroke="#FFFFFF" stroke-width="3">
            <g id="Group-6" transform="translate(50.000000, 150.000000)">
                <polyline id="Car-Rental---Self-Drive" transform="translate(749.000000, 193.500000) scale(-1, 1) rotate(-270.000000) translate(-749.000000, -193.500000) " points="736 187 749 200 762 187"></polyline>
            </g>
        </g>
    </g>
</svg>