<?xml version="1.0" encoding="UTF-8"?>
<svg width="45px" height="43px" viewBox="0 0 45 43" version="1.1" xmlns="http://www.w3.org/2000/svg" xmlns:xlink="http://www.w3.org/1999/xlink">
    <!-- Generator: Sketch 52.3 (67297) - http://www.bohemiancoding.com/sketch -->
    <title>out-of-town</title>
    <desc>Created with Sketch.</desc>
    <g id="Page-1" stroke="none" stroke-width="1" fill="none" fill-rule="evenodd" stroke-linecap="round">
        <g id="Component/Icon/OutTown" transform="translate(0.000000, -4.000000)">
            <g id="Group-11" transform="translate(1.000000, 5.000000)">
                <g id="Group-10" transform="translate(0.000000, 12.632432)" stroke-width="1.9404">
                    <path d="M6.38890451,23.4635136 C7.02869423,24.4126186 8.09649529,25.9231302 9.59230769,27.9950482 C15.9871795,19.3082588 19.1846154,13.1900896 19.1846154,9.64054054 C19.1846154,4.31621702 14.8899929,-5.68434189e-14 9.59230769,-5.68434189e-14 C4.29462244,-5.68434189e-14 -5.68434189e-14,4.31621702 -5.68434189e-14,9.64054054 C-5.68434189e-14,11.6462329 1.0209022,14.4720543 3.0627066,18.1180048" id="Path" stroke="#2246A8" stroke-linejoin="round"></path>
                    <path d="M4.71504009,20.7023035 L4.72314573,20.6964083" id="Path-6" stroke="#F27C21" stroke-linejoin="round"></path>
                    <ellipse id="Oval" stroke="#F27C21" cx="9.7025641" cy="9.75135135" rx="4.85128205" ry="4.87567568"></ellipse>
                </g>
                <path d="M39.0307692,-5.68434189e-14 C36.8386236,-5.68434189e-14 35.0615385,1.78602084 35.0615385,3.98918919 C35.0615385,5.12717559 35.8557686,6.97991591 37.444229,9.54741017 C37.7520539,10.0449603 38.2809006,10.8516794 39.0307692,11.9675676 C39.7604428,10.8824626 40.2760344,10.097129 40.5775441,9.61156678 C42.1925147,7.01075825 43,5.13663239 43,3.98918919" id="Path" stroke="#F27C21" stroke-width="1.9404" stroke-linejoin="round"></path>
                <path d="M41.9812915,14.4054054 C30.7299155,18.326851 29.3788867,21.5322621 37.9282051,24.0216387 C41.1558956,24.9614724 42.6206937,26.3426226 42.3225996,28.1650894" id="Shape" stroke="#F27C21" stroke-width="1.9404" stroke-linejoin="round"></path>
                <path d="M38.8575793,32.8265819 C37.1080059,34.3700563 32.896873,37.0824953 26.2241805,40.9638989" id="Path" stroke="#F27C21" stroke-width="1.9404" stroke-linejoin="round"></path>
                <path d="M40.8791427,30.6752764 L40.8872483,30.6693813" id="Path-6" stroke="#F27C21" stroke-width="1.9404" stroke-linejoin="round"></path>
                <path d="M35.9002063,14.1837838 C24.6313129,18.1883798 21.3756061,20.783818 24.5801107,24.0216387 C26.2289726,25.6876432 25.5575549,27.8891963 20.1620595,29.801705" id="Path-30" stroke="#F27C21" stroke-width="1.9404" stroke-linejoin="round"></path>
                <path d="M41.7611939,1.19960077 L41.7692996,1.19370563" id="Path-6" stroke="#F27C21" stroke-width="1.9404" stroke-linejoin="round"></path>
                <path d="M39.3355529,4.08068185 L39.3436586,4.07478671" id="Path-6" stroke="#2246A8" stroke-width="1.9404" stroke-linejoin="round"></path>
                <path d="M16.0745782,38.5279756 C23.1315286,35.3857366 35.2842195,29.1717411 32.8002553,26.4209808 C30.3162911,23.6702205 26.9217728,22.7087083 28.6207255,20.6196488" id="Path-31" stroke="#2246A8" stroke-width="1.9404" stroke-linejoin="round" stroke-dasharray="8.359999895095825,3.740000104904175"></path>
            </g>
        </g>
    </g>
</svg>