<?xml version="1.0" encoding="UTF-8"?>
<svg width="20px" height="15px" viewBox="0 0 20 15" version="1.1" xmlns="http://www.w3.org/2000/svg" xmlns:xlink="http://www.w3.org/1999/xlink">
    <!-- Generator: Sketch 52.4 (67378) - http://www.bohemiancoding.com/sketch -->
    <title>Group 4</title>
    <desc>Created with Sketch.</desc>
    <g id="Page-1" stroke="none" stroke-width="1" fill="none" fill-rule="evenodd">
        <g id="Group-4" transform="translate(0.000000, -1.000000)" fill="#FFFFFF">
            <g id="left-arrow" transform="translate(0.052632, 0.982456)">
                <path d="M10.5893305,5.0276236 L0.445757196,5.0276236 C0.199579907,5.0276236 0,5.29017898 0,5.61403509 C0,5.93791955 0.199579907,6.20044657 0.445757196,6.20044657 L10.5893305,6.20044657 C10.8355294,6.20044657 11.0350877,5.93791955 11.0350877,5.61403509 C11.0350877,5.29017898 10.8355294,5.0276236 10.5893305,5.0276236 Z" id="Path"></path>
                <path d="M1.36875,5.61403509 L5.80578399,1.02458976 C6.02719298,0.795576821 6.02719298,0.424284955 5.80578399,0.195272018 C5.584375,-0.0337125642 5.22541118,-0.0337125642 5.00400219,0.195272018 L0.166063596,5.19936204 C-0.0553453947,5.42837498 -0.0553453947,5.79966684 0.166063596,6.02867978 L5.00400219,11.0327698 C5.11469298,11.1472904 5.2598136,11.2045366 5.4049068,11.2045366 C5.55,11.2045366 5.69512061,11.1472904 5.8058114,11.0327698 C6.02722039,10.8037569 6.02722039,10.432465 5.8058114,10.2034521 L1.36875,5.61403509 Z" id="Path"></path>
            </g>
            <g id="left-arrow" transform="translate(13.447368, 10.350877) scale(-1, 1) translate(-13.447368, -10.350877) translate(6.947368, 4.350877)">
                <path d="M11.548936,5.0276236 L0.486151727,5.0276236 C0.217665844,5.0276236 0,5.29017898 0,5.61403509 C0,5.93791955 0.217665844,6.20044657 0.486151727,6.20044657 L11.548936,6.20044657 C11.8174454,6.20044657 12.0350877,5.93791955 12.0350877,5.61403509 C12.0350877,5.29017898 11.8174454,5.0276236 11.548936,5.0276236 Z" id="Path"></path>
                <path d="M1.36875,5.61403509 L5.80578399,1.02458976 C6.02719298,0.795576821 6.02719298,0.424284955 5.80578399,0.195272018 C5.584375,-0.0337125642 5.22541118,-0.0337125642 5.00400219,0.195272018 L0.166063596,5.19936204 C-0.0553453947,5.42837498 -0.0553453947,5.79966684 0.166063596,6.02867978 L5.00400219,11.0327698 C5.11469298,11.1472904 5.2598136,11.2045366 5.4049068,11.2045366 C5.55,11.2045366 5.69512061,11.1472904 5.8058114,11.0327698 C6.02722039,10.8037569 6.02722039,10.432465 5.8058114,10.2034521 L1.36875,5.61403509 Z" id="Path"></path>
            </g>
        </g>
    </g>
</svg>