<svg width="13px" height="12px" viewBox="0 0 13 12" version="1.1" xmlns="http://www.w3.org/2000/svg" xmlns:xlink="http://www.w3.org/1999/xlink">
    <g id="Symbols" stroke="none" stroke-width="1" fill="none" fill-rule="evenodd">
        <g id="Component/CarSpec/Transmission" transform="translate(-37.000000, -16.000000)" stroke="#2A2E36" stroke-width="2">
            <polyline id="Path-5" points="38 21.9855456 41.9503509 25.9358965 48.273611 17.417567"></polyline>
        </g>
    </g>
</svg>
