<?xml version="1.0" encoding="UTF-8"?>
<svg width="28px" height="28px" viewBox="0 0 28 28" version="1.1" xmlns="http://www.w3.org/2000/svg" xmlns:xlink="http://www.w3.org/1999/xlink">
    <!-- Generator: Sketch 52.6 (67491) - http://www.bohemiancoding.com/sketch -->
    <title>Group 2</title>
    <desc>Created with Sketch.</desc>
    <g id="REVISION-sprint-3" stroke="none" stroke-width="1" fill="none" fill-rule="evenodd">
        <g id="0101_Dashboard_My-Booking-Copy" transform="translate(-1059.000000, -239.000000)">
            <g id="Group" transform="translate(391.000000, 239.000000)">
                <g id="Group-2" transform="translate(668.000000, 0.000000)">
                    <rect id="Rectangle" fill="#F22020" x="8" y="8" width="12" height="12" rx="6"></rect>
                    <rect id="Rectangle-Copy-2" stroke="#F22020" opacity="0.5" x="4.5" y="4.5" width="19" height="19" rx="9.5"></rect>
                    <rect id="Rectangle-Copy-3" stroke="#F22020" opacity="0.3" x="0.5" y="0.5" width="27" height="27" rx="13.5"></rect>
                </g>
            </g>
        </g>
    </g>
</svg>