<?xml version="1.0" encoding="UTF-8"?>
<svg width="36px" height="49px" viewBox="0 0 36 49" version="1.1" xmlns="http://www.w3.org/2000/svg" xmlns:xlink="http://www.w3.org/1999/xlink">
    <!-- Generator: Sketch 52.3 (67297) - http://www.bohemiancoding.com/sketch -->
    <title>wedding-decoration</title>
    <desc>Created with Sketch.</desc>
    <g id="Page-1" stroke="none" stroke-width="1" fill="none" fill-rule="evenodd">
        <g id="Component/Icon/WeddingDecor" transform="translate(-5.000000, -1.000000)">
            <rect id="Rectangle" stroke="#2246A8" stroke-width="2" x="20" y="37" width="7" height="3" rx="1.5"></rect>
            <path d="M23,36.0637034 L21,31" id="Path-10" stroke="#2246A8" stroke-width="2" stroke-linecap="round" stroke-linejoin="round"></path>
            <path d="M24.0696404,36.1800046 L24.9303596,32" id="Path-13" stroke="#2246A8" stroke-width="2" stroke-linecap="round" stroke-linejoin="round"></path>
            <circle id="Oval-Copy" fill="#F27C21" fill-rule="evenodd" cx="12" cy="26" r="1"></circle>
            <circle id="Oval-Copy-6" fill="#F27C21" fill-rule="evenodd" cx="26" cy="29" r="1"></circle>
            <path d="M20.9309318,39.8524746 C22.0467075,42.0366776 23.0444977,43.6064129 23.9243022,44.5616803 C25.1051253,45.8437852 26.8084407,47.0098895 28.3119618,48.0775928 C29.4754119,45.4651946 28.7311489,41.8151539 26.7601545,39.4388451" id="Path-15" stroke="#2246A8" stroke-width="2" stroke-linecap="round" stroke-linejoin="round"></path>
            <path d="M20.1342555,39.2765197 C18.2459026,42.0205711 18.0549224,45.1222464 19.5613148,48.5815455 C20.5766448,48.3552978 21.5075954,47.7756544 22.3541667,46.842615" id="Path-16" stroke="#2246A8" stroke-width="2" stroke-linecap="round" stroke-linejoin="round"></path>
            <g id="Wedding" stroke-width="1" fill-rule="evenodd" transform="translate(6.000000, 2.000000)">
                <g id="Group-4" transform="translate(9.000000, 0.000000)" stroke="#F27C21">
                    <path d="M5.67737476,1.57331757 C6.0455314,0.651394417 6.94669504,0 8,0 C9.22478021,0 10.2438505,0.880748874 10.4584079,2.04344367 C11.403149,1.34847183 12.7681807,1.45447217 13.6568542,2.34314575 C14.5415444,3.22783588 14.6505622,4.58462316 13.9658536,5.52886252 C15.1176937,5.71237852 16,6.74885922 16,8 C16,9.38071187 14.9254834,10.5 13.6,10.5 C13.5076733,10.5 13.4165642,10.4945694 13.3269511,10.4839981 C13.3926514,10.5458506 13.4553753,10.6121535 13.5147217,10.6828799 C14.366726,11.6982591 14.1999875,13.2408511 13.1423009,14.1283555 C12.3132518,14.8240103 11.1828898,14.9106985 10.3226252,14.4266824 C9.95446859,15.3486056 9.05330496,16 8,16 C6.77521979,16 5.7561495,15.1192511 5.54159209,13.9565563 C4.59685101,14.6515282 3.23181933,14.5455278 2.34314575,13.6568542 C1.45845562,12.7721641 1.34943784,11.4153768 2.03414638,10.4711375 C0.882306271,10.2876215 -7.61554322e-13,9.25114077 -7.30970839e-13,8 C-7.64721619e-13,6.61928813 1.0745166,5.5 2.4,5.5 C2.49232671,5.5 2.58343577,5.5054306 2.67304886,5.51600189 C2.6073486,5.45414937 2.54462474,5.38784651 2.48527828,5.31712014 C1.63327397,4.30174095 1.80001246,2.75914894 2.85769912,1.87164446 C3.68674818,1.1759897 4.81711025,1.08930147 5.67737476,1.57331757 Z" id="Combined-Shape" stroke-width="1.5999999" stroke-linecap="round" stroke-linejoin="round"></path>
                    <circle id="Oval" stroke-width="2" cx="8" cy="8" r="2.66666667"></circle>
                </g>
                <g id="Group-4-Copy" transform="translate(7.000000, 6.000000)">
                    <path d="M0.183150433,20.7870449 C2.72730253,24.6235316 5.10755944,27.384638 7.32392117,29.0703639 C9.7241752,29.0703639 11.8109509,29.0703639 13.5842483,29.0703639 C17.6114161,25.5660668 20.2645411,20.9255325 21.5436233,15.1487611" id="Path-17" stroke="#2246A8" stroke-width="2" stroke-linecap="round"></path>
                    <path d="M17.5130086,0.490111439 C17.9285878,0.182142012 18.4430231,0 19,0 C20.2247802,0 21.2438505,0.880748874 21.4584079,2.04344367 C22.403149,1.34847183 23.7681807,1.45447217 24.6568542,2.34314575 C25.5415444,3.22783588 25.6505622,4.58462316 24.9658536,5.52886252 C26.1176937,5.71237852 27,6.74885922 27,8 C27,9.38071187 25.9254834,10.5 24.6,10.5 C24.5076733,10.5 24.4165642,10.4945694 24.3269511,10.4839981 C24.3926514,10.5458506 24.4553753,10.6121535 24.5147217,10.6828799 C25.366726,11.6982591 25.1999875,13.2408511 24.1423009,14.1283555 C23.3132518,14.8240103 22.1828898,14.9106985 21.3226252,14.4266824 C20.9544686,15.3486056 20.053305,16 19,16 C17.7752198,16 16.7561495,15.1192511 16.5415921,13.9565563 C15.596851,14.6515282 14.2318193,14.5455278 13.3431458,13.6568542 C12.4584556,12.7721641 12.3494378,11.4153768 13.0341464,10.4711375 C12.404536,10.3708253 11.8554583,10.0156597 11.4869914,9.50988856 C11.7736014,9.29749318 12.0131918,9.02524973 12.1872898,8.71163104 C12.4563642,8.74619586 12.7324905,8.73620998 13.0035862,8.68086433 C13.7248733,8.83027973 14.5187994,8.65153539 15.1423009,8.12835555 C16.1999875,7.24085106 16.366726,5.69825905 15.5147217,4.68287986 C15.4553753,4.61215349 15.3926514,4.54585063 15.3269511,4.48399811 C15.4165642,4.4945694 15.5076733,4.5 15.6,4.5 C16.9254834,4.5 18,3.38071187 18,2 C18,1.43274863 17.8186331,0.909622805 17.5130086,0.490111439 Z" id="Combined-Shape" stroke="#F27C21" stroke-width="1.5999999" stroke-linecap="round" stroke-linejoin="round"></path>
                    <circle id="Oval" stroke="#F27C21" stroke-width="2" cx="19" cy="8" r="2.66666667"></circle>
                </g>
                <g id="Group-4-Copy" transform="translate(0.000000, 6.000000)" stroke="#F27C21">
                    <path d="M9.48699144,0.490111439 C9.18136693,0.909622805 9,1.43274863 9,2 C9,3.25114077 9.88230627,4.28762148 11.0341464,4.47113748 C10.3494378,5.41537684 10.4584556,6.77216412 11.3431458,7.65685425 C12.2318193,8.54552783 13.596851,8.65152817 14.5415921,7.95655633 C14.6585781,8.59050799 15.014738,9.14063984 15.5130086,9.50988856 C15.0747311,10.1114842 14.3809221,10.5 13.6,10.5 C13.5076733,10.5 13.4165642,10.4945694 13.3269511,10.4839981 C13.3926514,10.5458506 13.4553753,10.6121535 13.5147217,10.6828799 C14.366726,11.6982591 14.1999875,13.2408511 13.1423009,14.1283555 C12.3132518,14.8240103 11.1828898,14.9106985 10.3226252,14.4266824 C9.95446859,15.3486056 9.05330496,16 8,16 C6.77521979,16 5.7561495,15.1192511 5.54159209,13.9565563 C4.59685101,14.6515282 3.23181933,14.5455278 2.34314575,13.6568542 C1.45845562,12.7721641 1.34943784,11.4153768 2.03414638,10.4711375 C0.882306271,10.2876215 -3.6365039e-13,9.25114077 -3.33066907e-13,8 C-3.66817687e-13,6.61928813 1.0745166,5.5 2.4,5.5 C2.49232671,5.5 2.58343577,5.5054306 2.67304886,5.51600189 C2.6073486,5.45414937 2.54462474,5.38784651 2.48527828,5.31712014 C1.63327397,4.30174095 1.80001246,2.75914894 2.85769912,1.87164446 C3.68674818,1.1759897 4.81711025,1.08930147 5.67737476,1.57331757 C6.0455314,0.651394417 6.94669504,0 8,0 C8.55697689,0 9.07141224,0.182142012 9.48699144,0.490111439 Z" id="Combined-Shape" stroke-width="1.5999999" stroke-linecap="round" stroke-linejoin="round"></path>
                    <circle id="Oval" stroke-width="2" cx="8" cy="8" r="2.66666667"></circle>
                </g>
            </g>
        </g>
    </g>
</svg>