<?xml version="1.0" encoding="utf-8"?>
<!-- Generator: Adobe Illustrator 19.0.0, SVG Export Plug-In . SVG Version: 6.00 Build 0)  -->
<svg version="1.1" id="Layer_1" xmlns="http://www.w3.org/2000/svg" xmlns:xlink="http://www.w3.org/1999/xlink" x="0px" y="0px"
	 viewBox="0 0 22.4 16.7" style="enable-background:new 0 0 22.4 16.7;" xml:space="preserve">
<style type="text/css">
	.st0{fill:#AFB8C0;}
	.st1{fill:none;}
</style>
<g id="XMLID_1_">
	<g>
		<path id="XMLID_16_" class="st0" d="M11.4,16.2c-1.2,0-2.1-0.9-2.1-2.1s0.9-2.1,2.1-2.1s2.1,0.9,2.1,2.1S12.6,16.2,11.4,16.2z
			 M11.4,13.2c-0.5,0-0.9,0.4-0.9,0.9s0.4,0.9,0.9,0.9s0.9-0.4,0.9-0.9S11.9,13.2,11.4,13.2z"/>
	</g>
	<path id="XMLID_29_" class="st1" d="M11.4,10.2c-1.9,0-3.5,1.4-3.8,3.2l3.3,3.3l4.1-4.1C14.4,11.2,13,10.2,11.4,10.2z"/>
	<path id="XMLID_33_" class="st0" d="M11.4,10.2c1.6,0,3,1,3.6,2.4l0.9-0.9C15,10.1,13.4,9,11.4,9c-2.2,0-4.1,1.4-4.8,3.4l1,1
		C7.9,11.6,9.5,10.2,11.4,10.2z"/>
	<path id="XMLID_34_" class="st0" d="M11.4,7.2c2.4,0,4.6,1.3,5.8,3.2l0.9-0.9C16.6,7.4,14.2,6,11.4,6c-3,0-5.7,1.7-7.1,4.2l0.9,0.9
		C6.3,8.8,8.7,7.2,11.4,7.2z"/>
	<path id="XMLID_35_" class="st0" d="M11.4,4.2c3.3,0,6.2,1.6,8,4.1l0.9-0.9C18.2,4.7,15,3,11.4,3C7.5,3,4.1,5,2.1,8L3,8.9
		C4.8,6.1,7.9,4.2,11.4,4.2z"/>
	<path id="XMLID_36_" class="st0" d="M11.4,1.2c4.1,0,7.8,1.9,10.1,4.9l0.9-0.9C19.8,2.1,15.8,0,11.4,0C6.7,0,2.6,2.3,0,5.8l0.9,0.9
		C3.2,3.4,7,1.2,11.4,1.2z"/>
</g>
</svg>
