{
    "question" : {
        "questA" : [
            {"question":"Siapa TRAC?","answer":"We may collect personal identification information from Users in a variety of ways, including, but not limited to, when Users visit our site, place an order, subscribe to the newsletter, and in connection with other activities, services, features or resources we make available on our Site. Users may be asked for, as appropriate, name, email address, mailing address, phone number, credit card information. Users may, however, visit our Site anonymously. We will collect personal identification information from Users only if they voluntarily submit such information to us. Users can always refuse to supply personally identification information, except that it may prevent them from engaging in certain Site related activities."},
            {"question":"Apa saja layanan yang disediakan oleh TRAC?","answer":"We may collect personal identification information from Users in a variety of ways, including, but not limited to, when Users visit our site, place an order, subscribe to the newsletter, and in connection with other activities, services, features or resources we make available on our Site. Users may be asked for, as appropriate, name, email address, mailing address, phone number, credit card information. Users may, however, visit our Site anonymously. We will collect personal identification information from Users only if they voluntarily submit such information to us. Users can always refuse to supply personally identification information, except that it may prevent them from engaging in certain Site related activities."},
            {"question":"Apa keuntungan bagi saya jika menggunakan layanan TRAC?","answer":"We may collect personal identification information from Users in a variety of ways, including, but not limited to, when Users visit our site, place an order, subscribe to the newsletter, and in connection with other activities, services, features or resources we make available on our Site. Users may be asked for, as appropriate, name, email address, mailing address, phone number, credit card information. Users may, however, visit our Site anonymously. We will collect personal identification information from Users only if they voluntarily submit such information to us. Users can always refuse to supply personally identification information, except that it may prevent them from engaging in certain Site related activities."},
            {"question":"Di mana saja saya bisa menggunakan layanan TRAC?","answer":"We may collect personal identification information from Users in a variety of ways, including, but not limited to, when Users visit our site, place an order, subscribe to the newsletter, and in connection with other activities, services, features or resources we make available on our Site. Users may be asked for, as appropriate, name, email address, mailing address, phone number, credit card information. Users may, however, visit our Site anonymously. We will collect personal identification information from Users only if they voluntarily submit such information to us. Users can always refuse to supply personally identification information, except that it may prevent them from engaging in certain Site related activities."},
            {"question":"Bagaimana cara mengakses layanan TRAC?","answer":"We may collect personal identification information from Users in a variety of ways, including, but not limited to, when Users visit our site, place an order, subscribe to the newsletter, and in connection with other activities, services, features or resources we make available on our Site. Users may be asked for, as appropriate, name, email address, mailing address, phone number, credit card information. Users may, however, visit our Site anonymously. We will collect personal identification information from Users only if they voluntarily submit such information to us. Users can always refuse to supply personally identification information, except that it may prevent them from engaging in certain Site related activities."},
            {"question":"Jenis mobil apa saja yang disewakan TRAC?","answer":"We may collect personal identification information from Users in a variety of ways, including, but not limited to, when Users visit our site, place an order, subscribe to the newsletter, and in connection with other activities, services, features or resources we make available on our Site. Users may be asked for, as appropriate, name, email address, mailing address, phone number, credit card information. Users may, however, visit our Site anonymously. We will collect personal identification information from Users only if they voluntarily submit such information to us. Users can always refuse to supply personally identification information, except that it may prevent them from engaging in certain Site related activities."},
            {"question":"Ke mana saya bisa menghubungi TRAC?","answer":"We may collect personal identification information from Users in a variety of ways, including, but not limited to, when Users visit our site, place an order, subscribe to the newsletter, and in connection with other activities, services, features or resources we make available on our Site. Users may be asked for, as appropriate, name, email address, mailing address, phone number, credit card information. Users may, however, visit our Site anonymously. We will collect personal identification information from Users only if they voluntarily submit such information to us. Users can always refuse to supply personally identification information, except that it may prevent them from engaging in certain Site related activities."},
            {"question":"Apakah saya bisa menitipkan kendaraan saya kepada TRAC untuk disewakan?","answer":"We may collect personal identification information from Users in a variety of ways, including, but not limited to, when Users visit our site, place an order, subscribe to the newsletter, and in connection with other activities, services, features or resources we make available on our Site. Users may be asked for, as appropriate, name, email address, mailing address, phone number, credit card information. Users may, however, visit our Site anonymously. We will collect personal identification information from Users only if they voluntarily submit such information to us. Users can always refuse to supply personally identification information, except that it may prevent them from engaging in certain Site related activities."},
            {"question":"Apakah saya bisa menyewa jasa pengemudi TRAC saja, tanpa menyewa kendaraan?","answer":"We may collect personal identification information from Users in a variety of ways, including, but not limited to, when Users visit our site, place an order, subscribe to the newsletter, and in connection with other activities, services, features or resources we make available on our Site. Users may be asked for, as appropriate, name, email address, mailing address, phone number, credit card information. Users may, however, visit our Site anonymously. We will collect personal identification information from Users only if they voluntarily submit such information to us. Users can always refuse to supply personally identification information, except that it may prevent them from engaging in certain Site related activities."},
            {"question":"Saya warna negara asing, apakah saya bisa menggunakan layanan TRAC?","answer":"We may collect personal identification information from Users in a variety of ways, including, but not limited to, when Users visit our site, place an order, subscribe to the newsletter, and in connection with other activities, services, features or resources we make available on our Site. Users may be asked for, as appropriate, name, email address, mailing address, phone number, credit card information. Users may, however, visit our Site anonymously. We will collect personal identification information from Users only if they voluntarily submit such information to us. Users can always refuse to supply personally identification information, except that it may prevent them from engaging in certain Site related activities."}
        ],
        "questB" : [
            {"question":"Apa keuntungan bagi saya jika menggunakan layanan TRAC?","answer":"We may collect personal identification information from Users in a variety of ways, including, but not limited to, when Users visit our site, place an order, subscribe to the newsletter, and in connection with other activities, services, features or resources we make available on our Site. Users may be asked for, as appropriate, name, email address, mailing address, phone number, credit card information. Users may, however, visit our Site anonymously. We will collect personal identification information from Users only if they voluntarily submit such information to us. Users can always refuse to supply personally identification information, except that it may prevent them from engaging in certain Site related activities."},
            {"question":"Di mana saja saya bisa menggunakan layanan TRAC?","answer":"We may collect personal identification information from Users in a variety of ways, including, but not limited to, when Users visit our site, place an order, subscribe to the newsletter, and in connection with other activities, services, features or resources we make available on our Site. Users may be asked for, as appropriate, name, email address, mailing address, phone number, credit card information. Users may, however, visit our Site anonymously. We will collect personal identification information from Users only if they voluntarily submit such information to us. Users can always refuse to supply personally identification information, except that it may prevent them from engaging in certain Site related activities."},
            {"question":"Bagaimana cara mengakses layanan TRAC?","answer":"We may collect personal identification information from Users in a variety of ways, including, but not limited to, when Users visit our site, place an order, subscribe to the newsletter, and in connection with other activities, services, features or resources we make available on our Site. Users may be asked for, as appropriate, name, email address, mailing address, phone number, credit card information. Users may, however, visit our Site anonymously. We will collect personal identification information from Users only if they voluntarily submit such information to us. Users can always refuse to supply personally identification information, except that it may prevent them from engaging in certain Site related activities."},
            {"question":"Jenis mobil apa saja yang disewakan TRAC?","answer":"We may collect personal identification information from Users in a variety of ways, including, but not limited to, when Users visit our site, place an order, subscribe to the newsletter, and in connection with other activities, services, features or resources we make available on our Site. Users may be asked for, as appropriate, name, email address, mailing address, phone number, credit card information. Users may, however, visit our Site anonymously. We will collect personal identification information from Users only if they voluntarily submit such information to us. Users can always refuse to supply personally identification information, except that it may prevent them from engaging in certain Site related activities."},
            {"question":"Ke mana saya bisa menghubungi TRAC?","answer":"We may collect personal identification information from Users in a variety of ways, including, but not limited to, when Users visit our site, place an order, subscribe to the newsletter, and in connection with other activities, services, features or resources we make available on our Site. Users may be asked for, as appropriate, name, email address, mailing address, phone number, credit card information. Users may, however, visit our Site anonymously. We will collect personal identification information from Users only if they voluntarily submit such information to us. Users can always refuse to supply personally identification information, except that it may prevent them from engaging in certain Site related activities."},
            {"question":"Apakah saya bisa menitipkan kendaraan saya kepada TRAC untuk disewakan?","answer":"We may collect personal identification information from Users in a variety of ways, including, but not limited to, when Users visit our site, place an order, subscribe to the newsletter, and in connection with other activities, services, features or resources we make available on our Site. Users may be asked for, as appropriate, name, email address, mailing address, phone number, credit card information. Users may, however, visit our Site anonymously. We will collect personal identification information from Users only if they voluntarily submit such information to us. Users can always refuse to supply personally identification information, except that it may prevent them from engaging in certain Site related activities."},
            {"question":"Apakah saya bisa menyewa jasa pengemudi TRAC saja, tanpa menyewa kendaraan?","answer":"We may collect personal identification information from Users in a variety of ways, including, but not limited to, when Users visit our site, place an order, subscribe to the newsletter, and in connection with other activities, services, features or resources we make available on our Site. Users may be asked for, as appropriate, name, email address, mailing address, phone number, credit card information. Users may, however, visit our Site anonymously. We will collect personal identification information from Users only if they voluntarily submit such information to us. Users can always refuse to supply personally identification information, except that it may prevent them from engaging in certain Site related activities."},
            {"question":"Saya warna negara asing, apakah saya bisa menggunakan layanan TRAC?","answer":"We may collect personal identification information from Users in a variety of ways, including, but not limited to, when Users visit our site, place an order, subscribe to the newsletter, and in connection with other activities, services, features or resources we make available on our Site. Users may be asked for, as appropriate, name, email address, mailing address, phone number, credit card information. Users may, however, visit our Site anonymously. We will collect personal identification information from Users only if they voluntarily submit such information to us. Users can always refuse to supply personally identification information, except that it may prevent them from engaging in certain Site related activities."}
        ],
        "questC" : [
            {"question":"Jenis mobil apa saja yang disewakan TRAC?","answer":"We may collect personal identification information from Users in a variety of ways, including, but not limited to, when Users visit our site, place an order, subscribe to the newsletter, and in connection with other activities, services, features or resources we make available on our Site. Users may be asked for, as appropriate, name, email address, mailing address, phone number, credit card information. Users may, however, visit our Site anonymously. We will collect personal identification information from Users only if they voluntarily submit such information to us. Users can always refuse to supply personally identification information, except that it may prevent them from engaging in certain Site related activities."},
            {"question":"Ke mana saya bisa menghubungi TRAC?","answer":"We may collect personal identification information from Users in a variety of ways, including, but not limited to, when Users visit our site, place an order, subscribe to the newsletter, and in connection with other activities, services, features or resources we make available on our Site. Users may be asked for, as appropriate, name, email address, mailing address, phone number, credit card information. Users may, however, visit our Site anonymously. We will collect personal identification information from Users only if they voluntarily submit such information to us. Users can always refuse to supply personally identification information, except that it may prevent them from engaging in certain Site related activities."},
            {"question":"Apakah saya bisa menitipkan kendaraan saya kepada TRAC untuk disewakan?","answer":"We may collect personal identification information from Users in a variety of ways, including, but not limited to, when Users visit our site, place an order, subscribe to the newsletter, and in connection with other activities, services, features or resources we make available on our Site. Users may be asked for, as appropriate, name, email address, mailing address, phone number, credit card information. Users may, however, visit our Site anonymously. We will collect personal identification information from Users only if they voluntarily submit such information to us. Users can always refuse to supply personally identification information, except that it may prevent them from engaging in certain Site related activities."},
            {"question":"Apakah saya bisa menyewa jasa pengemudi TRAC saja, tanpa menyewa kendaraan?","answer":"We may collect personal identification information from Users in a variety of ways, including, but not limited to, when Users visit our site, place an order, subscribe to the newsletter, and in connection with other activities, services, features or resources we make available on our Site. Users may be asked for, as appropriate, name, email address, mailing address, phone number, credit card information. Users may, however, visit our Site anonymously. We will collect personal identification information from Users only if they voluntarily submit such information to us. Users can always refuse to supply personally identification information, except that it may prevent them from engaging in certain Site related activities."},
            {"question":"Saya warna negara asing, apakah saya bisa menggunakan layanan TRAC?","answer":"We may collect personal identification information from Users in a variety of ways, including, but not limited to, when Users visit our site, place an order, subscribe to the newsletter, and in connection with other activities, services, features or resources we make available on our Site. Users may be asked for, as appropriate, name, email address, mailing address, phone number, credit card information. Users may, however, visit our Site anonymously. We will collect personal identification information from Users only if they voluntarily submit such information to us. Users can always refuse to supply personally identification information, except that it may prevent them from engaging in certain Site related activities."}
        ],
        "questD" : [
            {"question":"Siapa TRAC?","answer":"We may collect personal identification information from Users in a variety of ways, including, but not limited to, when Users visit our site, place an order, subscribe to the newsletter, and in connection with other activities, services, features or resources we make available on our Site. Users may be asked for, as appropriate, name, email address, mailing address, phone number, credit card information. Users may, however, visit our Site anonymously. We will collect personal identification information from Users only if they voluntarily submit such information to us. Users can always refuse to supply personally identification information, except that it may prevent them from engaging in certain Site related activities."},
            {"question":"Apa saja layanan yang disediakan oleh TRAC?","answer":"We may collect personal identification information from Users in a variety of ways, including, but not limited to, when Users visit our site, place an order, subscribe to the newsletter, and in connection with other activities, services, features or resources we make available on our Site. Users may be asked for, as appropriate, name, email address, mailing address, phone number, credit card information. Users may, however, visit our Site anonymously. We will collect personal identification information from Users only if they voluntarily submit such information to us. Users can always refuse to supply personally identification information, except that it may prevent them from engaging in certain Site related activities."},
            {"question":"Apa keuntungan bagi saya jika menggunakan layanan TRAC?","answer":"We may collect personal identification information from Users in a variety of ways, including, but not limited to, when Users visit our site, place an order, subscribe to the newsletter, and in connection with other activities, services, features or resources we make available on our Site. Users may be asked for, as appropriate, name, email address, mailing address, phone number, credit card information. Users may, however, visit our Site anonymously. We will collect personal identification information from Users only if they voluntarily submit such information to us. Users can always refuse to supply personally identification information, except that it may prevent them from engaging in certain Site related activities."},
            {"question":"Di mana saja saya bisa menggunakan layanan TRAC?","answer":"We may collect personal identification information from Users in a variety of ways, including, but not limited to, when Users visit our site, place an order, subscribe to the newsletter, and in connection with other activities, services, features or resources we make available on our Site. Users may be asked for, as appropriate, name, email address, mailing address, phone number, credit card information. Users may, however, visit our Site anonymously. We will collect personal identification information from Users only if they voluntarily submit such information to us. Users can always refuse to supply personally identification information, except that it may prevent them from engaging in certain Site related activities."},
            {"question":"Bagaimana cara mengakses layanan TRAC?","answer":"We may collect personal identification information from Users in a variety of ways, including, but not limited to, when Users visit our site, place an order, subscribe to the newsletter, and in connection with other activities, services, features or resources we make available on our Site. Users may be asked for, as appropriate, name, email address, mailing address, phone number, credit card information. Users may, however, visit our Site anonymously. We will collect personal identification information from Users only if they voluntarily submit such information to us. Users can always refuse to supply personally identification information, except that it may prevent them from engaging in certain Site related activities."}
        ],
        "questE" : [
            {"question":"Siapa TRAC?","answer":"We may collect personal identification information from Users in a variety of ways, including, but not limited to, when Users visit our site, place an order, subscribe to the newsletter, and in connection with other activities, services, features or resources we make available on our Site. Users may be asked for, as appropriate, name, email address, mailing address, phone number, credit card information. Users may, however, visit our Site anonymously. We will collect personal identification information from Users only if they voluntarily submit such information to us. Users can always refuse to supply personally identification information, except that it may prevent them from engaging in certain Site related activities."},
            {"question":"Apa saja layanan yang disediakan oleh TRAC?","answer":"We may collect personal identification information from Users in a variety of ways, including, but not limited to, when Users visit our site, place an order, subscribe to the newsletter, and in connection with other activities, services, features or resources we make available on our Site. Users may be asked for, as appropriate, name, email address, mailing address, phone number, credit card information. Users may, however, visit our Site anonymously. We will collect personal identification information from Users only if they voluntarily submit such information to us. Users can always refuse to supply personally identification information, except that it may prevent them from engaging in certain Site related activities."},
            {"question":"Apa keuntungan bagi saya jika menggunakan layanan TRAC?","answer":"We may collect personal identification information from Users in a variety of ways, including, but not limited to, when Users visit our site, place an order, subscribe to the newsletter, and in connection with other activities, services, features or resources we make available on our Site. Users may be asked for, as appropriate, name, email address, mailing address, phone number, credit card information. Users may, however, visit our Site anonymously. We will collect personal identification information from Users only if they voluntarily submit such information to us. Users can always refuse to supply personally identification information, except that it may prevent them from engaging in certain Site related activities."},
        {"question":"Apakah saya bisa menitipkan kendaraan saya kepada TRAC untuk disewakan?","answer":"We may collect personal identification information from Users in a variety of ways, including, but not limited to, when Users visit our site, place an order, subscribe to the newsletter, and in connection with other activities, services, features or resources we make available on our Site. Users may be asked for, as appropriate, name, email address, mailing address, phone number, credit card information. Users may, however, visit our Site anonymously. We will collect personal identification information from Users only if they voluntarily submit such information to us. Users can always refuse to supply personally identification information, except that it may prevent them from engaging in certain Site related activities."},
            {"question":"Apakah saya bisa menyewa jasa pengemudi TRAC saja, tanpa menyewa kendaraan?","answer":"We may collect personal identification information from Users in a variety of ways, including, but not limited to, when Users visit our site, place an order, subscribe to the newsletter, and in connection with other activities, services, features or resources we make available on our Site. Users may be asked for, as appropriate, name, email address, mailing address, phone number, credit card information. Users may, however, visit our Site anonymously. We will collect personal identification information from Users only if they voluntarily submit such information to us. Users can always refuse to supply personally identification information, except that it may prevent them from engaging in certain Site related activities."},
            {"question":"Saya warna negara asing, apakah saya bisa menggunakan layanan TRAC?","answer":"We may collect personal identification information from Users in a variety of ways, including, but not limited to, when Users visit our site, place an order, subscribe to the newsletter, and in connection with other activities, services, features or resources we make available on our Site. Users may be asked for, as appropriate, name, email address, mailing address, phone number, credit card information. Users may, however, visit our Site anonymously. We will collect personal identification information from Users only if they voluntarily submit such information to us. Users can always refuse to supply personally identification information, except that it may prevent them from engaging in certain Site related activities."}
        ],
        "questF" : [
            {"question":"Apa keuntungan bagi saya jika menggunakan layanan TRAC?","answer":"We may collect personal identification information from Users in a variety of ways, including, but not limited to, when Users visit our site, place an order, subscribe to the newsletter, and in connection with other activities, services, features or resources we make available on our Site. Users may be asked for, as appropriate, name, email address, mailing address, phone number, credit card information. Users may, however, visit our Site anonymously. We will collect personal identification information from Users only if they voluntarily submit such information to us. Users can always refuse to supply personally identification information, except that it may prevent them from engaging in certain Site related activities."},
            {"question":"Di mana saja saya bisa menggunakan layanan TRAC?","answer":"We may collect personal identification information from Users in a variety of ways, including, but not limited to, when Users visit our site, place an order, subscribe to the newsletter, and in connection with other activities, services, features or resources we make available on our Site. Users may be asked for, as appropriate, name, email address, mailing address, phone number, credit card information. Users may, however, visit our Site anonymously. We will collect personal identification information from Users only if they voluntarily submit such information to us. Users can always refuse to supply personally identification information, except that it may prevent them from engaging in certain Site related activities."},
            {"question":"Bagaimana cara mengakses layanan TRAC?","answer":"We may collect personal identification information from Users in a variety of ways, including, but not limited to, when Users visit our site, place an order, subscribe to the newsletter, and in connection with other activities, services, features or resources we make available on our Site. Users may be asked for, as appropriate, name, email address, mailing address, phone number, credit card information. Users may, however, visit our Site anonymously. We will collect personal identification information from Users only if they voluntarily submit such information to us. Users can always refuse to supply personally identification information, except that it may prevent them from engaging in certain Site related activities."},
            {"question":"Jenis mobil apa saja yang disewakan TRAC?","answer":"We may collect personal identification information from Users in a variety of ways, including, but not limited to, when Users visit our site, place an order, subscribe to the newsletter, and in connection with other activities, services, features or resources we make available on our Site. Users may be asked for, as appropriate, name, email address, mailing address, phone number, credit card information. Users may, however, visit our Site anonymously. We will collect personal identification information from Users only if they voluntarily submit such information to us. Users can always refuse to supply personally identification information, except that it may prevent them from engaging in certain Site related activities."},
            {"question":"Ke mana saya bisa menghubungi TRAC?","answer":"We may collect personal identification information from Users in a variety of ways, including, but not limited to, when Users visit our site, place an order, subscribe to the newsletter, and in connection with other activities, services, features or resources we make available on our Site. Users may be asked for, as appropriate, name, email address, mailing address, phone number, credit card information. Users may, however, visit our Site anonymously. We will collect personal identification information from Users only if they voluntarily submit such information to us. Users can always refuse to supply personally identification information, except that it may prevent them from engaging in certain Site related activities."},
            {"question":"Saya warna negara asing, apakah saya bisa menggunakan layanan TRAC?","answer":"We may collect personal identification information from Users in a variety of ways, including, but not limited to, when Users visit our site, place an order, subscribe to the newsletter, and in connection with other activities, services, features or resources we make available on our Site. Users may be asked for, as appropriate, name, email address, mailing address, phone number, credit card information. Users may, however, visit our Site anonymously. We will collect personal identification information from Users only if they voluntarily submit such information to us. Users can always refuse to supply personally identification information, except that it may prevent them from engaging in certain Site related activities."}
        ],
        "questG" : [
            {"question":"Jenis mobil apa saja yang disewakan TRAC?","answer":"We may collect personal identification information from Users in a variety of ways, including, but not limited to, when Users visit our site, place an order, subscribe to the newsletter, and in connection with other activities, services, features or resources we make available on our Site. Users may be asked for, as appropriate, name, email address, mailing address, phone number, credit card information. Users may, however, visit our Site anonymously. We will collect personal identification information from Users only if they voluntarily submit such information to us. Users can always refuse to supply personally identification information, except that it may prevent them from engaging in certain Site related activities."},
            {"question":"Ke mana saya bisa menghubungi TRAC?","answer":"We may collect personal identification information from Users in a variety of ways, including, but not limited to, when Users visit our site, place an order, subscribe to the newsletter, and in connection with other activities, services, features or resources we make available on our Site. Users may be asked for, as appropriate, name, email address, mailing address, phone number, credit card information. Users may, however, visit our Site anonymously. We will collect personal identification information from Users only if they voluntarily submit such information to us. Users can always refuse to supply personally identification information, except that it may prevent them from engaging in certain Site related activities."},
            {"question":"Apakah saya bisa menitipkan kendaraan saya kepada TRAC untuk disewakan?","answer":"We may collect personal identification information from Users in a variety of ways, including, but not limited to, when Users visit our site, place an order, subscribe to the newsletter, and in connection with other activities, services, features or resources we make available on our Site. Users may be asked for, as appropriate, name, email address, mailing address, phone number, credit card information. Users may, however, visit our Site anonymously. We will collect personal identification information from Users only if they voluntarily submit such information to us. Users can always refuse to supply personally identification information, except that it may prevent them from engaging in certain Site related activities."},
            {"question":"Di mana saja saya bisa menggunakan layanan TRAC?","answer":"We may collect personal identification information from Users in a variety of ways, including, but not limited to, when Users visit our site, place an order, subscribe to the newsletter, and in connection with other activities, services, features or resources we make available on our Site. Users may be asked for, as appropriate, name, email address, mailing address, phone number, credit card information. Users may, however, visit our Site anonymously. We will collect personal identification information from Users only if they voluntarily submit such information to us. Users can always refuse to supply personally identification information, except that it may prevent them from engaging in certain Site related activities."},
            {"question":"Bagaimana cara mengakses layanan TRAC?","answer":"We may collect personal identification information from Users in a variety of ways, including, but not limited to, when Users visit our site, place an order, subscribe to the newsletter, and in connection with other activities, services, features or resources we make available on our Site. Users may be asked for, as appropriate, name, email address, mailing address, phone number, credit card information. Users may, however, visit our Site anonymously. We will collect personal identification information from Users only if they voluntarily submit such information to us. Users can always refuse to supply personally identification information, except that it may prevent them from engaging in certain Site related activities."},
            {"question":"Apakah saya bisa menyewa jasa pengemudi TRAC saja, tanpa menyewa kendaraan?","answer":"We may collect personal identification information from Users in a variety of ways, including, but not limited to, when Users visit our site, place an order, subscribe to the newsletter, and in connection with other activities, services, features or resources we make available on our Site. Users may be asked for, as appropriate, name, email address, mailing address, phone number, credit card information. Users may, however, visit our Site anonymously. We will collect personal identification information from Users only if they voluntarily submit such information to us. Users can always refuse to supply personally identification information, except that it may prevent them from engaging in certain Site related activities."},
            {"question":"Saya warna negara asing, apakah saya bisa menggunakan layanan TRAC?","answer":"We may collect personal identification information from Users in a variety of ways, including, but not limited to, when Users visit our site, place an order, subscribe to the newsletter, and in connection with other activities, services, features or resources we make available on our Site. Users may be asked for, as appropriate, name, email address, mailing address, phone number, credit card information. Users may, however, visit our Site anonymously. We will collect personal identification information from Users only if they voluntarily submit such information to us. Users can always refuse to supply personally identification information, except that it may prevent them from engaging in certain Site related activities."}
        ]
    }
}